<?xml version="1.0" encoding="utf-8"?>
<!-- Generator: Adobe Illustrator 25.3.1, SVG Export Plug-In . SVG Version: 6.00 Build 0)  -->
<svg version="1.1" id="Capa_1" xmlns="http://www.w3.org/2000/svg" xmlns:xlink="http://www.w3.org/1999/xlink" x="0px" y="0px"
	 viewBox="0 0 1920 737" style="enable-background:new 0 0 1920 737;" xml:space="preserve">
<style type="text/css">
	.st0{fill:#C4C4C4;filter:url(#Adobe_OpacityMaskFilter);}
	.st1{mask:url(#mask0_1_);}
	.st2{fill:#515F82;}
	.st3{fill:#45A7CE;filter:url(#Adobe_OpacityMaskFilter_1_);}
	.st4{mask:url(#mask1_1_);}
	.st5{fill:#384866;}
	.st6{fill:#233144;}
	.st7{fill:#9199AB;}
	.st8{fill:url(#SVGID_1_);}
	.st9{fill:url(#SVGID_2_);}
	.st10{fill:#9198AB;}
	.st11{fill:#7986A8;stroke:#7986A8;stroke-miterlimit:10;}
	.st12{fill:#7986A8;}
	.st13{fill:#C3DDEB;}
</style>
<defs>
	<filter id="Adobe_OpacityMaskFilter" filterUnits="userSpaceOnUse" x="-126.3" y="213.5" width="2050" height="662">
		<feColorMatrix  type="matrix" values="1 0 0 0 0  0 1 0 0 0  0 0 1 0 0  0 0 0 1 0"/>
	</filter>
</defs>
<mask maskUnits="userSpaceOnUse" x="-126.3" y="213.5" width="2050" height="662" id="mask0_1_">
	<rect class="st0" width="1920" height="736.8"/>
</mask>
<g class="st1">
	<path class="st2" d="M-122.5,532.5l-3.7,110.1c150.7,9.1,297.8,26.2,443,46.3c327.4,46.3,676.6,61.7,1031.3,35
		c204.6-15.8,379-49.7,572-70.8l3.7-120.5H-122.5z"/>
	<defs>
		<filter id="Adobe_OpacityMaskFilter_1_" filterUnits="userSpaceOnUse" x="1208.3" y="529.9" width="649.9" height="345.6">
			<feColorMatrix  type="matrix" values="1 0 0 0 0  0 1 0 0 0  0 0 1 0 0  0 0 0 1 0"/>
		</filter>
	</defs>
	<mask maskUnits="userSpaceOnUse" x="1208.3" y="529.9" width="649.9" height="345.6" id="mask1_1_">
		<path class="st3" d="M-122.5,553.4l-3.7,98.8c150.7,8.2,297.8,23.5,443,41.5C644.1,735.2,993.3,749,1348,725.1
			c204.6-14.2,379-44.6,572-63.5l3.7-108.1H-122.5z"/>
	</mask>
	<g class="st4">
		<path class="st5" d="M1857.2,592l-567,40.8c-1.1,0.1-1.3,1.7-0.2,2l104.8,26c0.1,0,0.1,0,0.2,0c31.5,2.1,130.3,24.5,139.4,26.4
			c0.1,0,0.1,0,0.2,0.1l96,48.4l83.5,49.1l142.6,90.8c0.7,0.4,1.5-0.1,1.5-0.8v-25.7V593C1858.2,592.4,1857.8,591.9,1857.2,592z"/>
		<path class="st6" d="M1798.8,591.9c-0.2,3.4-0.5,6.8-0.5,10.2c0,43.6,0.1,87.1,0.1,130.7c0,25.1,0,50.2,0,75.4
			c0,1.2,0.6,2.9-0.4,3.7c-1.2,1-2.2-0.6-3.1-1.3c-20.7-15.8-41.2-31.8-61.9-47.5c-3.8-2.9-5.2-6-5.2-11.8
			c0.3-50.6,0.2-101.1,0.2-151.7c9.7-1.2,19.4-2.6,29.1-3.6C1771,594.4,1784.9,593.2,1798.8,591.9z"/>
		<path class="st6" d="M1627.4,619.2c-0.1,5.2-0.2,10.4-0.2,15.7c0,25.9,0,51.8,0,77.7c0,5.2-0.1,5.3-4.7,3.1
			c-28.7-13.7-57.4-27.5-86.1-41.2c-1.9-0.9-2.6-2-2.5-4.1c0.2-4.7,0.2-9.4,0-14.2c-0.2-2.8,1.2-4.1,3.7-4.4c4-0.6,5.2-2.9,5.1-6.7
			c-0.3-6.8-0.2-13.5-0.3-20.3c5.9-1.3,11.9-1,17.8-1.4C1582.6,621.8,1605,620.6,1627.4,619.2z"/>
		<path class="st6" d="M1526.4,625.6c-0.1,4.1-0.2,8.1-0.2,12.2c0,1.7,0.3,3.3,2.6,3.5c1.9,0.2,2.1,1.7,2.1,3.1
			c0,8.4,0,16.8,0.1,25.2c0.1,2.8-1.5,2.4-3.2,2.1c-16.7-2.5-33.3-4.9-50-7.3c-26.5-3.9-53.1-7.8-79.6-11.5
			c-3.5-0.5-4.7-1.7-4.6-5.3c0.1-6.7,0.6-13.5-0.3-20.2c2.7-0.1,5.5-0.2,8.2-0.2c34.2-0.1,68.3-0.1,102.5-0.3
			C1511.3,626.9,1518.8,626.1,1526.4,625.6z"/>
		<path class="st6" d="M1711.8,611.7c0,47.8,0,95.6,0,143.5c0,7.2-0.8,8-5.8,4.5c-11.9-8.2-23.7-16.6-35.6-24.8
			c-1.7-1.1-2.1-2.7-2-4.9c0.1-43.4,0.1-86.9,0.1-130.3c0-1.8,0.2-3.7,0.3-5.5c4.9,0.7,9.3,3.7,13.9,5.6
			C1692.4,603.5,1702.1,607.7,1711.8,611.7z"/>
		<path class="st6" d="M1858.2,600.2c0,79.3,0,158.5,0,237.8c0,12-1,13.2-7.6,7.5c-15.7-13.5-31.2-27.4-46.9-41
			c-2.2-1.9-2.7-4.4-2.7-8.1c0.1-72,0.1-144,0.2-216c0-3.1,0.2-6.1,0.4-9.2c6.5,1.1,12.2,6.2,18.3,9.2
			C1832.8,586.8,1845.5,593.6,1858.2,600.2z"/>
		<path class="st6" d="M1667.4,633.8c0.1,1.1,0.2,2.3,0.2,3.4c0,32.5,0,65,0,97.5c0,4.2-0.1,4.3-3.7,2.4
			c-11.1-5.7-22.2-11.6-33.3-17.3c-1.5-0.8-2-1.6-2-3.3c0.1-30.7,0.1-61.4,0.1-92.2c0-1.8,0-3.6,0-5.3
			C1641.6,623.9,1654.8,628.3,1667.4,633.8z"/>
		<path class="st6" d="M1392.3,627.4c-1.2,6.6-0.3,13.2-0.5,19.8c-0.2,4.6,0,4.5-4.7,3.7c-9.3-1.6-18.6-3.2-28-4.5
			c-2.7-0.4-3-1.5-2.9-3.7c0.2-4.8,0.2-9.7,0.2-14.5C1368.3,626.7,1380.3,627.3,1392.3,627.4z"/>
		<path class="st6" d="M1354.9,628.3c-0.8,4.7-0.3,9.4-0.3,14.1c0,2.6-0.7,3.2-3.3,2.7c-21-3.4-41.9-6.7-62.9-10.1
			c-2.3-0.4-4.7-0.1-6.8-1.4c9.5-1.6,19.1-1.6,28.7-2.3C1325.1,630.2,1340,629.3,1354.9,628.3z"/>
		<path class="st5" d="M1783.9,550.7l-567,40.8c-1.1,0.1-1.3,1.7-0.2,2l104.8,26c0.1,0,0.1,0,0.2,0c31.5,2.1,157.5,22.2,166.8,24.1
			c0.1,0,0.1,0,0.2,0.1l74.2,37.8l86.8,41.2c0.1,0,0.2,0.1,0.2,0.1l133.3,111c0.7,0.5,1.6,0.1,1.6-0.8v-25.4V551.7
			C1785,551.1,1784.5,550.6,1783.9,550.7z"/>
		<path class="st6" d="M1725.5,550.6c-0.2,3.4-0.5,6.8-0.5,10.2c0,43.6,0.1,87.1,0.2,130.7c0,25.1,0,50.2,0,75.4
			c0,1.2,0.5,2.9-0.4,3.7c-1.2,1-2.2-0.6-3.1-1.3c-20.6-15.8-41.2-31.8-61.9-47.5c-3.8-2.9-5.2-6-5.2-11.8
			c0.3-50.6,0.2-101.1,0.2-151.7c9.7-1.2,19.4-2.6,29.1-3.6C1697.8,553.1,1711.7,551.9,1725.5,550.6z"/>
		<path class="st6" d="M1554.2,577.9c0,5.2-0.1,10.4-0.2,15.7c0,25.9,0,51.8,0,77.7c0,5.2-0.1,5.3-4.7,3.1
			c-28.7-13.7-57.4-27.5-86.1-41.2c-1.9-0.9-2.6-2-2.5-4.1c0.2-4.7,0.2-9.4,0-14.2c-0.1-2.8,1.2-4.1,3.7-4.4c4-0.6,5.2-2.9,5.1-6.7
			c-0.3-6.8-0.2-13.5-0.3-20.3c5.9-1.3,11.9-1,17.8-1.4C1509.4,580.5,1531.8,579.3,1554.2,577.9z"/>
		<path class="st6" d="M1453.1,584.3c-0.1,4.1-0.2,8.1-0.2,12.2c0,1.7,0.3,3.3,2.6,3.5c1.9,0.2,2.1,1.7,2.1,3.1
			c0,8.4-0.1,16.8,0.1,25.2c0.1,2.8-1.5,2.4-3.2,2.1c-16.7-2.5-33.3-4.9-50-7.3c-26.5-3.9-53.1-7.8-79.6-11.5
			c-3.5-0.5-4.7-1.7-4.6-5.3c0.1-6.7,0.6-13.5-0.3-20.2c2.7-0.1,5.5-0.2,8.2-0.2c34.2-0.1,68.4-0.1,102.5-0.3
			C1438.1,585.6,1445.6,584.8,1453.1,584.3z"/>
		<path class="st6" d="M1638.6,570.4c0,47.8,0,95.6,0,143.5c0,7.2-0.8,8-5.8,4.5c-11.9-8.2-23.7-16.6-35.6-24.8
			c-1.7-1.1-2.1-2.7-2-4.9c0.1-43.4,0.1-86.9,0.1-130.3c0-1.8,0.2-3.7,0.3-5.5c4.9,0.7,9.3,3.7,14,5.6
			C1619.2,562.3,1628.8,566.4,1638.6,570.4z"/>
		<path class="st6" d="M1785,558.9c0,79.3,0,158.5-0.1,237.8c0,12-1,13.2-7.6,7.5c-15.7-13.5-31.2-27.4-46.9-41
			c-2.2-1.9-2.7-4.4-2.7-8.1c0.1-72,0.1-144,0.2-216c0-3.1,0.2-6.1,0.3-9.2c6.5,1.1,12.2,6.2,18.3,9.2
			C1759.5,545.5,1772.2,552.3,1785,558.9z"/>
		<path class="st6" d="M1594.2,592.6c0.1,1.1,0.2,2.3,0.2,3.4c0,32.5,0,65,0,97.5c0,4.2-0.1,4.3-3.7,2.4
			c-11.1-5.7-22.2-11.6-33.3-17.3c-1.5-0.8-2-1.6-2-3.3c0.1-30.7,0.1-61.4,0.1-92.2c0-1.8,0-3.6,0-5.3
			C1568.4,582.6,1581.5,587,1594.2,592.6z"/>
		<path class="st6" d="M1319.1,586.2c-1.2,6.6-0.3,13.2-0.5,19.8c-0.2,4.6,0,4.5-4.7,3.7c-9.3-1.6-18.6-3.2-28-4.5
			c-2.7-0.4-3-1.5-2.9-3.7c0.2-4.8,0.2-9.7,0.2-14.5C1295.1,585.4,1307.1,586,1319.1,586.2z"/>
		<path class="st6" d="M1281.7,587c-0.8,4.7-0.3,9.4-0.3,14.1c0,2.6-0.7,3.2-3.3,2.7c-20.9-3.4-41.9-6.7-62.9-10.1
			c-2.3-0.4-4.7-0.1-6.8-1.4c9.5-1.6,19.1-1.6,28.7-2.3C1251.9,588.9,1266.8,588,1281.7,587z"/>
	</g>
	<path class="st2" d="M377,213.5L84,341.1l628.8,213.2L877,518.6l-21.1-82.1L473,300.6L377,213.5z"/>
	<path class="st7" d="M377,213.5c18.8,8.5,37.6,16.9,56.4,25.4c39.9,18,79.8,35.9,119.5,54c53.4,24.3,106.6,48.8,159.9,73.2
		c17.2,7.9,34.2,15.8,51.4,23.7c1.6,0.7,3,1.8,5,1.6c0.8,0.8,1.3,1.9,2.3,2.4c22.1,9.9,44.5,19.4,65.9,30.3
		c4.2,2.1,9.3,5.8,15.9,4.4c0,2.1,0,4.1,0,6.2c-28-0.1-56-0.1-83.9-0.1c-3.8,0-6.3-0.2-8.7-3.4c-3.7-4.8-9.6-8.2-16.9-9.8
		c-18.1-3.9-36.2-8.1-55.2-6.9c-27.7,1.8-52.7-4.2-76-14.9c-18.2-8.4-38-10.3-58.6-9c-14.6,0.9-29.2,1.7-43.9,1.1
		c-10-0.5-19.2-2.7-27.6-6.8c-9.7-4.8-10.4-11.4-2.4-17.9c4.1-3.3,9.3-4.8,14.8-5.6c7.6-1.2,12.6-4.2,13.5-10.5
		c0.9-6.1-3-10.3-9.3-13.2c-13.9-6.5-29-11.2-44.2-15.7c-7.2-2.1-14.7-3.8-21.7-6.2c-4.8-1.6-9.4-3.9-13.5-6.5
		c-12.3-7.8-11.4-15.6,2.1-21.9c2.1-1,4.1-1.9,6-3c8.3-4.6,9-9.6,2.3-15.5c-8-7-19.1-10.2-29.7-13.9c-8.7-3.1-17.5-6-25.9-9.6
		c-3.9-1.6-6.8-4-9.3-6.6c-3.6-3.7-3.3-7.3,1.9-10.1c1.9-1.1,3.9-2.1,5.9-3.2C378.9,222.3,381.5,218.6,377,213.5z"/>
	<path class="st2" d="M1488,417.3c17.9-6.9,28.1-20.5,40.9-31.9c-74.4,21.2-150.5,37-224.8,56.5c-85.4,33.9-172,64.9-260.2,94.5
		h876.5V279.7c-5.7-1.7-11.3-3.3-17-5c-41-5.3-81.4-13.6-121.2-26.1C1687.6,307.8,1595.5,374,1488,417.3z"/>
	<path class="st7" d="M1732,234.8c-140.9,82.8-282.7,149.2-427.9,207c74.3-19.3,150.5-35.2,224.8-56.5c-12.8,11.4-23,25.1-40.9,31.9
		c107.5-43.4,199.6-109.5,294.3-168.8c39.7,12.6,80.2,20.7,121.2,26.1c-43.3-13.1-86-28.4-127.9-46.6
		C1762.7,221.2,1747.3,225.7,1732,234.8z"/>
	<path class="st2" d="M1208.2,429.1c6.9,5.6,3.5,13.9,6.9,19.5c-48.2-8.4-74.3-20.5-122.6-34.4c10.4,0,9.2-9.4,16-12.1
		c-72.3-13.9-158.8-34.2-231.1-50.9c-40.9-7.6-73.3,19.7-110.2,32.9c6.9-1,13.7-0.4,20.6-2.2c-58.4,26.3-107.7,64.8-165.2,90.3
		c-3.4,1.7-6.7,3.1-10.5,4.5c3.5-1.5,7-2.9,10.5-4.5c17.9-9,30-22.3,44.6-31.7c-50.6,9.1-89.8,34.8-134.3,53.1
		c47,11.8,94.1,23.6,141.1,36.1c68.5,18.1,135.1-1.8,203.4,11.7l58.9,1.5c56.1-17,160.5-12.9,215.6-24.1
		c78.7-15.9,107.6-46.5,184.7-75.2C1294.4,436.6,1251.6,431.4,1208.2,429.1z"/>
	
		<linearGradient id="SVGID_1_" gradientUnits="userSpaceOnUse" x1="913.634" y1="360.869" x2="913.634" y2="357.625" gradientTransform="matrix(1 0 0 -1 0 738)">
		<stop  offset="0" style="stop-color:#78909C"/>
		<stop  offset="1" style="stop-color:#314047"/>
	</linearGradient>
	<path class="st8" d="M917.5,378.2c-2.6,0.4-5.2,1.2-7.8,2.8C912.3,380.1,914.9,379.2,917.5,378.2z"/>
	
		<linearGradient id="SVGID_2_" gradientUnits="userSpaceOnUse" x1="806.24" y1="289.203" x2="806.24" y2="284.808" gradientTransform="matrix(1 0 0 -1 0 738)">
		<stop  offset="0" style="stop-color:#78909C"/>
		<stop  offset="1" style="stop-color:#314047"/>
	</linearGradient>
	<path class="st9" d="M810.1,450.1c-2.6,1.3-5.2,2.5-7.8,3.7C805,452.8,807.6,451.5,810.1,450.1z"/>
	<path class="st7" d="M645.4,481.2c55.5-26.3,102.2-66.7,158.9-94c-6.6,1.9-13.3,1.3-19.9,2.3c-3.4,1.3-6.6,2.4-10.2,3.5
		c3.4-2,6.8-2.9,10.2-3.5c35.7-13.8,67-42.2,106.6-34.3c70,17.4,136.7,34.7,206.7,49.3c-6.7,2.9-6.7,11.7-16.7,11.7
		c46.6,14.5,90,31.9,136.7,40.6c-3.4-5.8,0-14.5-6.6-20.3c42,2.3,83.3,7.8,124.3,14.9c6.9-2.8,13.8-5.5,20.7-8.3
		c-38.4-11.4-76.9-23.3-115.1-35.7c-53.3,34.7-126.6-23.2-186.7-37.7c-43.3-8.9-84.4-14.3-125.2-22.8c-20.7-1.4-41.4-4.3-61.5-9.1
		C749.4,387.1,633,439.4,517,492.4c13.6,3.6,27.1,7.2,40.5,10.8c43.1-19,80.9-45.8,129.9-55.3C642.9,469.2,662.7,471.9,645.4,481.2z
		"/>
	<path class="st7" d="M1919.5,551.4v-30.6c-90.6,4.2-180.9,17.5-271.4,30.6H1919.5z"/>
	<path class="st7" d="M328.8,494.9c-110.3-11.2-218.2-35.5-328.4-23.6v80h919c-162.5-13.4-325.4-32.9-490.8-51.9
		C395.4,497.2,362.1,497.2,328.8,494.9z"/>
	<path class="st7" d="M710.1,526.8c-9.3,0.4-18.6,0.9-27.8,1.5c79.3,8.6,158.3,16.6,237.1,23h728.7c90.5-7.1,180.8-14.2,271.4-16.5
		v-72.2c-117,3.3-234.1,10.7-352.2,20.9C1280.7,506.3,996.7,515.4,710.1,526.8z"/>
	<path class="st5" d="M45,567.5l-70.5-9l-9.5,101l16.1-1.1l561-48.3L750,582.6l-112.5-2.8H438.9l-154-2.3L167.5,548l-104,19.5H45z"
		/>
	<path class="st6" d="M80,629.9V467.5c0-1,0.7-1.8,1.7-2l84.1-13.1c1.2-0.2,2.3,0.7,2.3,2v168.3c0,1-0.8,1.9-1.8,2l-84.1,7.2
		C81,632,80,631.1,80,629.9z"/>
	<path class="st6" d="M187,621.3V468.2c0-1.3,1.2-2.2,2.4-2l51.5,10.9c0.9,0.2,1.6,1,1.6,2v137.1c0,1-0.8,1.9-1.8,2l-51.5,5.1
		C188,623.4,187,622.5,187,621.3z"/>
	<path class="st6" d="M-12,639.8l3.4-185.1c0-1.4,1.4-2.3,2.7-1.9l48.6,16.8c0.8,0.3,1.3,1,1.3,1.9v164.7c0,1.1-0.8,1.9-1.9,2
		l-52,3.5C-11,641.9-12,641-12,639.8z"/>
	<path class="st6" d="M248,614.4l-1-145.6c0-1.4,1.4-2.4,2.8-1.9l45,18.6c0.7,0.3,1.2,1,1.2,1.8v123.8c0,1-0.8,1.9-1.9,2l-44,3.2
		C249,616.4,248,615.5,248,614.4z"/>
	<path class="st6" d="M299,609.8V473.2c0-1.5,1.5-2.4,2.9-1.8l105,50.1c0.7,0.3,1.1,1,1.1,1.8l-0.5,78.4c0,1-0.8,1.9-1.8,2
		l-104.5,8.2C300,611.9,299,611,299,609.8z"/>
	<path class="st6" d="M428,598.9v-67.6c0-1.2,1.1-2.2,2.3-2l166,25.4c1,0.2,1.7,1,1.7,2l-0.7,33.1c0,1-0.8,1.9-1.9,2l-165.3,9
		C429,600.9,428,600,428,598.9z"/>
	<path class="st6" d="M601,590.9v-33.6c0-1.2,1.1-2.2,2.3-2l41.8,6.4c1,0.2,1.7,1,1.7,2v25.1c0,1.1-0.8,1.9-1.9,2l-41.8,2.1
		C602,593,601,592,601,590.9z"/>
	<path class="st6" d="M649,587.8v-23.5c0-1.2,1.1-2.2,2.3-2l87,13.4c1,0.1,1.7,1,1.7,2v3.4c0,1-0.8,1.9-1.8,2l-87,6.7
		C650,589.9,649,589,649,587.8z"/>
	<path class="st10" d="M298.5,596.8c-0.5,0-1.1,0-1.6,0.1c0-2.3-0.1-4.6-0.1-6.9c0-39.4,0-78.8,0.1-118.2c0-2.1-0.7-3.2-2.6-4.2
		c-14.3-7.4-28.6-14.9-42.9-22.2c-4.7-2.4-4.8-2.3-4.8,3.1c0,41.7,0,83.4,0,125.1c0,1.5,0.2,2.9,0.3,4.4c-1-0.3-2-0.6-3-1
		c0.1-1.8,0.3-3.6,0.3-5.4c0.1-42.2,0.1-84.4,0.2-126.5c0-2.2-0.5-3.6-2.6-4.7c-15.3-8-30.6-16.1-45.9-24c-6.4-3.3-7.4-2.6-7.4,4.4
		c0,46.4,0,92.9,0,139.3c-6.2,0.4-12.5,0.8-18.7,1.2c0-50.7,0-101.4,0.3-152.1c0-5.8-1.8-8.9-6.6-11.8c-26.6-15.7-53-31.7-79.5-47.6
		c-1.2-0.7-2.4-2.3-4-1.3c-1.2,0.8-0.5,2.4-0.5,3.7c0,25.2-0.1,50.4,0,75.5c0.1,43.7,0.2,87.3,0.2,131c0,3.4-0.4,6.8-0.6,10.2
		c-11.9-0.3-23.8-0.6-35.7-0.9c0-34.3-0.2-68.7,0-103c0.1-15.4,2.1-17.4,17.5-19.1c3.5-0.4,5.9-1.7,7.7-4.6c5-8.1,6.8-17.1,7-26.2
		c0.4-21.2,0.1-42.5,0.5-63.8c0.1-4.6-1.1-7.6-5.3-10c-15-8.6-29.8-17.4-44.6-26.4c-7.5-4.5-15.5-8.2-22.2-13.9
		c8.1,0.5,15.4,4,23,6.3c26.4,8.2,52.6,16.9,79,25.1c58,18,115.9,36,173.3,55.7c13.1,4.5,26.2,8.6,39.4,12.9
		c3.2,1.5,6.3,2.9,9.9,3.3c15.8,5.5,31.6,11.2,47.5,16.5c46.2,15.4,92.4,30.7,138.6,46.1c15,5,29.8,10.3,44.8,15.4
		c0.6,0.8,1.2,1.6,2.4,1.5c62,31.1,124,62.1,186.1,93.2c-0.2,0.5-0.3,1-0.4,1.5c-1-0.1-2.1-0.1-3.1-0.2c-2.7-1.7-5.8-1.3-8.7-1.8
		c-27-4.4-54-8.6-81-13c-3.4-0.6-4.3,0.2-4.3,3.5c0,6,0.6,12.1-0.4,18c-0.6,0-1.3,0-1.9,0.1c0.1-6.2,0.1-12.4,0.3-18.6
		c0.1-2.8-0.3-4.2-3.8-4.7c-12.1-1.6-24.1-3.7-36.1-5.7c-6.1-1-5.9-1.1-6.1,4.8c-0.3,8.4,0.9,16.9-0.7,25.3c-0.3,0-0.7,0-1,0
		c-1.2-8.6-0.6-17.3-0.4-25.9c0.1-4.6-1.5-6.2-6-6.8c-34.2-4.8-68.4-9.8-102.6-14.8c-21.5-3.1-42.9-6.3-64.4-9.4
		c-2.3-0.3-4.2-0.9-4.2,2.7c0.2,10.8,0.1,21.6,0.1,32.3c0,1.9,0.2,3.8,2.7,4c3,0.3,3.4,2.3,3.4,4.5c0,5.2-0.2,10.4-0.3,15.7
		c-6.9,0.4-13.7,0.7-20.6,1c-0.1-8.7,0-17.3-0.3-26c-0.2-4.9,1.4-7.8,6.6-8.6c3.2-0.5,4.9-2.1,4.7-5.7c-0.3-6-0.2-12.1,0-18.2
		c0.1-2.7-0.8-4-3.3-5.2c-37-17.6-74-35.2-110.9-52.9c-5.9-2.8-6-2.7-6,4c0,33.2,0,66.4,0,99.7C298.7,583.4,298.6,590.1,298.5,596.8
		z"/>
	<path class="st11" d="M3.8,301.1c6.7,5.7,14.7,9.4,22.2,13.9c14.8,9,29.6,17.7,44.6,26.4c4.1,2.4,5.4,5.3,5.3,10
		c-0.4,21.2-0.1,42.5-0.5,63.8c-0.2,9.1-2,18.1-7,26.2c-1.8,2.9-4.2,4.2-7.7,4.6c-15.4,1.7-17.4,3.7-17.5,19.1
		c-0.2,34.3,0,68.7,0,103c-19.7-0.4-39.4-0.8-59.2-1.1c-15-0.2-30.1-0.2-45.1-0.4c0.4-1-0.5-1.4-0.8-2.1c-2.3-4.9-0.2-8.5,5.4-8.6
		c7.7-0.2,15.4-0.1,23.1-0.3c1.9,0,4.7,0.4,4.8-2.3c0.1-3.1-2.8-2.7-4.9-2.7c-9.2-0.1-18.4-0.2-27.6,0c-3.6,0.1-4.7-1-4.5-4.5
		c0.3-3.1,0-6.2,0-9.3c13.2,1.1,26.4,0.2,39.6,0.5c3.2,0.1,6.8,0.7,9.4-0.5c3.5-1.6,1.1-5.5,1.5-8.4c0-0.2,0.1-0.3,0.2-0.5
		c1-14.3,2-28.6,3.1-43c0.2-2.2-0.5-3.4-3-3.3c-16.9,0.1-33.8-0.5-50.7,0.3c0-16.7,0-33.4,0-50.1c0-27.9,0.1-55.8,0.1-83.6
		c3.7-2.4,5.5-6.4,8.3-9.5c3.3-3.6,6.3-4.2,10.3-1.5c2.7,1.8,5.8,3.1,7.4,6.2c2,5.8-1.8,8.7-6,11.4c-5.8,3.8-6.2,8.1-1.2,12.8
		c3.3,3.1,7,5.6,11.1,7.4c10.2,4.5,20.6,8.8,30.1,15.6c0.6-8.6,1.2-16.7,1.8-24.8c0.1-1.1-0.2-1.9-1.1-2.6c1.4-3,1.4-6.1,1.5-9.4
		c0.1-7.5,1.1-15,1.1-22.5c0.1-8.3,3.2-16.4,1.8-24.9C-0.5,304.1-2,299.5,3.8,301.1z M-6.4,407.5c-3.8,3.1-7.3,4.4-9.2,7.7
		c-2.1,3.7-1.1,7.1,1,10.5c1.8,2.8,5.5,4.2,6.3,9.4C-7.6,425.4-7.1,417-6.4,407.5z"/>
	<path class="st11" d="M78.9,568.9c0.2-3.4,0.6-6.8,0.6-10.2c0-43.7-0.1-87.3-0.2-131c0-25.2,0-50.4,0-75.5c0-1.2-0.7-2.9,0.5-3.7
		c1.6-1,2.8,0.6,4,1.3c26.5,15.9,52.9,31.9,79.5,47.6c4.8,2.9,6.7,6,6.6,11.8c-0.3,50.7-0.3,101.4-0.3,152.1
		c-12.5,1.2-24.9,2.6-37.4,3.6C114.5,566.4,96.7,567.6,78.9,568.9z"/>
	<path class="st11" d="M298.5,596.8c0.1-6.7,0.2-13.4,0.2-20.1c0-33.2,0-66.4,0-99.7c0-6.7,0.1-6.8,6-4
		c37,17.6,73.9,35.3,110.9,52.9c2.5,1.2,3.4,2.6,3.3,5.2c-0.2,6-0.3,12.1,0,18.2c0.2,3.6-1.6,5.2-4.7,5.7c-5.2,0.8-6.8,3.8-6.6,8.6
		c0.3,8.7,0.3,17.3,0.3,26c-7.6,1.7-15.3,1.3-23,1.8C356.2,593.5,327.4,595.1,298.5,596.8z"/>
	<path class="st11" d="M428.6,588.6c0.1-5.2,0.3-10.4,0.3-15.7c0-2.2-0.4-4.3-3.4-4.5c-2.5-0.2-2.7-2.2-2.7-4
		c0-10.8,0.1-21.6-0.1-32.4c-0.1-3.6,1.9-3,4.2-2.7c21.5,3.2,42.9,6.3,64.4,9.4c34.2,5,68.3,10,102.6,14.8c4.5,0.6,6.1,2.2,6,6.8
		c-0.2,8.6-0.8,17.3,0.4,25.9c-3.5,0.1-7,0.2-10.5,0.2c-44,0.1-88,0.1-132.1,0.4C448,586.9,438.3,588,428.6,588.6z"/>
	<path class="st11" d="M188.4,560.1c0-46.4,0-92.9,0-139.3c0-7,1-7.7,7.4-4.4c15.4,7.9,30.6,16.1,45.9,24c2.1,1.1,2.6,2.6,2.6,4.7
		c-0.1,42.2-0.1,84.4-0.2,126.5c0,1.8-0.2,3.6-0.3,5.4c-6.4-0.6-12-3.6-18-5.4C213.4,568,201,563.9,188.4,560.1z"/>
	<path class="st11" d="M247,578c-0.1-1.5-0.3-2.9-0.3-4.4c0-41.7,0-83.4,0-125.1c0-5.4,0.1-5.6,4.8-3.1
		c14.3,7.4,28.6,14.9,42.9,22.2c1.9,1,2.6,2.1,2.6,4.2c-0.1,39.4-0.1,78.8-0.1,118.2c0,2.3,0,4.6,0.1,6.9
		C280.2,590.8,263.3,585.2,247,578z"/>
	<path class="st11" d="M601.3,586.2c1.6-8.4,0.4-16.9,0.7-25.3c0.2-5.9,0-5.8,6.1-4.8c12,2,24,4.1,36.1,5.7c3.5,0.5,3.9,1.9,3.8,4.7
		c-0.3,6.2-0.2,12.4-0.3,18.6C632.2,587.2,616.8,586.4,601.3,586.2z"/>
	<path class="st11" d="M649.5,585.1c1-6,0.4-12,0.4-18c0-3.3,0.9-4.1,4.3-3.5c27,4.4,54,8.6,81,13c2.9,0.5,6.1,0.1,8.7,1.8
		c-12.2,2-24.6,2-37,3C687.9,582.8,668.7,583.9,649.5,585.1z"/>
	<path class="st10" d="M1391,599.3c0.2,0,0.4,0,0.6,0c0-1.2,0-2.4,0-3.6c0-20.9,0-41.9-0.1-62.8c0-1.1,0.3-1.7,1-2.2
		c5.7-3.9,11.5-7.9,17.2-11.8c1.9-1.3,1.9-1.2,1.9,1.7c0,22.1,0,44.3,0,66.4c0,0.8-0.1,1.6-0.1,2.3c0.4-0.2,0.8-0.3,1.2-0.5
		c-0.1-1-0.1-1.9-0.1-2.9c0-22.4,0-44.8-0.1-67.2c0-1.2,0.2-1.9,1-2.5c6.2-4.2,12.3-8.6,18.4-12.8c2.6-1.8,3-1.4,3,2.3
		c0,24.7,0,49.3,0,74c2.5,0.2,5,0.4,7.5,0.6c0-26.9,0-53.8-0.1-80.8c0-3.1,0.7-4.8,2.7-6.3c10.7-8.4,21.2-16.9,31.9-25.3
		c0.5-0.4,1-1.2,1.6-0.7c0.5,0.4,0.2,1.3,0.2,2c0,13.4,0,26.7,0,40.1c0,23.2-0.1,46.4-0.1,69.6c0,1.8,0.2,3.6,0.3,5.4
		c4.8-0.2,9.5-0.3,14.3-0.5c0-18.2,0.1-36.5,0-54.7c0-8.2-0.8-9.3-7-10.2c-1.4-0.2-2.3-0.9-3.1-2.5c-2-4.3-2.7-9.1-2.8-13.9
		c-0.2-11.3-0.1-22.6-0.2-33.9c0-2.5,0.5-4,2.1-5.3c6-4.6,12-9.2,17.9-14c3-2.4,6.2-4.4,8.9-7.4c-3.2,0.3-6.2,2.1-9.2,3.4
		c-10.6,4.3-21.1,9-31.7,13.3c-23.2,9.5-46.5,19.1-69.5,29.6c-5.2,2.4-10.5,4.6-15.8,6.9c-1.3,0.8-2.5,1.5-4,1.7
		c-6.3,2.9-12.7,6-19,8.8c-18.5,8.2-37,16.3-55.5,24.5c-6,2.7-12,5.5-17.9,8.2c-0.2,0.4-0.5,0.8-1,0.8c-24.9,16.5-49.7,33-74.6,49.5
		c0.1,0.3,0.1,0.5,0.2,0.8c0.4,0,0.8-0.1,1.2-0.1c1.1-0.9,2.3-0.7,3.5-1c10.8-2.3,21.7-4.5,32.5-6.9c1.4-0.3,1.7,0.1,1.7,1.9
		c0,3.2-0.2,6.4,0.2,9.6c0.3,0,0.5,0,0.8,0c0-3.3,0-6.6-0.1-9.9c0-1.5,0.1-2.3,1.5-2.5c4.8-0.9,9.6-2,14.5-3
		c2.4-0.5,2.4-0.6,2.4,2.5c0.1,4.5-0.4,9,0.3,13.5c0.1,0,0.3,0,0.4,0c0.5-4.6,0.2-9.2,0.2-13.7c0-2.4,0.6-3.3,2.4-3.6
		c13.7-2.6,27.4-5.2,41.1-7.9c8.6-1.7,17.2-3.3,25.8-5c0.9-0.2,1.7-0.5,1.7,1.4c-0.1,5.7,0,11.5,0,17.2c0,1-0.1,2-1.1,2.1
		c-1.2,0.1-1.4,1.2-1.4,2.4c0,2.8,0.1,5.5,0.1,8.3c2.8,0.2,5.5,0.4,8.3,0.6c0-4.6,0-9.2,0.1-13.8c0.1-2.6-0.5-4.2-2.6-4.6
		c-1.3-0.3-2-1.1-1.9-3c0.1-3.2,0.1-6.4,0-9.6c0-1.4,0.3-2.1,1.3-2.8c14.8-9.3,29.6-18.7,44.5-28.1c2.4-1.5,2.4-1.4,2.4,2.1
		c0,17.6,0,35.3,0,52.9C1390.9,592.2,1391,595.8,1391,599.3z"/>
	<path class="st12" d="M1479.1,584.5c-0.1-1.8-0.2-3.6-0.2-5.4c0-23.2,0-46.4,0.1-69.6c0-13.4,0-26.7,0-40.1c0-0.7,0.3-1.5-0.2-2
		c-0.6-0.5-1.1,0.3-1.6,0.7c-10.6,8.4-21.2,16.9-31.9,25.3c-1.9,1.5-2.7,3.2-2.7,6.3c0.1,26.9,0.1,53.8,0.1,80.8
		c5,0.6,10,1.4,15,1.9C1464.8,583.2,1471.9,583.8,1479.1,584.5z"/>
	<path class="st12" d="M1391,599.3c0-3.6-0.1-7.1-0.1-10.7c0-17.6,0-35.3,0-52.9c0-3.6-0.1-3.6-2.4-2.1
		c-14.8,9.4-29.6,18.8-44.5,28.1c-1,0.6-1.4,1.4-1.3,2.8c0.1,3.2,0.1,6.4,0,9.6c-0.1,1.9,0.6,2.8,1.9,3c2.1,0.4,2.7,2,2.6,4.6
		c-0.1,4.6-0.1,9.2-0.1,13.8c3,0.9,6.1,0.7,9.2,1C1367.9,597.6,1379.4,598.4,1391,599.3z"/>
	<path class="st12" d="M1338.8,595c0-2.8-0.1-5.5-0.1-8.3c0-1.2,0.2-2.3,1.4-2.4c1-0.1,1.1-1.1,1.1-2.1c0-5.7,0-11.5,0-17.2
		c0-1.9-0.8-1.6-1.7-1.4c-8.6,1.7-17.2,3.3-25.8,5c-13.7,2.6-27.4,5.3-41.1,7.9c-1.8,0.3-2.4,1.2-2.4,3.6c0.1,4.6,0.3,9.2-0.2,13.7
		c1.4,0,2.8,0.1,4.2,0.1c17.7,0.1,35.3,0,52.9,0.2C1331.1,594.1,1335,594.6,1338.8,595z"/>
	<path class="st12" d="M1435.1,579.8c0-24.7,0-49.3,0-74c0-3.7-0.4-4.1-3-2.3c-6.2,4.2-12.3,8.5-18.4,12.8c-0.8,0.6-1.1,1.4-1,2.5
		c0,22.4,0,44.8,0.1,67.2c0,1,0.1,1.9,0.1,2.9c2.5-0.3,4.8-1.9,7.2-2.9C1425.1,584,1430.1,581.9,1435.1,579.8z"/>
	<path class="st12" d="M1510,570.7c0-41,0-82,0-123c0-6.2-0.5-6.8-4-3.9c-8.3,7-16.5,14.2-24.7,21.2c-1.1,1-1.4,2.3-1.4,4.2
		c0,37.3,0.1,74.5,0.1,111.8c0,1.6,0.1,3.2,0.2,4.7c3.4-0.6,6.4-3.2,9.7-4.8C1496.6,577.7,1503.3,574.1,1510,570.7z"/>
	<path class="st12" d="M1411.7,589.3c0-0.8,0.1-1.6,0.1-2.3c0-22.1,0-44.3,0-66.4c0-2.9-0.1-2.9-1.9-1.7
		c-5.8,3.9-11.5,7.9-17.2,11.8c-0.8,0.5-1,1.1-1,2.2c0,20.9,0.1,41.9,0.1,62.8c0,1.2,0,2.4,0,3.6
		C1398.4,596.1,1405.1,593.1,1411.7,589.3z"/>
	<path class="st12" d="M1269.6,593.7c-0.6-4.5-0.1-9-0.3-13.5c-0.1-3.1,0-3.1-2.4-2.5c-4.8,1.1-9.6,2.2-14.5,3
		c-1.4,0.3-1.6,1-1.5,2.5c0.1,3.3,0.1,6.6,0.1,9.9C1257.2,594.2,1263.4,593.8,1269.6,593.7z"/>
	<path class="st12" d="M1250.3,593.1c-0.4-3.2-0.2-6.4-0.2-9.6c0-1.8-0.4-2.2-1.7-1.9c-10.8,2.3-21.7,4.6-32.5,6.9
		c-1.2,0.3-2.4,0.1-3.5,1c4.9,1.1,9.9,1.1,14.8,1.6C1234.9,591.9,1242.6,592.5,1250.3,593.1z"/>
	<path class="st7" d="M1573.1,599.3c-0.1,0-0.2,0-0.3,0c0-1.2,0-2.4,0-3.6c0-20.9,0-41.9,0-62.8c0-1.1-0.2-1.7-0.6-2.2
		c-3.1-3.9-6.2-7.9-9.3-11.8c-1-1.3-1-1.2-1,1.7c0,22.1,0,44.3,0,66.4c0,0.8,0,1.6,0.1,2.3c-0.2-0.2-0.4-0.3-0.7-0.5
		c0-1,0.1-1.9,0.1-2.9c0-22.4,0-44.8,0-67.2c0-1.2-0.1-1.9-0.6-2.5c-3.3-4.2-6.6-8.6-10-12.8c-1.4-1.8-1.6-1.4-1.6,2.3
		c0,24.7,0,49.3,0,74c-1.4,0.2-2.7,0.4-4.1,0.6c0-26.9,0-53.8,0.1-80.8c0-3.1-0.4-4.8-1.4-6.3c-5.8-8.4-11.5-16.9-17.3-25.3
		c-0.3-0.4-0.5-1.2-0.9-0.7c-0.3,0.4-0.1,1.3-0.1,2c0,13.4,0,26.7,0,40.1c0,23.2,0,46.4,0,69.6c0,1.8-0.1,3.6-0.1,5.4
		c-2.6-0.2-5.2-0.3-7.7-0.5c0-18.2,0-36.5,0-54.7c0-8.2,0.5-9.3,3.8-10.2c0.8-0.2,1.3-0.9,1.7-2.5c1.1-4.3,1.5-9.1,1.5-13.9
		c0.1-11.3,0-22.6,0.1-33.9c0-2.5-0.2-4-1.2-5.3c-3.2-4.6-6.5-9.2-9.7-14c-1.6-2.4-3.4-4.4-4.8-7.4c1.8,0.3,3.3,2.1,5,3.4
		c5.7,4.3,11.4,9,17.2,13.3c12.6,9.5,25.2,19.1,37.6,29.6c2.8,2.4,5.7,4.6,8.5,6.9c0.7,0.8,1.4,1.5,2.1,1.7c3.4,2.9,6.9,6,10.3,8.8
		c10,8.2,20,16.3,30.1,24.5c3.2,2.7,6.5,5.4,9.7,8.2c0.1,0.4,0.3,0.8,0.5,0.8c13.5,16.5,26.9,33,40.4,49.5c0,0.3-0.1,0.5-0.1,0.8
		c-0.2,0-0.5-0.1-0.7-0.1c-0.6-0.9-1.3-0.7-1.9-1c-5.9-2.3-11.7-4.5-17.6-6.9c-0.7-0.3-0.9,0.1-0.9,1.9c0,3.2,0.1,6.4-0.1,9.6
		c-0.1,0-0.3,0-0.4,0c0-3.3,0-6.6,0.1-9.9c0-1.5-0.1-2.3-0.8-2.5c-2.6-0.9-5.2-2-7.8-3c-1.3-0.5-1.3-0.6-1.3,2.5
		c-0.1,4.5,0.2,9-0.1,13.5c-0.1,0-0.2,0-0.2,0c-0.3-4.6-0.1-9.2-0.1-13.7c0-2.4-0.3-3.3-1.3-3.6c-7.4-2.6-14.8-5.2-22.3-7.9
		c-4.7-1.7-9.3-3.3-14-5c-0.5-0.2-0.9-0.5-0.9,1.4c0,5.7,0,11.5,0,17.2c0,1,0,2,0.6,2.1c0.6,0.1,0.7,1.2,0.7,2.4
		c0,2.8,0,5.5-0.1,8.3c-1.5,0.2-3,0.4-4.5,0.6c0-4.6,0-9.2-0.1-13.8c0-2.6,0.3-4.2,1.4-4.6c0.7-0.3,1.1-1.1,1-3
		c-0.1-3.2-0.1-6.4,0-9.6c0-1.4-0.2-2.1-0.7-2.8c-8-9.3-16.1-18.7-24.1-28.1c-1.3-1.5-1.3-1.4-1.3,2.1c0,17.6,0,35.3,0,52.9
		C1573.2,592.2,1573.1,595.8,1573.1,599.3z"/>
	<path class="st12" d="M1525.4,584.5c0-1.8,0.1-3.6,0.1-5.4c0-23.2,0-46.4,0-69.6c0-13.4,0-26.7,0-40.1c0-0.7-0.2-1.5,0.1-2
		c0.3-0.5,0.6,0.3,0.9,0.7c5.8,8.4,11.5,16.9,17.3,25.3c1,1.5,1.4,3.2,1.4,6.3c-0.1,26.9-0.1,53.8-0.1,80.8
		c-2.7,0.6-5.4,1.4-8.1,1.9C1533.2,583.2,1529.3,583.8,1525.4,584.5z"/>
	<path class="st13" d="M1573.1,599.3c0-3.6,0-7.1,0-10.7c0-17.6,0-35.3,0-52.9c0-3.6,0-3.6,1.3-2.1c8,9.4,16.1,18.8,24.1,28.1
		c0.5,0.6,0.7,1.4,0.7,2.8c0,3.2-0.1,6.4,0,9.6c0,1.9-0.3,2.8-1,3c-1.1,0.4-1.5,2-1.4,4.6c0.1,4.6,0.1,9.2,0.1,13.8
		c-1.6,0.9-3.3,0.7-5,1C1585.6,597.6,1579.4,598.4,1573.1,599.3z"/>
	<path class="st13" d="M1601.4,595c0-2.8,0.1-5.5,0.1-8.3c0-1.2-0.1-2.3-0.7-2.4c-0.5-0.1-0.6-1.1-0.6-2.1c0-5.7,0-11.5,0-17.2
		c0-1.9,0.4-1.6,0.9-1.4c4.7,1.7,9.3,3.3,14,5c7.4,2.6,14.8,5.3,22.3,7.9c1,0.3,1.3,1.2,1.3,3.6c0,4.6-0.2,9.2,0.1,13.7
		c-0.8,0-1.5,0.1-2.3,0.1c-9.6,0.1-19.1,0-28.7,0.2C1605.6,594.1,1603.5,594.6,1601.4,595z"/>
	<path class="st12" d="M1549.2,579.8c0-24.7,0-49.3,0-74c0-3.7,0.2-4.1,1.6-2.3c3.3,4.2,6.6,8.5,10,12.8c0.5,0.6,0.6,1.4,0.6,2.5
		c0,22.4,0,44.8,0,67.2c0,1,0,1.9-0.1,2.9c-1.4-0.3-2.6-1.9-3.9-2.9C1554.6,584,1551.9,581.9,1549.2,579.8z"/>
	<path class="st12" d="M1508.7,570.7c0-41,0-82,0-123c0-6.2,0.3-6.8,2.2-3.9c4.5,7,8.9,14.2,13.4,21.2c0.6,1,0.8,2.3,0.8,4.2
		c0,37.3,0,74.5-0.1,111.8c0,1.6-0.1,3.2-0.1,4.7c-1.8-0.6-3.5-3.2-5.2-4.8C1515.9,577.7,1512.3,574.1,1508.7,570.7z"/>
	<path class="st13" d="M1561.9,589.4c0-0.8-0.1-1.6-0.1-2.3c0-22.1,0-44.3,0-66.4c0-2.9,0-2.9,1-1.7c3.1,3.9,6.2,7.9,9.3,11.8
		c0.4,0.5,0.6,1.1,0.6,2.2c0,20.9,0,41.9,0,62.8c0,1.2,0,2.4,0,3.6C1569.1,596.1,1565.5,593.1,1561.9,589.4z"/>
	<path class="st13" d="M1638.8,593.7c0.3-4.5,0.1-9,0.1-13.5c0.1-3.1,0-3.1,1.3-2.5c2.6,1.1,5.2,2.2,7.8,3c0.8,0.3,0.8,1,0.8,2.5
		c-0.1,3.3,0,6.6-0.1,9.9C1645.6,594.3,1642.2,593.8,1638.8,593.7z"/>
	<path class="st13" d="M1649.3,593.1c0.2-3.2,0.1-6.4,0.1-9.6c0-1.8,0.2-2.2,0.9-1.9c5.9,2.3,11.7,4.6,17.6,6.9
		c0.6,0.3,1.3,0.1,1.9,1c-2.7,1.1-5.3,1.1-8,1.6C1657.7,591.9,1653.5,592.5,1649.3,593.1z"/>
	<path class="st10" d="M1628,651.7c0.4,0,0.8,0,1.2,0.1c0-1.8,0-3.6,0-5.3c0-30.7,0-61.4-0.1-92.2c0-1.6,0.5-2.5,2-3.3
		c11.2-5.7,22.3-11.6,33.5-17.3c3.7-1.9,3.8-1.8,3.8,2.4c0,32.5,0,65,0,97.5c0,1.1-0.2,2.3-0.2,3.4c0.8-0.2,1.6-0.5,2.4-0.8
		c-0.1-1.4-0.3-2.8-0.3-4.2c0-32.9-0.1-65.8-0.1-98.6c0-1.7,0.4-2.8,2.1-3.7c12-6.2,23.8-12.6,35.8-18.7c5-2.6,5.8-2,5.8,3.4
		c0,36.2,0,72.4,0,108.6c4.9,0.3,9.7,0.6,14.6,0.9c0-39.5,0-79-0.2-118.5c0-4.5,1.4-7,5.2-9.2c20.7-12.3,41.3-24.7,62-37.1
		c0.9-0.5,1.9-1.8,3.1-1c0.9,0.6,0.4,1.9,0.4,2.9c0,19.6,0,39.2,0,58.9c0,34-0.1,68.1-0.1,102.1c0,2.7,0.3,5.3,0.5,8
		c9.3-0.2,18.5-9.7,27.8-10c0-26.8,0.1-44.2,0-71c-0.1-12-1.7-13.6-13.7-14.9c-2.7-0.3-4.6-1.3-6-3.6c-3.9-6.3-5.3-13.3-5.4-20.4
		c-0.3-16.6-0.1-33.1-0.4-49.7c-0.1-3.6,0.9-5.9,4.1-7.8c11.7-6.7,23.2-13.6,34.8-20.6c5.8-3.5,12.1-6.4,17.3-10.9
		c-6.3,0.4-12,3.1-17.9,4.9c-20.6,6.4-41,13.1-61.6,19.5c-45.2,14-90.3,28.1-135.1,43.4c-10.2,3.5-20.5,6.7-30.7,10.1
		c-2.5,1.2-4.9,2.3-7.7,2.6c-12.3,4.3-24.6,8.7-37,12.9c-36,12-72,23.9-108,35.9c-11.7,3.9-23.3,8-34.9,12c-0.5,0.7-1,1.2-1.9,1.2
		c-48.3,24.2-96.7,48.4-145,72.6c0.1,0.4,0.2,0.8,0.3,1.2c0.8,0,1.6-0.1,2.4-0.1c2.1-1.3,4.5-1,6.8-1.4c21-3.4,42.1-6.7,63.2-10.1
		c2.7-0.4,3.3,0.1,3.4,2.7c0,4.7-0.5,9.4,0.3,14.1c0.5,0,1,0,1.5,0c-0.1-4.8,0-9.7-0.2-14.5c-0.1-2.2,0.2-3.3,2.9-3.7
		c9.4-1.3,18.8-2.9,28.1-4.5c4.7-0.8,4.6-0.9,4.8,3.7c0.2,6.6-0.7,13.2,0.5,19.8c0.3,0,0.5,0,0.8,0c0.9-6.7,0.4-13.4,0.3-20.2
		c-0.1-3.6,1.1-4.8,4.7-5.3c26.7-3.8,53.3-7.7,79.9-11.5c16.7-2.4,33.5-4.9,50.2-7.3c1.8-0.3,3.3-0.7,3.3,2.1
		c-0.1,8.4-0.1,16.8-0.1,25.2c0,1.4-0.1,2.9-2.1,3.1c-2.3,0.2-2.7,1.8-2.6,3.5c0,4.1,0.2,8.1,0.2,12.2c5.4,0.3,10.7,0.5,16.1,0.8
		c0.1-6.8,0-13.5,0.3-20.3c0.2-3.8-1.1-6.1-5.1-6.7c-2.5-0.4-3.8-1.6-3.7-4.4c0.2-4.7,0.2-9.4,0-14.2c-0.1-2.1,0.6-3.1,2.6-4.1
		c28.9-13.7,57.6-27.5,86.5-41.2c4.6-2.2,4.7-2.1,4.7,3.1c0,25.9,0,51.8,0,77.7C1627.9,641.2,1628,646.4,1628,651.7z"/>
	<path class="st12" d="M1799.2,629.9c-0.2-2.7-0.5-5.3-0.5-8c0-34,0.1-68.1,0.1-102.1c0-19.6,0-39.2,0-58.9c0-1,0.6-2.2-0.4-2.9
		c-1.2-0.8-2.2,0.5-3.1,1c-20.7,12.4-41.3,24.8-62,37.1c-3.8,2.2-5.2,4.7-5.2,9.2c0.3,39.5,0.2,79,0.2,118.5
		c9.7,0.9,19.4,2,29.2,2.8C1771.4,627.9,1785.3,628.9,1799.2,629.9z"/>
	<path class="st12" d="M1628,651.7c-0.1-5.2-0.2-10.4-0.2-15.7c0-25.9,0-51.8,0-77.7c0-5.2-0.1-5.3-4.7-3.1
		c-28.8,13.7-57.6,27.5-86.5,41.2c-2,0.9-2.6,2-2.6,4.1c0.2,4.7,0.2,9.4,0,14.2c-0.2,2.8,1.2,4.1,3.7,4.4c4,0.6,5.3,2.9,5.1,6.7
		c-0.3,6.8-0.2,13.5-0.3,20.3c5.9,1.3,11.9,1,17.9,1.4C1583,649,1605.5,650.3,1628,651.7z"/>
	<path class="st12" d="M1526.6,645.2c-0.1-4.1-0.2-8.1-0.2-12.2c0-1.7,0.3-3.3,2.6-3.5c1.9-0.2,2.1-1.7,2.1-3.1
		c0-8.4,0-16.8,0.1-25.2c0-2.8-1.5-2.4-3.3-2.1c-16.7,2.5-33.5,4.9-50.2,7.3c-26.6,3.9-53.3,7.8-79.9,11.5c-3.5,0.5-4.7,1.7-4.7,5.3
		c0.1,6.7,0.6,13.5-0.3,20.2c2.7,0.1,5.5,0.2,8.2,0.2c34.3,0.1,68.6,0.1,103,0.3C1511.5,643.9,1519,644.8,1526.6,645.2z"/>
	<path class="st12" d="M1713.8,623c0-36.2,0-72.4,0-108.6c0-5.5-0.8-6-5.8-3.4c-12,6.2-23.8,12.5-35.8,18.7c-1.7,0.9-2.1,2-2.1,3.7
		c0.1,32.9,0.1,65.8,0.1,98.6c0,1.4,0.2,2.8,0.3,4.2c4.9-0.5,9.3-2.8,14-4.2C1694.3,629.1,1704.1,626,1713.8,623z"/>
	<path class="st12" d="M1859.3,609.7c0-60.1,0-120.2,0-180.3c0-9.1-1.1-10-7.8-5.7c-16.1,10.3-32,18.8-48,29.1
		c-2.2,1.4-2.8,5.3-2.8,8.1c0.1,54.6,0.1,109.2,0.2,163.8c0,2.3,0.2,4.6,0.4,7c6.6-0.8,12.5-4.7,18.8-7
		C1833.2,619.8,1846.2,614.7,1859.3,609.7z"/>
	<path class="st12" d="M1668.2,637c0.1-1.1,0.2-2.3,0.2-3.4c0-32.5,0-65,0-97.5c0-4.2-0.1-4.3-3.7-2.4
		c-11.2,5.7-22.3,11.6-33.5,17.3c-1.5,0.8-2,1.6-2,3.3c0.1,30.7,0.1,61.4,0.1,92.2c0,1.8,0,3.6-0.1,5.3
		C1642.3,647,1655.4,642.6,1668.2,637z"/>
	<path class="st12" d="M1392,643.4c-1.2-6.6-0.3-13.2-0.5-19.8c-0.2-4.6,0-4.5-4.8-3.7c-9.4,1.6-18.7,3.2-28.1,4.5
		c-2.7,0.4-3,1.5-2.9,3.7c0.2,4.8,0.2,9.7,0.2,14.5C1367.9,644.2,1380,643.5,1392,643.4z"/>
	<path class="st12" d="M1354.4,642.5c-0.8-4.7-0.3-9.4-0.3-14.1c0-2.6-0.7-3.2-3.4-2.7c-21,3.4-42.1,6.7-63.2,10.1
		c-2.3,0.4-4.7,0.1-6.8,1.4c9.5,1.6,19.2,1.6,28.8,2.3C1324.5,640.7,1339.5,641.5,1354.4,642.5z"/>
</g>
</svg>
