<?xml version="1.0" encoding="utf-8"?>
<!-- Generator: Adobe Illustrator 25.3.1, SVG Export Plug-In . SVG Version: 6.00 Build 0)  -->
<svg version="1.1" id="Capa_1" xmlns="http://www.w3.org/2000/svg" xmlns:xlink="http://www.w3.org/1999/xlink" x="0px" y="0px"
	 viewBox="0 0 1920 670" style="enable-background:new 0 0 1920 670;" xml:space="preserve">
<style type="text/css">
	.st0{fill:#FFFFFF;filter:url(#Adobe_OpacityMaskFilter);}
	.st1{mask:url(#mask0_1_);}
	.st2{fill:#FFFFFF;filter:url(#Adobe_OpacityMaskFilter_1_);}
	.st3{mask:url(#mask1_1_);}
	.st4{fill:#C3DDEB;filter:url(#Adobe_OpacityMaskFilter_2_);}
	.st5{mask:url(#mask2_1_);}
	.st6{fill:#4B5776;}
	.st7{fill:#8D93A2;}
	.st8{fill:url(#SVGID_1_);}
	.st9{fill:url(#SVGID_2_);}
	.st10{fill:url(#SVGID_3_);}
	.st11{fill:#FAFAFA;}
	.st12{fill:#1A2747;}
	.st13{opacity:0.28;fill:#1A2747;enable-background:new    ;}
	.st14{fill:#FFFFFF;}
	.st15{fill:#313D5A;}
	.st16{fill:#525C73;}
</style>
<defs>
	<filter id="Adobe_OpacityMaskFilter" filterUnits="userSpaceOnUse">
		<feColorMatrix  type="matrix" values="1 0 0 0 0  0 1 0 0 0  0 0 1 0 0  0 0 0 1 0"/>
	</filter>
</defs>
<mask maskUnits="userSpaceOnUse" id="mask0_1_">
	<rect class="st0" width="1920" height="670"/>
</mask>
<g class="st1">
</g>
<defs>
	<filter id="Adobe_OpacityMaskFilter_1_" filterUnits="userSpaceOnUse" x="-123" y="-264" width="2057" height="934.9">
		<feColorMatrix  type="matrix" values="1 0 0 0 0  0 1 0 0 0  0 0 1 0 0  0 0 0 1 0"/>
	</filter>
</defs>
<mask maskUnits="userSpaceOnUse" x="-123" y="-264" width="2057" height="934.9" id="mask1_1_">
	<path class="st2" d="M1936,63H-136v607h2072V63z"/>
</mask>
<g class="st3">
	<defs>
		<filter id="Adobe_OpacityMaskFilter_2_" filterUnits="userSpaceOnUse" x="-123" y="-264" width="2057" height="934.9">
			<feColorMatrix  type="matrix" values="1 0 0 0 0  0 1 0 0 0  0 0 1 0 0  0 0 0 1 0"/>
		</filter>
	</defs>
	<mask maskUnits="userSpaceOnUse" x="-123" y="-264" width="2057" height="934.9" id="mask2_1_">
		<path class="st4" d="M983.2,704.5c973.9-95.7,1750.5-305.4,1734.5-468.4c-16-163-818.5-217.5-1792.5-121.8
			C-48.8,210-825.3,419.7-809.3,582.7C-793.3,745.7,9.2,800.2,983.2,704.5z"/>
	</mask>
	<g class="st5">
		<path class="st6" d="M685.3,389.4c-112.6-34.8-222.6-77.1-332.6-116.9c15.4,14.9,25.6,34.8,38.4,49.7
			c-87-7.5-168.9-27.4-253.3-42.3c17.9-14.9,40.9-27.4,61.4-37.3c-62.1-6.7-126.3-1.3-185.2,21.6v205.2h921.5
			c-106.7-34.7-213.3-68.8-324.4-72.6C636.7,391.9,659.7,394.3,685.3,389.4z"/>
		<path class="st7" d="M861.9,426.7c-197-62.2-394.1-111.9-583.4-191.5c-20.5-9.9-48.6-24.9-64-24.9
			c-66.1-4.2-139.4,15.9-200.5,51.6v2.3c58.8-22.9,123-28.3,185.2-21.6c-20.5,9.9-43.5,22.4-61.4,37.3
			c84.4,14.9,166.3,34.8,253.3,42.3c-12.8-14.9-23-34.8-38.4-49.7c110,39.8,220.1,82.1,332.6,116.9c-25.6,5-48.6,2.5-74.2,7.5
			c111.1,3.8,217.7,37.9,324.4,72.6h78.5C963.3,457.3,912.8,442.9,861.9,426.7z"/>
		<path class="st6" d="M1501.6,339.6c17.9-7.5,28.1-22.4,40.9-34.8c-74.4,23.1-150.5,40.4-224.8,61.6c-85.4,37-172,70.8-260.2,103
			H1934V189.5c-5.7-1.8-11.3-3.6-17-5.5c-41-5.8-81.4-14.8-121.2-28.5C1701.2,220.2,1609.1,292.4,1501.6,339.6z"/>
		<path class="st7" d="M1745.6,140.6c-140.9,90.3-282.7,162.7-427.9,225.7c74.3-21.1,150.5-38.4,224.8-61.6
			c-12.8,12.4-23,27.4-40.9,34.8c107.5-47.3,199.6-119.4,294.3-184.1c39.7,13.7,80.2,22.6,121.2,28.5c-43.3-14.3-86-31-127.9-50.8
			C1776.3,125.7,1760.9,130.7,1745.6,140.6z"/>
		
			<linearGradient id="SVGID_1_" gradientUnits="userSpaceOnUse" x1="1916" y1="491.747" x2="1916" y2="484.277" gradientTransform="matrix(1 0 0 -1 0 672)">
			<stop  offset="0" style="stop-color:#B5C84B"/>
			<stop  offset="1" style="stop-color:#9EB83D"/>
		</linearGradient>
		<path class="st8" d="M1933.1,189.5v-4.1c-11.4-2.3-22.9-4.7-34.2-7.2C1910.2,182.2,1921.7,185.9,1933.1,189.5z"/>
		<path class="st6" d="M1708.8,133.2c-23-9.9-43.5-29.8-64-49.7c-5.1-5-15.3-12.4-23-12.4c-22.5,2.4-45,5.2-67.2,8.5
			c-43.7,18.7-86.1,42.4-129.8,61.2c7.7-9.9,15.4-19.9,25.6-27.4c-64,22.4-145.8,14.9-194.5,64.7c25.6-2.5,48.6-12.4,74.2-14.9
			c-15.3,47.3-58.8,97-110,104.5c10.2-14.9,23-27.4,33.3-42.3c-46.1,5-84.4,29.8-127.9,47.3c-3.3,0.6-6.5,1.6-9.6,2.7
			c7.4,1.5,14.8,3.1,22.4,4.8c46.1,12.4,102.3,62.2,143.3,32.3c29.3,10.6,58.8,20.8,88.3,30.6c126.7-57.7,251.1-123.1,374.8-202.5
			c1.1-0.7,2.2-1.4,3.3-2C1734.8,137.7,1721.3,137.7,1708.8,133.2z"/>
		<path class="st7" d="M1253.4,225.2c-10.2,14.9-23,27.4-33.3,42.3c51.2-7.5,94.7-57.2,110-104.5c-25.6,2.5-48.6,12.4-74.2,14.9
			c48.6-49.7,130.5-42.3,194.5-64.7c-10.2,7.5-17.9,17.4-25.6,27.4c43.7-18.7,86.1-42.5,129.8-61.2c-91.7,13.2-181.5,33.2-268,61.2
			c-40.9,14.9-56.3,72.1-92.1,89.5c-45.2,22.9-99.5,34.1-152.4,30.1c24.2,5.6,48.6,9.8,73.8,14.8c3.1-1.1,6.2-2,9.6-2.7
			C1168.9,255.1,1207.3,230.2,1253.4,225.2z"/>
		<path class="st6" d="M1258.5,337.1c5.1,5,2.6,12.4,5.1,17.4c-35.8-7.5-69.1-22.4-104.9-34.8c7.7,0,7.7-7.5,12.8-9.9
			c-53.7-12.4-104.9-27.4-158.6-42.3c-30.4-6.8-54.4,17.6-81.8,29.4c5.1-0.9,10.2-0.4,15.3-2c-43.4,23.5-80,57.9-122.7,80.6
			c-2.5,1.5-5,2.8-7.8,4c2.6-1.3,5.2-2.6,7.8-4c13.3-8,22.3-19.9,33.1-28.3c-37.6,8.1-66.7,31.1-99.7,47.4
			c34.9,10.5,69.9,21.1,104.8,32.2c50.9,16.2,101.4,30.6,152.1,42.7h42.6c101.1-36.9,199.9-75.9,297.3-119.5
			C1322.5,343.8,1290.7,339.1,1258.5,337.1z"/>
		
			<linearGradient id="SVGID_2_" gradientUnits="userSpaceOnUse" x1="927.201" y1="376.224" x2="927.201" y2="372.687" gradientTransform="matrix(1 0 0 -1 0 672)">
			<stop  offset="0" style="stop-color:#78909C"/>
			<stop  offset="1" style="stop-color:#314047"/>
		</linearGradient>
		<path class="st9" d="M931.1,296.9c-2.6,0.4-5.2,1.3-7.8,3C925.9,299,928.5,298,931.1,296.9z"/>
		
			<linearGradient id="SVGID_3_" gradientUnits="userSpaceOnUse" x1="819.798" y1="298.074" x2="819.798" y2="293.281" gradientTransform="matrix(1 0 0 -1 0 672)">
			<stop  offset="0" style="stop-color:#78909C"/>
			<stop  offset="1" style="stop-color:#314047"/>
		</linearGradient>
		<path class="st10" d="M823.7,375.4c-2.6,1.4-5.2,2.7-7.8,4C818.6,378.3,821.2,376.9,823.7,375.4z"/>
		<path class="st7" d="M823.7,375.4c42.6-22.6,79.2-57.1,122.7-80.6c-5.1,1.6-10.2,1.1-15.3,2c-2.6,1.1-5.1,2.1-7.8,3
			c2.6-1.7,5.2-2.5,7.8-3c27.4-11.8,51.4-36.2,81.8-29.4c53.7,14.9,104.9,29.8,158.6,42.3c-5.1,2.5-5.1,10-12.8,10
			c35.8,12.4,69.1,27.4,104.9,34.8c-2.6-5,0-12.4-5.1-17.4c32.2,2,63.9,6.7,95.4,12.8c5.3-2.4,10.6-4.7,15.9-7.1
			c-29.5-9.8-59-20-88.3-30.6c-40.9,29.8-97.2-19.9-143.3-32.3c-33.2-7.6-64.8-12.3-96.1-19.6c-15.9-1.2-31.8-3.7-47.2-7.8
			c-90.6,42.3-180,87.1-269,132.6c10.4,3.1,20.8,6.2,31.1,9.3c33.1-16.3,62.1-39.3,99.7-47.4C846,355.5,837,367.4,823.7,375.4z"/>
		<path class="st6" d="M746.7,272.5c-30.7,0-51.2,39.8-66.5,37.3c-61.4-7.5-125.4-34.8-179.1-74.6c28.1,9.9,53.7,22.4,81.9,34.8
			c-35.8-29.8-71.6-62.2-107.5-94.5c-7.7-7.5-12.8-19.9-25.6-19.9c12.8,12.4,15.4,27.4,15.4,42.3c-17.9-34.8-53.7-62.2-61.4-102
			c-81.9-7.5-163.8-2.5-245.6,7.5c17.9,5,51.2,12.4,43.5,17.4c-46.1,37.3-112.6,47.3-171.4,64.7c12.8-14.9,20.5-34.8,40.9-44.8
			c-22.1,0-40.2,9-57.2,19.6v101.6c61.1-35.6,134.4-55.7,200.5-51.6c15.4,0,43.5,14.9,64,24.9c145.8,61.3,296.1,104.9,447.5,150.1
			c36.8-18.8,73.6-37.5,110.5-55.9c-31.7-19.9-65.7-36.1-102.5-46.9C736.5,277.4,741.6,275,746.7,272.5z"/>
		<path class="st7" d="M751.9,270c-30.7,0-66.5,19.9-97.2,14.9c-33.3-7.5-61.4-32.3-89.6-54.7c-58.9-42.3-107.5-87.1-153.5-139.3
			c-133.1,9.9-273.8-49.7-394.1,44.8c-1.2,0.9-2.3,1.9-3.5,2.8v21.8c17-10.6,35.1-19.6,57.2-19.6c-20.5,9.9-28.1,29.8-40.9,44.8
			C89.1,168,155.7,158,201.7,120.7c7.7-5-25.6-12.4-43.5-17.4c81.9-9.9,163.8-14.9,245.6-7.5c7.7,39.8,43.5,67.2,61.4,102
			c0-14.9-2.6-29.8-15.4-42.3c12.8,0,17.9,12.4,25.6,19.9c35.8,32.3,71.6,64.7,107.5,94.5c-28.1-12.4-53.7-24.9-81.9-34.8
			c53.7,39.8,117.7,67.2,179.1,74.6c15.4,2.5,35.8-37.3,66.5-37.3c-5.1,2.5-10.2,5-12.8,9.9c36.8,10.8,70.8,27,102.5,46.9
			c10-5,20-10,30-14.9C828.3,293.7,790.1,274.1,751.9,270z"/>
		<path class="st11" d="M1933.1,485.8v-18c-90.6,2.5-180.9,10.3-271.4,18H1933.1z"/>
		<path class="st7" d="M342.4,424.2C232.1,412,124.2,385.5,14,398.5v87.2h919c-162.5-14.6-325.4-35.9-490.8-56.6
			C409,426.7,375.7,426.7,342.4,424.2z"/>
		<path class="st7" d="M723.7,459c-9.3,0.4-18.6,1-27.8,1.6c79.3,9.4,158.3,18.1,237.1,25.1h728.7c90.5-7.7,180.8-15.5,271.4-18V389
			c-117,3.6-234.1,11.7-352.2,22.8C1294.3,436.6,1010.3,446.6,723.7,459z"/>
		<path class="st12" d="M1596.3,402.3l-8.2-2.9v-1.3l7.6,1.3l-0.9-3.9l-5.7-1.8l1.1-0.5l4.3,0.8l-3.4-14.9l-5.2-0.5l5-0.5l-2.4-10.7
			l-4.5-3.3v-2.5l3.6,1.7l-6.7-29.6l-6.7,29.4l4-1.5l-4.3,2.9l-2.7,12l3.6-1.3l-1,3.7l-3.6,1.7l-0.3,1.1l6.1-2.2v0.7l-6.3,2.4
			l-2,8.7l6.5-1.5v1.1l-7.1,3.2l-0.6,2.8l6.4-2.1l-6.8,3.7l-0.9,4.1l13.6-4l-1.1,0.9l-12.7,4.3l-0.7,3h33.3L1596.3,402.3z"/>
		<path class="st13" d="M1588.1,399.4v-1.3l7.6,1.3l-0.9-3.9l-5.7-1.8l1.1-0.5l4.3,0.8l-3.4-14.9l-5.2-0.5l4.9-0.5l-2.4-10.7
			l-3.7-2.7c-5,11.9-9.1,24.3-13.8,36.2l7.8-2.3l-1.1,0.9l-7,2.3c-0.5,1.1-0.9,2.3-1.3,3.4c-0.2,0.5-0.4,1-0.6,1.5h28.9l-1-4.7
			L1588.1,399.4z"/>
		<path class="st12" d="M1587.3,392.7l-0.4-0.9l-5.6,2.7v-16.6l3-3.2l-0.7-0.6l-2.3,2.4v-9.1h-1v18.5l-4.5-4.3l-0.7,0.7l5.2,5v22.9
			h1v-14.7L1587.3,392.7z"/>
		<path class="st12" d="M1755.9,398.9l-8.2-2.9v-1.3l7.6,1.3l-0.9-3.9l-5.7-1.8l1.1-0.5l4.3,0.8l-3.4-14.9l-5.2-0.5l4.9-0.5
			L1748,364l-4.5-3.3v-2.5l3.6,1.7l-6.8-29.6l-6.7,29.4l4-1.5l-4.3,2.9l-2.7,12l3.6-1.3l-0.9,3.7l-3.6,1.7l-0.3,1.1l6.1-2.2v0.7
			l-6.4,2.4l-2,8.7l6.5-1.5v1l-7.1,3.2l-0.6,2.8l6.5-2.1l-6.8,3.7l-0.9,4.1l13.6-4l-1.1,0.9l-12.8,4.3l-0.7,3h33.3L1755.9,398.9z"/>
		<path class="st13" d="M1747.7,396.1v-1.3l7.6,1.3l-0.9-3.9l-5.7-1.8l1.1-0.5l4.3,0.8l-3.4-14.9l-5.2-0.5l4.9-0.5l-2.4-10.7
			l-3.7-2.7c-5,11.9-9.1,24.3-13.8,36.2l7.8-2.3l-1.1,0.9l-7,2.3c-0.5,1.1-0.9,2.3-1.4,3.4c-0.2,0.5-0.4,1-0.6,1.5h28.9l-1.1-4.7
			L1747.7,396.1z"/>
		<path class="st12" d="M1746.8,389.3l-0.4-0.8l-5.6,2.7v-16.6l3-3.2l-0.7-0.6l-2.3,2.4v-9.1h-1v18.5l-4.4-4.3l-0.7,0.7l5.1,5v23h1
			v-14.7L1746.8,389.3z"/>
		<path class="st12" d="M1916,395l-8.2-2.9v-1.3l7.6,1.3l-0.9-3.9l-5.7-1.8l1.1-0.6l4.3,0.8l-3.4-14.9l-5.2-0.5l4.9-0.5l-2.4-10.7
			l-4.5-3.3v-2.5l3.6,1.7l-6.7-29.6l-6.7,29.4l4-1.5l-4.3,2.9l-2.7,12l3.6-1.3l-0.9,3.7l-3.6,1.7l-0.3,1.1l6.1-2.2v0.7l-6.3,2.4
			l-2,8.7l6.5-1.5v1l-7.1,3.2l-0.6,2.8l6.4-2.1l-6.8,3.7l-1,4.1l13.6-4l-1.1,0.9l-12.7,4.3l-0.7,3h33.3L1916,395z"/>
		<path class="st13" d="M1907.7,392.2v-1.3l7.6,1.3l-0.9-3.9l-5.7-1.8l1.1-0.5l4.3,0.8l-3.4-14.9l-5.2-0.5l4.9-0.5l-2.4-10.7
			l-3.7-2.7c-5,11.9-9.1,24.3-13.8,36.2l7.8-2.3l-1.1,0.9l-7,2.3c-0.5,1.1-0.9,2.3-1.3,3.4c-0.2,0.5-0.4,1-0.6,1.5h28.9l-1.1-4.7
			L1907.7,392.2z"/>
		<path class="st12" d="M1906.9,385.4l-0.4-0.9l-5.6,2.7v-16.6l3-3.2l-0.7-0.6l-2.3,2.4v-9.1h-1v18.5l-4.5-4.3l-0.7,0.7l5.2,5v23h1
			v-14.7L1906.9,385.4z"/>
		<path class="st12" d="M1813,423.6l-8.2-2.9v-1.3l7.6,1.3l-0.9-3.9l-5.7-1.8l1.1-0.5l4.3,0.8l-3.4-14.9l-5.2-0.5l4.9-0.5l-2.4-10.7
			l-4.5-3.3V383l3.6,1.7l-6.7-29.6l-6.7,29.4l4.1-1.5l-4.3,2.9l-2.7,12l3.6-1.3l-1,3.7l-3.6,1.7l-0.2,1.1l6.1-2.2v0.7l-6.3,2.4
			l-2,8.7l6.5-1.5v1l-7.1,3.2l-0.6,2.8l6.4-2.1l-6.8,3.7l-0.9,4.1l13.6-4l-1.1,0.9l-12.7,4.3l-0.7,3h33.3L1813,423.6z"/>
		<path class="st13" d="M1804.8,420.7v-1.3l7.6,1.3l-0.9-3.9l-5.7-1.8l1.1-0.5l4.3,0.8l-3.4-14.9l-5.2-0.5l4.9-0.5l-2.4-10.7
			l-3.7-2.7c-5,11.9-9.1,24.3-13.8,36.2l7.8-2.3l-1.1,0.9l-7,2.3c-0.5,1.1-0.9,2.3-1.4,3.4c-0.2,0.5-0.4,1-0.6,1.5h28.9l-1-4.7
			L1804.8,420.7z"/>
		<path class="st12" d="M1803.9,413.9l-0.4-0.8l-5.6,2.7v-16.6l3-3.2l-0.7-0.7l-2.3,2.4v-9.1h-1v18.5l-4.5-4.3l-0.7,0.7l5.2,5v23h1
			v-14.7L1803.9,413.9z"/>
		<path class="st12" d="M337.1,437.2l-8.2-2.9V433l7.6,1.3l-0.9-3.9l-5.7-1.8l1.1-0.5l4.3,0.8l-3.4-14.9l-5.2-0.5l4.9-0.5l-2.4-10.7
			l-4.5-3.3v-2.5l3.6,1.7l-6.8-29.6l-6.7,29.4l4-1.5l-4.3,2.9l-2.7,12l3.6-1.3l-0.9,3.7l-3.6,1.7l-0.3,1.1l6.1-2.2v0.7l-6.3,2.4
			l-2,8.7l6.5-1.5v1.1l-7.1,3.2l-0.6,2.8l6.5-2.1l-6.8,3.7l-0.9,4.1l13.6-4l-1.1,0.9l-12.7,4.3l-0.7,3h33.2L337.1,437.2z"/>
		<path class="st13" d="M328.9,434.3V433l7.6,1.3l-0.9-3.9l-5.7-1.8l1.1-0.5l4.3,0.8l-3.4-14.9l-5.2-0.5l4.9-0.5l-2.4-10.7l-3.7-2.7
			c-5,11.9-9.1,24.3-13.8,36.2l7.8-2.3l-1.1,0.9l-7,2.3c-0.5,1.1-0.9,2.3-1.4,3.4c-0.2,0.5-0.4,1-0.6,1.5h28.9l-1-4.7L328.9,434.3z"
			/>
		<path class="st12" d="M328,427.6l-0.5-0.9l-5.6,2.7v-16.6l3-3.2l-0.7-0.6l-2.3,2.4v-9.1h-1v18.5l-4.5-4.3l-0.7,0.7l5.1,5v22.9h1
			v-14.7L328,427.6z"/>
		<path class="st12" d="M61.8,419.3l-8.2-2.9v-1.3l7.6,1.3l-0.9-3.9l-5.7-1.8l1-0.5l4.3,0.8l-3.4-14.9l-5.2-0.5l5-0.5l-2.4-10.7
			l-4.5-3.3v-2.5l3.6,1.7l-6.7-29.6l-6.7,29.4l4-1.5l-4.3,2.9l-2.7,12l3.6-1.3l-0.9,3.7l-3.6,1.7l-0.3,1.1l6.1-2.2v0.7l-6.3,2.4
			l-2,8.7l6.5-1.5v1l-7.1,3.2l-0.6,2.8l6.4-2.1l-6.8,3.7l-0.9,4.1l13.6-4l-1.1,0.9l-12.8,4.3l-0.7,3H63L61.8,419.3z"/>
		<path class="st13" d="M53.6,416.4v-1.3l7.6,1.3l-0.9-3.9l-5.7-1.8l1.1-0.5L60,411l-3.4-14.9l-5.2-0.5l4.9-0.5l-2.4-10.7l-3.7-2.7
			c-5,11.9-9.1,24.3-13.8,36.2l7.8-2.3l-1.1,0.9l-7,2.3c-0.5,1.1-0.9,2.3-1.4,3.4c-0.2,0.5-0.4,1-0.6,1.5H63l-1-4.7L53.6,416.4z"/>
		<path class="st12" d="M52.8,409.7l-0.4-0.8l-5.6,2.7V395l3-3.2l-0.7-0.6l-2.3,2.4v-9.1h-1V403l-4.5-4.3l-0.7,0.7l5.1,5v23h1v-14.7
			L52.8,409.7z"/>
		<path class="st12" d="M1475.4,415.2l-8.2-2.9V411l7.6,1.3l-0.9-3.9l-5.7-1.8l1.1-0.5l4.3,0.8l-3.4-14.9l-5.2-0.5l4.9-0.5
			l-2.4-10.7l-4.5-3.3v-2.5l3.6,1.7l-6.7-29.6l-6.7,29.4l4.1-1.5l-4.3,2.9l-2.7,12l3.6-1.3l-1,3.7l-3.6,1.7l-0.3,1.1l6.1-2.2v0.7
			l-6.3,2.4l-2,8.7l6.5-1.5v1.1l-7.1,3.2l-0.6,2.8l6.4-2.1l-6.8,3.7l-1,4.1l13.6-4l-1.1,0.9l-12.7,4.3l-0.7,3h33.3L1475.4,415.2z"/>
		<path class="st13" d="M1467.1,412.4v-1.3l7.6,1.3l-0.9-3.9l-5.7-1.8l1.1-0.5l4.3,0.8l-3.4-14.9l-5.2-0.5l4.9-0.5l-2.4-10.7
			l-3.7-2.7c-5,11.9-9.1,24.3-13.8,36.2l7.8-2.3l-1.1,0.9l-7,2.3c-0.5,1.1-0.9,2.3-1.4,3.4c-0.2,0.5-0.4,1-0.6,1.5h28.9l-1-4.7
			L1467.1,412.4z"/>
		<path class="st12" d="M1466.3,405.6l-0.4-0.9l-5.6,2.7v-16.6l3-3.2l-0.7-0.6l-2.3,2.4v-9.1h-1v18.5l-4.5-4.3l-0.7,0.7l5.2,5v22.9
			h1v-14.7L1466.3,405.6z"/>
		<path class="st12" d="M1324.6,437.2l-8.2-2.9V433l7.6,1.3l-0.9-3.9l-5.7-1.8l1.1-0.5l4.3,0.8l-3.4-14.9l-5.2-0.5l4.9-0.5
			l-2.4-10.7l-4.5-3.3v-2.5l3.6,1.7l-6.7-29.6l-6.7,29.4l4-1.5l-4.3,2.9l-2.7,12l3.6-1.3l-0.9,3.7l-3.6,1.7l-0.3,1.1l6.1-2.2v0.7
			l-6.3,2.4l-2,8.7l6.5-1.5v1.1l-7.1,3.2l-0.6,2.8l6.5-2.1l-6.8,3.7l-0.9,4.1l13.6-4l-1.1,0.9l-12.8,4.3l-0.7,3h33.3L1324.6,437.2z"
			/>
		<path class="st13" d="M1316.3,434.3V433l7.6,1.3l-0.9-3.9l-5.7-1.8l1.1-0.5l4.3,0.8l-3.4-14.9l-5.2-0.5l4.9-0.5l-2.4-10.7
			l-3.7-2.7c-5,11.9-9.1,24.3-13.8,36.2l7.8-2.3l-1.1,0.9l-7,2.3c-0.5,1.1-0.9,2.3-1.4,3.4c-0.2,0.5-0.4,1-0.6,1.5h28.9l-1.1-4.7
			L1316.3,434.3z"/>
		<path class="st12" d="M1315.5,427.6l-0.4-0.9l-5.6,2.7v-16.6l3-3.2l-0.7-0.6l-2.3,2.4v-9.1h-1v18.5l-4.4-4.3l-0.7,0.7l5.1,5v22.9
			h1v-14.7L1315.5,427.6z"/>
		<path class="st12" d="M1231.7,460.7l-12.7-4.5v-2l11.7,2l-1.4-6l-8.8-2.8l1.6-0.9l6.6,1.2l-5.2-23.1l-8-0.8l7.6-0.7l-3.7-16.5
			l-7-5.1v-3.8l5.6,2.7l-10.4-45.8l-10.4,45.5l6.3-2.4l-6.7,4.4l-4.2,18.6l5.6-2l-1.4,5.8l-5.6,2.6l-0.4,1.8l9.5-3.3v1.1l-9.8,3.8
			l-3,13.4l10.1-2.3v1.6l-11,4.9l-1,4.4l10-3.3l-10.5,5.7l-1.5,6.3l21-6.2l-1.7,1.4l-19.7,6.6l-1,4.7h51.4L1231.7,460.7z"/>
		<path class="st13" d="M1219,456.3v-2l11.7,2l-1.4-6l-8.8-2.8l1.7-0.9l6.6,1.2l-5.2-23.1l-8-0.8l7.6-0.7l-3.8-16.5l-5.7-4.1
			c-7.7,18.5-14.1,37.6-21.4,56.1l12-3.5l-1.7,1.4l-10.9,3.6c-0.7,1.7-1.4,3.5-2.1,5.2c-0.3,0.8-0.7,1.6-1,2.4h44.7l-1.6-7.2
			L1219,456.3z"/>
		<path class="st12" d="M1217.7,445.9l-0.7-1.3l-8.6,4.2v-25.6l4.7-4.9l-1.1-1l-3.5,3.7v-14h-1.5v28.6l-6.9-6.7l-1.1,1l8,7.7V473
			h1.5v-22.7L1217.7,445.9z"/>
		<path class="st12" d="M982.2,445l-8.2-2.9v-1.3l7.6,1.3l-0.9-3.9l-5.7-1.8l1.1-0.5l4.3,0.8l-3.4-14.9l-5.2-0.5l4.9-0.5l-2.4-10.7
			l-4.5-3.3v-2.5l3.6,1.7l-6.7-29.6l-6.7,29.4l4-1.5l-4.4,2.9l-2.7,12l3.6-1.3l-0.9,3.7l-3.6,1.7l-0.3,1.1l6.1-2.2v0.7l-6.3,2.4
			l-2,8.7l6.5-1.5v1.1l-7.1,3.2l-0.6,2.8l6.5-2.1l-6.8,3.7l-0.9,4.1l13.6-4l-1.1,0.9l-12.7,4.3l-0.7,3h33.3L982.2,445z"/>
		<path class="st13" d="M973.9,442.1v-1.3l7.6,1.3l-0.9-3.9l-5.7-1.8l1.1-0.5l4.3,0.8l-3.4-14.9l-5.2-0.5l4.9-0.5l-2.4-10.7
			l-3.7-2.7c-5,11.9-9.1,24.3-13.8,36.2l7.8-2.3l-1.1,0.9l-7,2.3c-0.5,1.1-0.9,2.3-1.4,3.4c-0.2,0.5-0.4,1-0.6,1.5h28.9l-1.1-4.7
			L973.9,442.1z"/>
		<path class="st12" d="M973.1,435.4l-0.4-0.9l-5.6,2.7v-16.6l3-3.2l-0.7-0.6l-2.3,2.4v-9.1h-1v18.5l-4.4-4.3L961,425l5.1,5v23h1
			v-14.7L973.1,435.4z"/>
		<path class="st12" d="M711.5,461.9l-8.2-2.9v-1.3l7.6,1.3l-0.9-3.9l-5.7-1.8l1.1-0.6l4.3,0.8l-3.4-14.9l-5.2-0.5l4.9-0.5
			l-2.4-10.7l-4.5-3.3v-2.5l3.6,1.7l-6.8-29.6l-6.7,29.4l4-1.5l-4.3,2.9l-2.7,12l3.6-1.3l-0.9,3.7l-3.6,1.7l-0.3,1.1l6.1-2.1v0.7
			l-6.3,2.4l-2,8.7l6.5-1.5v1l-7.1,3.2l-0.6,2.8l6.5-2.1l-6.8,3.7l-0.9,4.1l13.6-4l-1.1,0.9l-12.7,4.3l-0.7,3h33.3L711.5,461.9z"/>
		<path class="st13" d="M703.2,459v-1.3l7.6,1.3l-0.9-3.9l-5.7-1.8l1.1-0.5l4.3,0.8l-3.4-14.9l-5.2-0.5l4.9-0.5l-2.4-10.7l-3.7-2.7
			c-5,11.9-9.1,24.3-13.8,36.2l7.8-2.3l-1.1,0.9l-7,2.3c-0.5,1.1-0.9,2.3-1.4,3.4c-0.2,0.5-0.4,1-0.6,1.5h28.9l-1-4.7L703.2,459z"/>
		<path class="st12" d="M702.4,452.2l-0.4-0.8l-5.6,2.7v-16.6l3-3.2l-0.7-0.6l-2.3,2.4V427h-1v18.5l-4.5-4.3l-0.7,0.7l5.1,5v23h1
			v-14.7L702.4,452.2z"/>
		<path class="st12" d="M585.4,458.8l-8.2-2.9v-1.3l7.6,1.3l-0.9-3.9l-5.7-1.8l1.1-0.5l4.3,0.8l-3.4-14.9l-5.2-0.5l4.9-0.5
			l-2.4-10.7l-4.5-3.3v-2.5l3.6,1.7l-6.7-29.6l-6.7,29.4l4-1.5l-4.3,2.9l-2.7,12l3.6-1.3l-0.9,3.7l-3.6,1.7l-0.3,1.1l6.1-2.2v0.7
			l-6.3,2.4l-2,8.7l6.5-1.5v1l-7.1,3.2l-0.6,2.8l6.5-2.1l-6.8,3.7l-0.9,4.1l13.6-4l-1.1,0.9l-12.7,4.3l-0.7,3h33.3L585.4,458.8z"/>
		<path class="st13" d="M577.2,456v-1.3l7.6,1.3l-0.9-3.9l-5.7-1.8l1.1-0.5l4.3,0.8l-3.4-14.9l-5.2-0.5l4.9-0.5l-2.4-10.7l-3.7-2.7
			c-5,11.9-9.1,24.3-13.8,36.2l7.8-2.3l-1.1,0.9l-7,2.3c-0.5,1.1-0.9,2.3-1.4,3.4c-0.2,0.5-0.4,1-0.6,1.5h28.9l-1-4.7L577.2,456z"/>
		<path class="st12" d="M576.3,449.2l-0.4-0.8l-5.6,2.7v-16.6l3-3.2l-0.7-0.6l-2.3,2.4V424h-1v18.5l-4.5-4.3l-0.7,0.7l5.1,5v23h1
			v-14.7L576.3,449.2z"/>
		<path class="st12" d="M183.5,409.7l-8.2-2.9v-1.3l7.6,1.3L182,403l-5.7-1.8l1.1-0.5l4.3,0.8l-3.4-14.9l-5.2-0.5l4.9-0.5l-2.4-10.7
			l-4.5-3.3v-2.5l3.6,1.7l-6.7-29.6l-6.7,29.4l4-1.5l-4.4,2.9l-2.7,12l3.6-1.3l-0.9,3.7l-3.6,1.7l-0.3,1.1l6.1-2.2v0.7l-6.4,2.4
			l-1.9,8.7l6.5-1.5v1.1l-7.1,3.2l-0.6,2.8l6.5-2.1l-6.8,3.7l-0.9,4.1l13.6-4l-1.1,0.9l-12.7,4.3l-0.7,3h33.3L183.5,409.7z"/>
		<path class="st13" d="M175.3,406.9v-1.3l7.6,1.3L182,403l-5.7-1.8l1.1-0.5l4.3,0.8l-3.4-14.9l-5.2-0.5l4.9-0.5l-2.4-10.7l-3.7-2.7
			c-5,11.9-9.1,24.3-13.8,36.2l7.8-2.3l-1.1,0.9l-7,2.3c-0.5,1.1-0.9,2.3-1.4,3.4c-0.2,0.5-0.4,1-0.6,1.5h28.9l-1-4.7L175.3,406.9z"
			/>
		<path class="st12" d="M174.4,400.1l-0.4-0.9l-5.6,2.7v-16.6l3-3.2l-0.7-0.6l-2.3,2.4v-9.1h-1v18.5l-4.5-4.3l-0.7,0.7l5.1,5v22.9h1
			V403L174.4,400.1z"/>
		<path class="st12" d="M408.4,445l-8.2-2.9v-1.3l7.6,1.3l-0.9-3.9l-5.7-1.8l1.1-0.5l4.3,0.8l-3.4-14.9l-5.2-0.5l4.9-0.5l-2.4-10.7
			l-4.5-3.3v-2.5l3.6,1.7l-6.7-29.6l-6.7,29.4l4.1-1.5l-4.3,2.9l-2.7,12l3.6-1.3l-0.9,3.7l-3.6,1.7l-0.3,1.1l6.1-2.2v0.7l-6.3,2.4
			l-2,8.7l6.5-1.5v1.1l-7.1,3.2l-0.6,2.8l6.4-2.1l-6.8,3.7l-0.9,4.1l13.6-4l-1.1,0.9l-12.7,4.3l-0.7,3h33.3L408.4,445z"/>
		<path class="st13" d="M400.1,442.1v-1.3l7.6,1.3l-0.9-3.9l-5.7-1.8l1.1-0.5l4.3,0.8l-3.4-14.9l-5.2-0.5l4.9-0.5l-2.4-10.7
			l-3.7-2.7c-5,11.9-9.1,24.3-13.8,36.2l7.8-2.3l-1.1,0.9l-7,2.3c-0.5,1.1-0.9,2.3-1.4,3.4c-0.2,0.5-0.4,1-0.6,1.5h28.9l-1-4.7
			L400.1,442.1z"/>
		<path class="st12" d="M399.3,435.4l-0.4-0.9l-5.6,2.7v-16.6l3-3.2l-0.7-0.6l-2.3,2.4v-9.1h-1v18.5l-4.5-4.3l-0.7,0.7l5.1,5v23h1
			v-14.7L399.3,435.4z"/>
		<path class="st12" d="M117.2,450.9l-16-5.6v-2.5l14.8,2.5l-1.7-7.6l-11.1-3.5l2.1-1.1l8.4,1.6l-6.6-29.1l-10.1-1l9.6-0.9
			l-4.7-20.8l-8.8-6.4v-4.8l7,3.4l-13.2-57.9l-13.1,57.5l7.9-3l-8.5,5.6l-5.3,23.5l7.1-2.6l-1.8,7.3l-7,3.3l-0.5,2.2l11.9-4.2v1.4
			L65.2,413l-3.8,16.9l12.7-2.9v2.1l-13.9,6.2l-1.3,5.5l12.6-4.1L58.2,444l-1.8,8l26.5-7.8l-2.2,1.8l-24.9,8.3l-1.3,5.9h64.9
			L117.2,450.9z"/>
		<path class="st13" d="M101.2,445.3v-2.5l14.8,2.5l-1.7-7.6l-11.1-3.5l2.1-1.1l8.4,1.6l-6.6-29.1l-10.1-1l9.6-0.9l-4.7-20.8
			l-7.1-5.2c-9.7,23.3-17.8,47.4-27,70.7l15.1-4.4l-2.2,1.8L67,450.4c-0.9,2.2-1.8,4.4-2.7,6.6c-0.4,1-0.8,2-1.3,3h56.4l-2-9.1
			L101.2,445.3z"/>
		<path class="st12" d="M99.5,432.1l-0.8-1.7l-10.9,5.2v-32.3l5.9-6.2l-1.4-1.3l-4.5,4.7v-17.7h-1.9V419l-8.7-8.4l-1.4,1.3l10.1,9.7
			v44.8h1.9v-28.6L99.5,432.1z"/>
		<path class="st12" d="M297.3,448.8L265,437.6v-5l29.7,5.1l-3.5-15.4l-22.4-7l4.2-2.2l16.9,3.2l-13.3-58.5l-20.3-2l19.4-1.9
			l-9.5-41.9l-17.7-12.9v-9.8l14.1,6.8L236.2,180L210,295.5l15.8-6l-17,11.3L198,347.9l14.2-5.1l-3.7,14.6l-14.1,6.6l-1,4.5l24-8.5
			v2.8l-24.9,9.6l-7.7,34l25.5-5.9v4.2l-28,12.5l-2.5,11.1l25.4-8.3l-26.8,14.6l-3.7,16.1L228,435l-4.4,3.6l-50,16.6L171,467h130.5
			L297.3,448.8z"/>
		<path class="st13" d="M265.1,437.6v-5l29.7,5.1l-3.5-15.4l-22.4-7l4.2-2.2l16.8,3.1l-13.3-58.5l-20.3-2l19.4-1.9l-9.5-41.9
			l-14.4-10.5c-19.4,46.9-35.7,95.3-54.3,142.2l30.4-8.9l-4.4,3.6l-27.6,9.2c-1.7,4.4-3.5,8.8-5.4,13.2c-0.8,2-1.7,4-2.5,6h113.3
			l-4.1-18.2L265.1,437.6z"/>
		<path class="st12" d="M261.7,411.1l-1.7-3.4l-21.9,10.5v-64.9l11.8-12.5l-2.8-2.5l-8.9,9.4v-35.6h-3.9v72.6l-17.5-16.9l-2.7,2.6
			l20.2,19.6v90h3.9v-57.6L261.7,411.1z"/>
		<path class="st12" d="M521.3,467.5l-16-5.6v-2.5l14.8,2.6l-1.7-7.6l-11.1-3.5l2.1-1.1l8.4,1.6l-6.6-29.1l-10.1-1l9.6-0.9
			l-4.7-20.8l-8.8-6.4v-4.8l7,3.4L491,333.9l-13,57.5l7.9-3l-8.5,5.6l-5.3,23.5l7.1-2.6l-1.8,7.3l-7.1,3.3l-0.5,2.2l11.9-4.2v1.4
			l-12.4,4.8l-3.8,16.9l12.7-2.9v2.1l-13.9,6.2l-1.3,5.5l12.6-4.1l-13.3,7.3l-1.8,8l26.5-7.8l-2.2,1.8l-24.9,8.3l-1.3,5.9h64.9
			L521.3,467.5z"/>
		<path class="st13" d="M505.3,461.9v-2.5l14.8,2.5l-1.7-7.6l-11.1-3.5l2.1-1.1l8.4,1.6l-6.6-29.1l-10.1-1l9.6-0.9l-4.7-20.8
			l-7.1-5.2c-9.7,23.3-17.8,47.4-27,70.7l15.1-4.4l-2.2,1.8l-13.7,4.6c-0.9,2.2-1.8,4.4-2.7,6.6c-0.4,1-0.8,2-1.3,3h56.4l-2-9.1
			L505.3,461.9z"/>
		<path class="st12" d="M503.6,448.7l-0.8-1.7l-10.9,5.2V420l5.9-6.2l-1.4-1.3l-4.5,4.7v-17.7H490v36.1l-8.7-8.4l-1.4,1.3l10.1,9.7
			V483h1.9v-28.6L503.6,448.7z"/>
		<path class="st12" d="M821.9,466.1l-16-5.6V458l14.8,2.5l-1.7-7.6l-11.1-3.5l2.1-1.1l8.4,1.6l-6.6-29.1l-10.1-1l9.6-0.9l-4.7-20.8
			l-8.8-6.4v-4.8l7,3.4l-13.2-57.8l-13,57.5l7.9-3l-8.5,5.6l-5.3,23.5l7.1-2.6l-1.8,7.3l-7.1,3.3l-0.5,2.2l11.9-4.2v1.4l-12.4,4.8
			l-3.8,16.9l12.7-2.9v2l-13.9,6.2l-1.3,5.5l12.6-4.2l-13.3,7.3l-1.8,8l26.5-7.8l-2.2,1.8l-24.9,8.3l-1.3,5.9H824L821.9,466.1z"/>
		<path class="st13" d="M805.8,460.5V458l14.8,2.5l-1.7-7.6l-11.1-3.5l2.1-1.1l8.4,1.6l-6.6-29.1l-10.1-1l9.6-0.9l-4.7-20.8
			l-7.1-5.2c-9.7,23.3-17.8,47.4-27,70.7l15.1-4.4l-2.2,1.8l-13.7,4.6c-0.9,2.2-1.8,4.4-2.7,6.6c-0.4,1-0.8,2-1.3,3H824l-2-9.1
			L805.8,460.5z"/>
		<path class="st12" d="M804.2,447.3l-0.8-1.7l-10.9,5.2v-32.3l5.9-6.2L797,411l-4.5,4.7V398h-1.9v36.1l-8.7-8.4l-1.4,1.3l10.1,9.7
			v44.8h1.9v-28.6L804.2,447.3z"/>
		<path class="st12" d="M1409.6,466.1l-16.1-5.6V458l14.8,2.5l-1.7-7.6l-11.1-3.5l2.1-1.1l8.4,1.6l-6.6-29.1l-10.1-1l9.7-0.9
			l-4.7-20.8l-8.8-6.4v-4.8l7,3.4l-13.1-57.8l-13.1,57.5l7.9-3l-8.5,5.6l-5.3,23.5l7-2.6l-1.8,7.3l-7.1,3.3l-0.5,2.2l12-4.2v1.4
			l-12.4,4.8l-3.8,16.9l12.7-2.9v2l-13.9,6.2l-1.2,5.5l12.6-4.2l-13.3,7.3l-1.8,8l26.5-7.8l-2.2,1.8l-24.9,8.3l-1.3,5.9h64.9
			L1409.6,466.1z"/>
		<path class="st13" d="M1393.5,460.5V458l14.8,2.5l-1.7-7.6l-11.1-3.5l2.1-1.1l8.4,1.6l-6.6-29.1l-10.1-1l9.6-0.9L1394,398
			l-7.1-5.2c-9.7,23.3-17.8,47.4-27,70.7l15.1-4.4l-2.2,1.8l-13.7,4.6c-0.9,2.2-1.8,4.4-2.7,6.6c-0.4,1-0.8,2-1.2,3h56.4l-2-9.1
			L1393.5,460.5z"/>
		<path class="st12" d="M1391.8,447.3l-0.9-1.7l-10.9,5.2v-32.3l5.9-6.2l-1.4-1.3l-4.5,4.7V398h-1.9v36.1l-8.7-8.4l-1.4,1.3
			l10.1,9.7v44.8h1.9v-28.6L1391.8,447.3z"/>
		<path class="st12" d="M1660.9,470.2l-16-5.6v-2.5l14.8,2.5l-1.7-7.6l-11.1-3.5l2.1-1.1l8.4,1.6l-6.6-29.1l-10.1-1l9.7-0.9
			l-4.7-20.8l-8.8-6.4V391l7,3.4l-13.1-57.8l-13.1,57.5l7.9-3l-8.5,5.6l-5.3,23.5l7.1-2.6l-1.8,7.3l-7,3.3l-0.5,2.2l11.9-4.2v1.4
			l-12.4,4.8l-3.9,16.9l12.7-2.9v2l-13.9,6.2l-1.2,5.5l12.6-4.2l-13.3,7.3l-1.8,8l26.5-7.8l-2.1,1.8l-24.9,8.3l-1.4,5.9h64.9
			L1660.9,470.2z"/>
		<path class="st13" d="M1644.9,464.6v-2.5l14.8,2.5l-1.7-7.6l-11.1-3.5l2.1-1.1l8.4,1.6l-6.6-29.1l-10.1-1l9.6-0.9l-4.7-20.8
			l-7.1-5.2c-9.7,23.3-17.8,47.4-27,70.7l15.1-4.4l-2.2,1.8l-13.7,4.6c-0.9,2.2-1.8,4.4-2.7,6.6c-0.4,1-0.8,2-1.2,3h56.4l-2.1-9.1
			L1644.9,464.6z"/>
		<path class="st12" d="M1643.2,451.5l-0.8-1.7l-10.9,5.2v-32.3l5.9-6.2l-1.4-1.3l-4.5,4.7v-17.7h-1.9v36.1l-8.7-8.4l-1.3,1.3
			l10,9.7v44.8h1.9v-28.6L1643.2,451.5z"/>
		<path class="st12" d="M1880.5,466.1l-16.1-5.6V458l14.8,2.5l-1.7-7.6l-11.1-3.5l2.1-1.1l8.4,1.6l-6.6-29.1l-10.1-1l9.7-0.9
			l-4.7-20.8l-8.8-6.4v-4.8l7,3.4l-13.1-57.8l-13.1,57.5l7.9-3l-8.5,5.6l-5.3,23.5l7-2.6l-1.8,7.3l-7.1,3.3l-0.5,2.2l11.9-4.2v1.4
			l-12.4,4.8l-3.8,16.9l12.7-2.9v2l-13.9,6.2l-1.3,5.5l12.6-4.2l-13.3,7.3l-1.8,8l26.5-7.8l-2.2,1.8l-24.9,8.3l-1.3,5.9h64.9
			L1880.5,466.1z"/>
		<path class="st13" d="M1864.4,460.5V458l14.8,2.5l-1.7-7.6l-11.1-3.5l2.1-1.1l8.4,1.6l-6.6-29.1l-10.1-1l9.7-0.9L1865,398
			l-7.1-5.2c-9.7,23.3-17.8,47.4-27,70.7l15.1-4.4l-2.2,1.8l-13.7,4.6c-0.9,2.2-1.8,4.4-2.7,6.6c-0.4,1-0.9,2-1.3,3h56.4l-2-9.1
			L1864.4,460.5z"/>
		<path class="st12" d="M1862.8,447.3l-0.9-1.7l-10.9,5.2v-32.3l5.9-6.2l-1.4-1.3l-4.5,4.7V398h-1.9v36.1l-8.7-8.4l-1.4,1.3
			l10.1,9.7v44.8h1.9v-28.6L1862.8,447.3z"/>
		<path class="st14" d="M633.5,130c0.4-1.6,0.6-3.3,0.4-4.8c-0.4-3.3-2.6-6.3-5.6-7.7s-9.3-3.6-12-1.7c-2.2-15.8-16.8-29-32.8-29.8
			c-16-0.8-32.8,10.1-36.6,25.6c-6.3-7.7-17.4-11.2-27-8.6c-9.7,2.6-17.5,12.4-19.1,22.2c-5.2-4.5-14.6-2.6-17.5,3.7
			c-0.1,0.3-0.2,0.7-0.3,1.1H633.5z"/>
		<path class="st14" d="M940.6,114c0.4-1.5,0.5-3,0.4-4.4c-0.3-3-2.3-5.7-5.1-7c-2.8-1.2-8.4-3.3-10.9-1.6
			c-2-14.4-15.2-26.3-29.8-27c-14.6-0.7-29.8,9.1-33.2,23.2c-5.8-7-15.8-10.1-24.5-7.8c-8.8,2.3-15.8,11.3-17.3,20.2
			c-4.7-4.1-13.2-2.3-15.9,3.3c-0.1,0.3-0.2,0.6-0.3,1L940.6,114L940.6,114z"/>
		<path class="st15" d="M17.5,488L14,549.4c141.1,5.1,278.9,14.6,414.9,25.8c306.6,25.8,633.7,34.4,965.9,19.5
			c191.6-8.8,355-27.7,535.7-39.5l3.5-67.2H17.5z"/>
		<path class="st12" d="M1924.6,523.2l-73.7-26.2v-11.7l67.9,11.9l-8-35.8l-51.1-16.3l9.6-5.1l38.4,7.4l-30.4-136.5l-46.3-4.6
			l44.3-4.4l-21.7-97.7l-40.4-30.2v-22.5l32.2,15.8L1785-104l-60,269.5l36.2-14l-39,26.2l-24.5,110l32.4-12.1l-8.4,34.1l-32.4,15.6
			l-2.3,10.4l55-19.7v6.6l-56.9,22.3l-17.6,79.3l58.3-13.7v9.6l-63.9,29.1l-5.8,25.8l57.9-19.4l-61.2,34.1l-8.3,37.4l121.7-36.4
			l-10,8.4l-114.2,39l-6.1,27.5h298L1924.6,523.2z"/>
		<path class="st13" d="M1850.9,497v-11.7l67.9,11.9l-8-35.8l-51.1-16.3l9.6-5.1l38.4,7.4l-30.4-136.5l-46.3-4.6l44.3-4.4
			l-21.7-97.7l-32.8-24.5c-44.4,109.4-81.5,222.3-123.9,331.8l69.4-20.8l-9.9,8.4l-63.1,21.5c-4,10.3-8.1,20.7-12.2,30.9
			c-1.9,4.7-3.9,9.4-5.8,14.1H1934l-9.4-42.5L1850.9,497z"/>
		<path class="st12" d="M1843.3,435.2l-3.9-7.9l-49.9,24.6V300.3l27-29l-6.5-5.9l-20.5,22v-82.9h-8.8v169.1l-39.9-39.4l-6.2,6.2
			l46.1,45.6v210h8.8V461.7L1843.3,435.2z"/>
		<path class="st12" d="M262.4,573.7l-98.4-35V523l90.7,15.9L244,491.2l-68.3-21.8l12.8-6.8l51.3,9.9l-40.6-182.3l-61.9-6.1
			l59.2-5.8l-29-130.4l-54-40.3V77.2l43,21.1L76-264L-4.1,95.9l48.4-18.7l-52,35l-32.7,147l43.2-16.1l-11.2,45.6l-43.2,20.8
			l-3.1,13.9L18.5,297v8.8l-76,29.8l-23.4,105.8L-3,423.2V436l-85.4,39l-7.7,34.5l77.3-25.9l-81.6,45.4l-11.1,50L51,530.4
			l-13.3,11.2l-152.5,52l-8.2,36.8h398L262.4,573.7z"/>
		<path class="st13" d="M164,538.6V523l90.7,15.9L244,491.2l-68.3-21.8l12.8-6.8l51.3,9.8l-40.6-182.3l-61.8-6.1l59.2-5.8l-29-130.4
			L123.8,115C64.5,261.1,15,411.9-41.7,558.1L51,530.4l-13.3,11.2l-84.2,28.7c-5.4,13.8-10.8,27.6-16.3,41.3
			c-2.6,6.3-5.2,12.5-7.7,18.8H275l-12.6-56.7L164,538.6z"/>
		<path class="st12" d="M153.8,456.1l-5.2-10.5l-66.7,32.9V276l36.1-38.8l-8.7-7.9l-27.4,29.4V148H70.1v225.9l-53.3-52.6l-8.3,8.3
			l61.6,60.9v280.4h11.8V491.6L153.8,456.1z"/>
		<path class="st12" d="M563.8,550.7c-4.2-4.2-8.5-8.3-12.9-12.4c-6-1-12-1.8-18-2.6c-12.5-1.6-25.1-2.8-37.8-3.7
			c-12.5,5.6-23.8,12.9-33.5,21.3c-1.7-1.6-3.4-3.2-5.1-4.8c-7.2-1.1-14.4-2.2-21.6-3.1c-15-1.9-30.2-3.4-45.3-4.5
			c-41.2,18.5-71.7,51.9-80.6,89.6c3.6-0.1,6.9-0.2,9.8-0.2c8.4,0,14.8,0.4,20.1,1.1c7.5,0.9,13,2.3,19.5,3.4c0,0,0-0.1,0.1-0.1
			c0,0,0,0.1-0.1,0.1c6.9,1.1,14.8,1.9,27.4,1.5c2.9-0.1,5.8-0.2,8.8-0.2c31.1-0.8,67.4-1.3,97.2-4.5c0.7-0.1,1.5-0.2,2.2-0.3
			c9.7-1.4,20.8-5.4,21.9-5.8v-0.1v0.1c0.1,0,0.1-0.1,0.1-0.1c1-1.4,1.7-2.9,2.3-4.5c-2-3.4-4.2-6.8-6.4-10.1
			c22.8-0.5,47.5-1.2,68.3-3.4c0.6-0.1,1.2-0.2,1.8-0.2c8.1-1.2,17.3-4.5,18.2-4.8v-0.1v0.1c0.1,0,0.1,0,0.1,0
			c0.8-1.2,1.4-2.4,1.9-3.7C592,581.6,578.8,565.7,563.8,550.7z"/>
		<path class="st12" d="M1619.4,565.8c-2.9-2.9-5.9-5.8-9-8.6c-4.1-0.7-8.3-1.3-12.4-1.8c-8.7-1.1-17.4-1.9-26.1-2.6
			c-8.6,3.9-16.5,8.9-23.2,14.8c-1.2-1.1-2.4-2.2-3.6-3.3c-5-0.8-9.9-1.5-14.9-2.1c-10.4-1.3-20.9-2.3-31.4-3.1
			c-28.6,12.8-49.6,36-55.8,62c2.5-0.1,4.8-0.1,6.8-0.1c5.8,0,10.2,0.3,13.9,0.8c5.2,0.7,9,1.6,13.5,2.3c0,0,0,0,0-0.1
			c0,0,0,0,0,0.1c4.7,0.8,10.3,1.3,19,1.1c2-0.1,4-0.1,6.1-0.2c21.5-0.5,46.7-0.9,67.3-3.1c0.5-0.1,1-0.1,1.5-0.2
			c6.7-1,14.4-3.7,15.2-4c0,0,0,0,0-0.1c0,0,0,0,0,0.1h0.1c0.7-1,1.2-2,1.6-3.1c-1.4-2.4-2.9-4.7-4.4-7c15.8-0.4,32.9-0.8,47.3-2.4
			c0.4,0,0.8-0.1,1.3-0.2c5.6-0.8,12-3.1,12.6-3.3c0,0,0,0,0-0.1c0,0,0,0,0,0.1h0.1c0.6-0.8,1-1.7,1.3-2.6
			C1638.9,587.2,1629.7,576.2,1619.4,565.8z"/>
	</g>
</g>
<path class="st12" d="M866.1,510.7c1.5-1.5,3-2.9,4.6-4.3c2.1-0.3,4.2-0.6,6.3-0.9c4.4-0.6,8.8-1,13.3-1.3
	c12.1,5.4,21,15.2,23.6,26.3c-1.1,0-2,0-2.9,0c-2.5,0-4.3,0.1-5.9,0.3c-2.2,0.3-3.8,0.7-5.7,1c-2,0.3-4.3,0.6-8,0.5
	c-0.8,0-1.7,0-2.6-0.1c-9.1-0.2-19.7-0.4-28.5-1.3c-0.2,0-0.4-0.1-0.6-0.1c-2.8-0.4-6.1-1.6-6.4-1.7c-0.3-0.4-0.5-0.9-0.7-1.3
	C856.2,521.6,860.8,515.9,866.1,510.7z"/>
<path class="st12" d="M837.2,522.1c0.9-0.9,1.9-1.9,2.9-2.8c1.3-0.2,2.7-0.4,4.1-0.6c2.8-0.4,5.7-0.6,8.5-0.8
	c7.7,3.5,13.5,9.8,15.1,16.8c-0.7,0-1.3,0-1.8,0c-1.6,0-2.8,0.1-3.8,0.2c-1.4,0.2-2.4,0.4-3.7,0.6s-2.8,0.4-5.1,0.3
	c-0.5,0-1.1,0-1.7,0c-5.8-0.1-12.7-0.2-18.2-0.8c-0.1,0-0.3,0-0.4-0.1c-1.8-0.3-3.9-1-4.1-1.1c-0.2-0.3-0.3-0.5-0.4-0.8
	C830.9,529.1,833.9,525.5,837.2,522.1z"/>
<path class="st12" d="M822.8,516c0.7-0.7,1.4-1.4,2.2-2.1c1-0.2,2-0.3,3-0.4c2.1-0.3,4.2-0.5,6.3-0.6c5.8,2.6,10,7.3,11.3,12.5
	c-0.5,0-1,0-1.4,0c-1.2,0-2.1,0.1-2.8,0.2c-1,0.1-1.8,0.3-2.7,0.5c-1,0.2-2.1,0.3-3.8,0.2c-0.4,0-0.8,0-1.2,0
	c-4.3-0.1-9.4-0.2-13.6-0.6c-0.1,0-0.2,0-0.3,0c-1.4-0.2-2.9-0.8-3.1-0.8c-0.1-0.2-0.2-0.4-0.3-0.6
	C818.1,521.2,820.3,518.5,822.8,516z"/>
<circle class="st16" cx="913.9" cy="122.8" r="86.9"/>
</svg>
