<svg width="1920" height="786" viewBox="0 0 1920 786" fill="none" xmlns="http://www.w3.org/2000/svg">
<mask id="mask0" mask-type="alpha" maskUnits="userSpaceOnUse" x="0" y="0" width="1920" height="737">
<rect width="1920" height="736.82" fill="#C4C4C4"/>
</mask>
<g mask="url(#mask0)">
<path d="M-122.529 553.41L-126.266 652.194C24.388 660.399 171.518 675.684 316.727 693.703C644.086 735.212 993.333 749.048 1348.03 725.076C1552.6 710.918 1727.06 680.51 1920 661.526L1923.73 553.41H-122.529Z" fill="#45A7CE"/>
<mask id="mask1" mask-type="alpha" maskUnits="userSpaceOnUse" x="-127" y="553" width="2051" height="184">
<path d="M-122.529 553.41L-126.266 652.194C24.388 660.399 171.518 675.684 316.727 693.703C644.086 735.212 993.333 749.048 1348.03 725.076C1552.6 710.918 1727.06 680.51 1920 661.526L1923.73 553.41H-122.529Z" fill="#45A7CE"/>
</mask>
<g mask="url(#mask1)">
<path d="M1857.18 591.957L1290.14 632.722C1289 632.804 1288.86 634.416 1289.97 634.69L1394.76 660.682C1394.82 660.696 1394.87 660.705 1394.93 660.709C1426.39 662.824 1525.19 685.173 1534.34 687.064C1534.42 687.082 1534.48 687.105 1534.56 687.145L1630.55 735.516L1714.08 784.585L1856.72 875.371C1857.38 875.795 1858.25 875.316 1858.25 874.527V848.82V592.954C1858.25 592.374 1857.76 591.915 1857.18 591.957Z" fill="#7BC0DC"/>
<path d="M1798.75 591.879C1798.58 595.288 1798.26 598.696 1798.26 602.093C1798.28 645.646 1798.37 689.199 1798.4 732.763C1798.43 757.88 1798.4 782.997 1798.38 808.114C1798.38 809.359 1798.93 810.979 1797.99 811.783C1796.77 812.802 1795.82 811.205 1794.9 810.492C1774.25 794.661 1753.68 778.705 1732.98 762.998C1729.22 760.145 1727.79 756.962 1727.81 751.221C1728.07 700.659 1728.01 650.085 1728.05 599.512C1737.75 598.3 1747.44 596.941 1757.16 595.91C1771.01 594.427 1784.89 593.204 1798.75 591.879Z" fill="#38A2CC"/>
<path d="M1627.43 619.194C1627.37 624.422 1627.27 629.642 1627.26 634.871C1627.25 660.766 1627.26 686.661 1627.25 712.556C1627.25 717.785 1627.14 717.864 1622.57 715.679C1593.86 701.94 1565.18 688.156 1536.45 674.47C1534.5 673.541 1533.83 672.479 1533.9 670.4C1534.05 665.685 1534.09 660.952 1533.86 656.245C1533.71 653.432 1535.08 652.193 1537.54 651.813C1541.57 651.193 1542.78 648.884 1542.63 645.071C1542.36 638.321 1542.43 631.553 1542.37 624.803C1548.24 623.467 1554.26 623.785 1560.21 623.37C1582.61 621.795 1605.02 620.556 1627.43 619.194Z" fill="#38A2CC"/>
<path d="M1526.38 625.625C1526.29 629.695 1526.18 633.765 1526.15 637.834C1526.14 639.577 1526.48 641.152 1528.78 641.364C1530.7 641.541 1530.85 643.045 1530.85 644.487C1530.88 652.892 1530.81 661.296 1530.94 669.701C1530.99 672.488 1529.47 672.072 1527.69 671.807C1511.03 669.347 1494.36 666.897 1477.69 664.464C1451.16 660.589 1424.63 656.669 1398.07 652.918C1394.55 652.423 1393.35 651.193 1393.42 647.61C1393.54 640.895 1394.05 634.154 1393.09 627.457C1395.81 627.386 1398.54 627.262 1401.27 627.262C1435.45 627.174 1469.62 627.191 1503.81 626.97C1511.34 626.917 1518.85 626.094 1526.38 625.625Z" fill="#38A2CC"/>
<path d="M1711.79 611.663C1711.78 659.49 1711.77 707.306 1711.76 755.133C1711.76 762.346 1710.97 763.094 1705.99 759.68C1694.07 751.52 1682.26 743.126 1670.36 734.919C1668.71 733.785 1668.3 732.265 1668.31 730.032C1668.38 686.589 1668.4 643.146 1668.45 599.704C1668.45 597.856 1668.63 596.009 1668.72 594.174C1673.64 594.84 1678.01 597.915 1682.66 599.739C1692.41 603.55 1702.09 607.677 1711.79 611.663Z" fill="#38A2CC"/>
<path d="M1858.25 600.222C1858.24 679.497 1858.22 758.752 1858.21 838.027C1858.21 849.983 1857.18 851.223 1850.61 845.565C1834.93 832.039 1819.39 818.126 1803.73 804.523C1801.56 802.643 1801.03 800.124 1801.04 796.423C1801.13 724.415 1801.16 652.406 1801.22 580.398C1801.22 577.336 1801.46 574.275 1801.58 571.232C1808.06 572.337 1813.8 577.433 1819.92 580.456C1832.75 586.774 1845.49 593.614 1858.25 600.222Z" fill="#38A2CC"/>
<path d="M1667.4 633.848C1667.48 634.989 1667.64 636.131 1667.64 637.263C1667.64 669.767 1667.64 702.271 1667.64 734.774C1667.64 738.977 1667.56 739.101 1663.91 737.216C1652.77 731.483 1641.71 725.636 1630.58 719.894C1629.12 719.142 1628.59 718.266 1628.59 716.62C1628.67 685.904 1628.68 655.187 1628.7 624.47C1628.7 622.692 1628.67 620.914 1628.66 619.127C1641.63 623.878 1654.75 628.283 1667.4 633.848Z" fill="#38A2CC"/>
<path d="M1392.32 627.447C1391.1 634.002 1392.04 640.62 1391.81 647.202C1391.66 651.767 1391.79 651.714 1387.08 650.918C1377.76 649.352 1368.44 647.724 1359.08 646.441C1356.38 646.07 1356.05 644.973 1356.14 642.761C1356.34 637.93 1356.32 633.1 1356.38 628.261C1368.33 626.659 1380.34 627.34 1392.32 627.447Z" fill="#38A2CC"/>
<path d="M1354.89 628.311C1354.09 632.982 1354.61 637.689 1354.58 642.377C1354.56 644.97 1353.89 645.545 1351.23 645.111C1330.27 641.67 1309.28 638.414 1288.32 635.008C1286.06 634.636 1283.62 634.893 1281.53 633.601C1291.03 632.009 1300.67 632.026 1310.24 631.292C1325.11 630.151 1340.01 629.293 1354.89 628.311Z" fill="#38A2CC"/>
<path d="M1783.95 550.663L1216.9 591.428C1215.77 591.51 1215.63 593.122 1216.73 593.396L1321.52 619.388C1321.58 619.402 1321.63 619.411 1321.69 619.415C1353.2 621.525 1479.22 641.61 1488.53 643.477C1488.62 643.495 1488.67 643.518 1488.75 643.559L1563 681.35L1649.85 722.59C1649.93 722.626 1650 722.671 1650.06 722.725L1783.38 833.69C1784.03 834.233 1785.02 833.769 1785.02 832.922V807.526V551.66C1785.02 551.08 1784.53 550.621 1783.95 550.663Z" fill="#7BC0DC"/>
<path d="M1725.52 550.585C1725.35 553.994 1725.02 557.402 1725.02 560.8C1725.05 604.352 1725.13 647.905 1725.17 691.469C1725.19 716.586 1725.17 741.703 1725.15 766.82C1725.15 768.065 1725.7 769.685 1724.75 770.489C1723.54 771.508 1722.58 769.911 1721.66 769.198C1701.02 753.367 1680.44 737.411 1659.75 721.704C1655.99 718.851 1654.55 715.668 1654.58 709.927C1654.84 659.365 1654.78 608.791 1654.81 558.218C1664.52 557.006 1674.21 555.647 1683.92 554.617C1697.78 553.133 1711.66 551.91 1725.52 550.585Z" fill="#38A2CC"/>
<path d="M1554.19 577.9C1554.14 583.128 1554.04 588.348 1554.03 593.577C1554.01 619.472 1554.03 645.367 1554.01 671.262C1554.01 676.491 1553.9 676.57 1549.33 674.385C1520.63 660.646 1491.94 646.862 1463.21 633.176C1461.26 632.247 1460.6 631.185 1460.66 629.106C1460.81 624.391 1460.86 619.658 1460.62 614.951C1460.48 612.138 1461.84 610.899 1464.3 610.519C1468.34 609.899 1469.55 607.59 1469.39 603.777C1469.12 597.027 1469.2 590.259 1469.13 583.509C1475.01 582.173 1481.03 582.491 1486.98 582.076C1509.37 580.501 1531.79 579.262 1554.19 577.9Z" fill="#38A2CC"/>
<path d="M1453.14 584.331C1453.06 588.401 1452.94 592.471 1452.92 596.54C1452.91 598.283 1453.25 599.858 1455.55 600.07C1457.47 600.247 1457.62 601.751 1457.62 603.193C1457.65 611.598 1457.57 620.003 1457.71 628.407C1457.76 631.194 1456.23 630.778 1454.46 630.513C1437.79 628.053 1421.13 625.603 1404.46 623.17C1377.92 619.295 1351.39 615.376 1324.83 611.624C1321.32 611.129 1320.12 609.899 1320.18 606.316C1320.31 599.601 1320.81 592.86 1319.86 586.163C1322.58 586.092 1325.31 585.968 1328.03 585.968C1362.21 585.88 1396.39 585.897 1430.57 585.676C1438.11 585.623 1445.62 584.8 1453.14 584.331Z" fill="#61B2D2"/>
<path d="M1638.56 570.369C1638.55 618.196 1638.53 666.012 1638.52 713.839C1638.52 721.052 1637.74 721.8 1632.75 718.386C1620.83 710.226 1609.02 701.832 1597.12 693.625C1595.47 692.491 1595.07 690.971 1595.08 688.738C1595.14 645.296 1595.17 601.853 1595.21 558.41C1595.21 556.562 1595.39 554.715 1595.48 552.88C1600.41 553.546 1604.77 556.621 1609.43 558.445C1619.18 562.256 1628.85 566.383 1638.56 570.369Z" fill="#38A2CC"/>
<path d="M1785.02 558.928C1785.01 638.203 1784.98 717.458 1784.97 796.733C1784.97 808.689 1783.94 809.929 1777.38 804.271C1761.7 790.745 1746.16 776.832 1730.5 763.229C1728.33 761.349 1727.8 758.83 1727.81 755.129C1727.89 683.121 1727.93 611.112 1727.99 539.104C1727.99 536.043 1728.22 532.981 1728.34 529.939C1734.82 531.043 1740.57 536.139 1746.69 539.162C1759.52 545.48 1772.25 552.32 1785.02 558.928Z" fill="#38A2CC"/>
<path d="M1594.17 592.554C1594.25 593.695 1594.4 594.837 1594.4 595.969C1594.41 628.473 1594.41 660.977 1594.41 693.481C1594.41 697.683 1594.33 697.807 1590.68 695.922C1579.54 690.189 1568.47 684.342 1557.34 678.6C1555.88 677.848 1555.36 676.972 1555.36 675.327C1555.44 644.61 1555.45 613.893 1555.47 583.176C1555.47 581.398 1555.44 579.62 1555.42 577.833C1568.4 582.584 1581.51 586.989 1594.17 592.554Z" fill="#38A2CC"/>
<path d="M1319.08 586.153C1317.87 592.708 1318.8 599.326 1318.58 605.908C1318.42 610.473 1318.56 610.42 1313.85 609.624C1304.53 608.058 1295.21 606.43 1285.84 605.147C1283.15 604.776 1282.82 603.679 1282.91 601.467C1283.1 596.636 1283.09 591.806 1283.15 586.967C1295.1 585.365 1307.1 586.047 1319.08 586.153Z" fill="#61B2D2"/>
<path d="M1281.66 587.017C1280.86 591.688 1281.37 596.395 1281.34 601.083C1281.33 603.676 1280.65 604.251 1277.99 603.817C1257.04 600.376 1236.05 597.12 1215.09 593.714C1212.82 593.342 1210.38 593.599 1208.3 592.307C1217.8 590.715 1227.43 590.732 1237 589.998C1251.87 588.857 1266.77 587.999 1281.66 587.017Z" fill="#61B2D2"/>
</g>
<path d="M1919.98 5.01367H-95.0156V551.363H1919.98V5.01367Z" fill="url(#paint0_linear)"/>
<path d="M376.95 213.528L83.9961 341.144L712.796 554.37L876.996 518.576L855.923 436.427L472.993 300.581L376.95 213.528Z" fill="#DF85A3"/>
<path d="M376.954 213.528C395.767 221.981 414.58 230.433 433.375 238.914C473.237 256.89 513.155 274.795 552.925 292.913C606.297 317.229 659.54 341.701 712.819 366.131C729.969 373.998 747.026 381.936 764.176 389.818C765.729 390.531 767.152 391.631 769.222 391.374C769.979 392.173 770.515 393.273 771.532 393.73C793.653 403.624 816.014 413.162 837.396 424.027C841.573 426.155 846.711 429.824 853.271 428.396C853.271 430.452 853.271 432.509 853.271 434.579C825.292 434.522 797.312 434.45 769.333 434.45C765.581 434.45 763.012 434.208 760.628 431.081C756.969 426.283 751.018 422.871 743.755 421.315C725.681 417.417 707.571 413.176 688.554 414.433C660.852 416.275 635.903 410.278 612.562 399.498C594.34 391.088 574.548 389.204 553.997 390.503C539.379 391.431 524.817 392.245 510.143 391.588C500.182 391.131 490.942 388.904 482.57 384.749C472.905 379.952 472.128 373.327 480.149 366.844C484.233 363.546 489.408 362.076 494.933 361.205C502.492 360.005 507.519 356.993 508.48 350.753C509.422 344.628 505.504 340.473 499.166 337.503C485.231 330.964 470.151 326.295 454.997 321.826C447.808 319.699 440.342 318.057 433.319 315.658C428.533 314.016 423.913 311.76 419.847 309.176C407.576 301.38 408.482 293.542 421.991 287.274C424.042 286.317 426.075 285.332 428.015 284.247C436.295 279.606 437.052 274.681 430.27 268.698C422.305 261.659 411.143 258.547 400.609 254.791C391.904 251.693 383.108 248.795 374.681 245.24C370.763 243.598 367.898 241.27 365.366 238.657C361.781 234.945 362.04 231.404 367.251 228.549C369.192 227.478 371.169 226.421 373.128 225.379C378.913 222.281 381.481 218.597 376.954 213.528Z" fill="#FAFAFA"/>
<path d="M1488.04 417.321C1505.94 410.443 1516.14 396.779 1528.94 385.407C1454.54 406.591 1378.44 422.456 1304.14 441.898C1218.74 475.829 1132.14 506.825 1043.94 536.354H1920.44V279.671C1914.74 278.02 1909.14 276.37 1903.44 274.627C1862.44 269.308 1822.04 261.055 1782.24 248.491C1687.64 307.825 1595.54 374.036 1488.04 417.321Z" fill="#C3DDEB"/>
<path d="M1732.03 234.828C1591.13 317.637 1449.33 384.032 1304.13 441.806C1378.43 422.457 1454.63 406.592 1528.93 385.316C1516.13 396.687 1505.93 410.443 1488.03 417.229C1595.53 373.853 1687.63 307.733 1782.33 248.4C1822.03 260.964 1862.53 269.125 1903.53 274.536C1860.23 261.422 1817.53 246.107 1775.63 227.95C1762.73 221.164 1747.33 225.749 1732.03 234.828Z" fill="#FAFAFA"/>
<path d="M1210.99 429.135C1217.89 434.735 1214.51 443.023 1217.89 448.624C1169.48 440.223 1124.45 423.535 1076.04 409.647C1086.45 409.647 1086.45 401.246 1093.35 398.558C1020.73 384.67 951.502 367.87 878.888 351.181C837.781 343.565 805.328 370.894 768.277 384.11C775.173 383.102 782.07 383.662 788.966 381.87C730.28 408.191 680.789 446.719 623.05 472.144C619.669 473.824 616.288 475.28 612.502 476.624C616.018 475.168 619.534 473.712 623.05 472.144C641.034 463.184 653.204 449.856 667.808 440.447C616.965 449.52 577.615 475.28 532.992 493.537C580.184 505.297 627.512 517.169 674.704 529.601C743.532 547.746 810.331 527.785 878.888 541.337L937.98 542.841C994.317 525.809 1099.13 529.902 1154.49 518.782C1233.48 502.917 1262.56 472.293 1339.99 443.583C1297.53 436.639 1254.53 431.375 1210.99 429.135Z" fill="#C3DDEB"/>
<path d="M917.534 378.162C914.934 378.529 912.334 379.354 909.734 380.913C912.334 380.088 914.934 379.171 917.534 378.162Z" fill="url(#paint1_linear)"/>
<path d="M810.14 450.148C807.54 451.432 804.94 452.624 802.34 453.817C805.04 452.808 807.64 451.524 810.14 450.148Z" fill="url(#paint2_linear)"/>
<path d="M645.398 481.188C700.906 454.844 747.623 414.535 804.303 387.142C797.658 389.007 791.012 388.424 784.367 389.473C780.979 390.755 777.722 391.921 774.204 392.97C777.592 390.989 780.979 390.056 784.367 389.473C820.069 375.718 851.341 347.276 890.952 355.202C960.923 372.571 1027.64 389.939 1097.61 404.51C1090.96 407.425 1090.96 416.167 1080.93 416.167C1127.58 430.621 1170.97 448.106 1217.61 456.732C1214.23 450.904 1217.61 442.278 1210.97 436.45C1252.93 438.781 1294.23 444.26 1335.27 451.37C1342.18 448.573 1349.09 445.892 1355.99 443.094C1317.55 431.67 1279.12 419.781 1240.94 407.425C1187.64 442.162 1114.29 384.228 1054.22 369.773C1010.96 360.914 969.784 355.436 929 346.926C908.282 345.527 887.565 342.613 867.499 337.834C749.447 387.142 632.959 439.364 516.992 492.402C530.543 496.016 544.095 499.629 557.515 503.243C600.645 484.242 638.432 457.432 687.424 447.99C642.905 469.158 662.728 471.863 645.398 481.188Z" fill="#FAFAFA"/>
<path d="M1919.54 551.392V534.885C1828.94 537.177 1738.64 544.33 1648.14 551.392H1919.54Z" fill="#FAFAFA"/>
<path d="M328.841 494.902C218.541 483.714 110.641 459.412 0.441406 471.334V551.301H919.442C756.941 537.912 594.041 518.379 428.641 499.396C395.441 497.195 362.141 497.195 328.841 494.902Z" fill="#FAFAFA"/>
<path d="M710.128 526.815C700.828 527.182 691.528 527.732 682.328 528.282C761.628 536.902 840.628 544.881 919.428 551.3H1648.13C1738.63 544.239 1828.93 537.086 1919.53 534.793V462.621C1802.53 465.922 1685.43 473.351 1567.33 483.53C1280.73 506.273 996.728 515.443 710.128 526.815Z" fill="#FAFAFA"/>
<path d="M45 567.5L-25.5 558.5L-35 659.5L-18.9267 658.399L542.084 610.107L750 582.591L637.487 579.839H438.904L284.911 577.5L167.5 548L63.5 567.5H45Z" fill="#7BC0DC"/>
<path opacity="0.5" d="M80 629.908V467.476C80 466.491 80.7177 465.653 81.6913 465.5L165.796 452.361C167.009 452.171 168.105 453.109 168.105 454.337V622.665C168.105 623.703 167.311 624.568 166.276 624.657L82.1716 631.9C81.0036 632.001 80 631.08 80 629.908Z" fill="#47A3C8"/>
<path opacity="0.5" d="M187 621.292V468.232C187 466.961 188.17 466.012 189.414 466.275L240.914 477.165C241.838 477.36 242.5 478.176 242.5 479.121V616.188C242.5 617.217 241.72 618.077 240.697 618.179L189.197 623.282C188.02 623.399 187 622.475 187 621.292Z" fill="#47A3C8"/>
<path opacity="0.5" d="M-11.9598 639.82L-8.55073 454.754C-8.5257 453.395 -7.18152 452.456 -5.89704 452.901L42.654 469.701C43.4596 469.98 44 470.739 44 471.591V636.321C44 637.372 43.1852 638.245 42.1358 638.316L-9.82439 641.852C-10.9943 641.932 -11.9814 640.992 -11.9598 639.82Z" fill="#47A3C8"/>
<path opacity="0.5" d="M247.986 614.363L247.02 468.776C247.01 467.346 248.461 466.368 249.783 466.914L294.763 485.489C295.512 485.798 296 486.528 296 487.338V611.141C296 612.189 295.191 613.059 294.145 613.135L250.131 616.345C248.978 616.429 247.993 615.52 247.986 614.363Z" fill="#47A3C8"/>
<path opacity="0.5" d="M299 609.837V473.17C299 471.699 300.534 470.732 301.861 471.365L406.853 521.453C407.553 521.787 407.997 522.495 407.992 523.27L407.511 601.662C407.505 602.701 406.704 603.562 405.668 603.644L301.156 611.831C299.994 611.922 299 611.003 299 609.837Z" fill="#47A3C8"/>
<path opacity="0.5" d="M428 598.888V531.329C428 530.104 429.091 529.167 430.302 529.352L596.266 554.735C597.258 554.887 597.984 555.75 597.963 556.754L597.26 589.897C597.237 590.942 596.413 591.794 595.369 591.851L430.109 600.885C428.963 600.947 428 600.035 428 598.888Z" fill="#47A3C8"/>
<path opacity="0.5" d="M601 590.898V557.329C601 556.104 602.091 555.167 603.302 555.352L645.091 561.74C646.068 561.89 646.789 562.73 646.789 563.717V588.822C646.789 589.888 645.953 590.767 644.888 590.82L603.099 592.896C601.957 592.952 601 592.042 601 590.898Z" fill="#47A3C8"/>
<path opacity="0.5" d="M649 587.84V564.331C649 563.105 650.093 562.168 651.304 562.354L738.304 575.739C739.28 575.889 740 576.729 740 577.716V581.148C740 582.193 739.195 583.062 738.153 583.142L651.153 589.834C649.992 589.924 649 589.005 649 587.84Z" fill="#47A3C8"/>
<path d="M298.502 596.828C297.968 596.85 297.446 596.873 296.912 596.896C296.889 594.614 296.854 592.333 296.854 590.04C296.877 550.63 296.889 511.22 296.993 471.81C296.993 469.699 296.32 468.575 294.439 467.61C280.103 460.244 265.837 452.741 251.501 445.386C246.799 442.979 246.695 443.127 246.695 448.518C246.695 490.221 246.683 531.924 246.706 573.627C246.706 575.091 246.904 576.555 247.008 578.008C245.998 577.69 244.988 577.361 243.978 577.043C244.106 575.25 244.327 573.456 244.327 571.674C244.385 529.495 244.42 487.315 244.501 445.136C244.501 442.968 243.99 441.504 241.866 440.391C226.52 432.423 211.29 424.273 195.92 416.35C189.478 413.036 188.48 413.762 188.48 420.766C188.468 467.202 188.445 513.626 188.433 560.062C182.188 560.46 175.943 560.868 169.709 561.266C169.756 510.573 169.674 459.892 170.011 409.199C170.046 403.445 168.2 400.255 163.371 397.395C136.788 381.651 110.356 365.646 83.8431 349.789C82.6591 349.086 81.4286 347.474 79.8731 348.495C78.6543 349.301 79.3624 350.924 79.3624 352.173C79.3275 377.349 79.3043 402.525 79.3391 427.701C79.3972 471.356 79.5016 515.011 79.5249 558.678C79.5249 562.094 79.107 565.511 78.8864 568.916C66.9996 568.61 55.1128 568.314 43.226 568.008C43.2028 533.672 43.0402 499.347 43.2028 465.011C43.2724 449.608 45.3271 447.588 60.7312 445.896C64.2368 445.51 66.5933 444.194 68.4042 441.277C73.4189 433.206 75.1834 424.216 75.3691 415.079C75.7986 393.83 75.4968 372.57 75.8567 351.322C75.9379 346.679 74.7075 343.739 70.5517 341.356C55.5887 332.729 40.7186 323.944 25.9646 314.988C18.5005 310.448 10.456 306.793 3.78125 301.061C11.8954 301.56 19.1854 305.033 26.7539 307.372C53.1394 315.533 79.3624 324.239 105.736 332.423C163.708 350.402 221.656 368.427 279.035 388.144C292.095 392.627 305.27 396.782 318.399 401.084C321.556 402.582 324.737 403.978 328.277 404.375C344.111 409.892 359.887 415.578 375.79 420.902C421.944 436.339 468.168 451.583 514.345 466.986C529.308 471.98 544.19 477.247 559.107 482.378C559.687 483.218 560.326 483.967 561.521 483.853C623.544 514.909 685.567 545.965 747.578 577.021C747.427 577.52 747.288 578.008 747.137 578.507C746.103 578.451 745.07 578.394 744.037 578.337C741.356 576.68 738.221 577.009 735.296 576.532C708.296 572.151 681.26 567.974 654.271 563.57C650.846 563.014 649.976 563.74 649.953 567.077C649.906 573.093 650.579 579.132 649.546 585.125C648.908 585.148 648.258 585.159 647.619 585.182C647.712 578.984 647.677 572.775 647.933 566.578C648.049 563.74 647.631 562.333 644.148 561.856C632.088 560.21 620.085 558.121 608.082 556.112C602.011 555.102 602.185 555.023 601.988 560.88C601.709 569.325 602.905 577.815 601.337 586.226C601.001 586.226 600.664 586.226 600.316 586.226C599.097 577.622 599.747 568.973 599.898 560.369C599.979 555.772 598.435 554.194 593.908 553.558C559.71 548.746 525.536 543.717 491.35 538.746C469.886 535.624 448.411 532.48 426.947 529.325C424.66 528.984 422.699 528.451 422.757 532.026C422.942 542.809 422.838 553.593 422.873 564.376C422.884 566.226 423.07 568.156 425.543 568.383C428.503 568.655 428.955 570.675 428.932 572.912C428.897 578.133 428.746 583.354 428.642 588.576C421.77 588.927 414.898 589.268 408.037 589.62C407.945 580.948 408.049 572.276 407.701 563.615C407.503 558.734 409.059 555.772 414.259 554.966C417.428 554.478 419.17 552.889 418.996 549.279C418.694 543.241 418.752 537.168 418.949 531.118C419.03 528.451 418.171 527.088 415.664 525.897C378.657 508.337 341.708 490.664 304.736 473.025C298.85 470.221 298.711 470.312 298.711 477.032C298.7 510.255 298.711 543.479 298.688 576.703C298.7 583.411 298.572 590.119 298.502 596.828Z" fill="#FAFAFA"/>
<path d="M3.78417 301.06C10.4589 306.792 18.5034 310.447 25.9675 314.976C40.7215 323.943 55.5916 332.717 70.5546 341.344C74.6987 343.739 75.9292 346.668 75.8596 351.31C75.4997 372.559 75.8015 393.819 75.372 415.067C75.1863 424.205 73.4218 433.194 68.4071 441.265C66.5962 444.182 64.2397 445.499 60.7341 445.885C45.33 447.576 43.2869 449.585 43.2057 464.999C43.0432 499.335 43.2057 533.66 43.2289 567.996C23.5065 567.633 3.79578 567.202 -15.9266 566.918C-30.9592 566.702 -46.0035 566.668 -61.0361 566.566C-60.6762 565.613 -61.5236 565.136 -61.8487 564.432C-64.1471 559.483 -61.9996 555.942 -56.4392 555.794C-48.7546 555.59 -41.07 555.658 -33.3737 555.51C-31.4816 555.476 -28.7072 555.93 -28.6027 553.229C-28.4867 550.13 -31.4119 550.539 -33.4782 550.527C-42.6719 550.448 -51.8772 550.323 -61.0593 550.539C-64.6114 550.618 -65.8071 549.494 -65.5169 546.078C-65.2499 543.002 -65.4936 539.88 -65.5169 536.77C-52.3299 537.826 -39.1198 536.986 -25.9096 537.224C-22.7522 537.281 -19.1537 537.928 -16.5186 536.725C-13.0361 535.136 -15.4274 531.186 -14.9863 528.303C-14.9631 528.144 -14.847 527.996 -14.8354 527.837C-13.8139 513.524 -12.8156 499.199 -11.7824 484.886C-11.6199 482.684 -12.328 481.526 -14.8122 481.549C-31.7021 481.685 -48.6037 481.015 -65.4936 481.821C-65.482 465.136 -65.4936 448.439 -65.4704 431.753C-65.4356 403.875 -65.3892 375.998 -65.3427 348.12C-61.6513 345.725 -59.8869 341.696 -57.0313 338.574C-53.781 335.022 -50.7744 334.363 -46.7812 337.042C-44.0765 338.858 -40.9887 340.175 -39.41 343.24C-37.425 349.051 -41.2441 351.934 -45.4114 354.681C-51.1807 358.484 -51.587 362.763 -46.5723 367.462C-43.2987 370.527 -39.5841 373.047 -35.44 374.886C-25.2364 379.415 -14.8818 383.66 -5.31667 390.447C-4.68982 381.844 -4.0978 373.728 -3.48257 365.623C-3.40131 364.556 -3.67991 363.705 -4.55052 363.047C-3.19236 360.039 -3.14593 356.917 -3.08789 353.648C-2.9602 346.134 -2.01993 338.643 -1.96189 331.128C-1.89224 322.797 1.24197 314.715 -0.151013 306.236C-0.522475 304.114 -1.96189 299.494 3.78417 301.06ZM-6.39623 407.508C-10.1573 410.606 -13.7442 411.912 -15.6015 415.192C-17.7026 418.904 -16.7508 422.309 -14.6265 425.737C-12.8504 428.586 -9.11255 429.982 -8.34641 435.147C-7.64992 425.351 -7.0695 417.008 -6.39623 407.508Z" fill="#C3DDEB"/>
<path d="M78.8711 568.915C79.0916 565.499 79.5095 562.082 79.5095 558.677C79.4747 515.022 79.3702 471.367 79.3238 427.7C79.289 402.524 79.3238 377.348 79.347 352.172C79.347 350.924 78.6389 349.3 79.8578 348.495C81.4133 347.473 82.6438 349.073 83.8278 349.789C110.341 365.657 136.773 381.65 163.356 397.394C168.185 400.254 170.03 403.444 169.996 409.198C169.659 459.88 169.74 510.572 169.694 561.265C157.227 562.479 144.783 563.841 132.304 564.874C114.508 566.361 96.6781 567.587 78.8711 568.915Z" fill="#C3DDEB"/>
<path d="M298.508 596.825C298.577 590.117 298.705 583.42 298.717 576.712C298.74 543.488 298.717 510.264 298.74 477.041C298.74 470.332 298.879 470.23 304.765 473.034C341.737 490.662 378.686 508.346 415.693 525.906C418.2 527.097 419.059 528.46 418.978 531.127C418.781 537.177 418.722 543.25 419.024 549.288C419.21 552.898 417.457 554.487 414.288 554.975C409.088 555.77 407.532 558.732 407.729 563.624C408.078 572.285 407.985 580.968 408.066 589.629C400.498 591.343 392.743 590.934 385.082 591.468C356.235 593.488 327.366 595.077 298.508 596.825Z" fill="#C3DDEB"/>
<path d="M428.648 588.577C428.753 583.355 428.904 578.134 428.939 572.913C428.95 570.676 428.509 568.656 425.549 568.384C423.076 568.157 422.879 566.227 422.879 564.377C422.844 553.594 422.937 542.81 422.763 532.027C422.705 528.452 424.667 528.985 426.954 529.326C448.417 532.481 469.881 535.625 491.356 538.747C525.53 543.718 559.705 548.747 593.914 553.56C598.442 554.195 599.985 555.773 599.904 560.37C599.742 568.985 599.092 577.634 600.322 586.227C596.816 586.318 593.299 586.477 589.794 586.477C545.764 586.59 501.745 586.568 457.715 586.851C448.011 586.919 438.341 587.975 428.648 588.577Z" fill="#C3DDEB"/>
<path d="M188.441 560.073C188.453 513.637 188.476 467.213 188.488 420.777C188.488 413.773 189.498 413.047 195.929 416.361C211.298 424.284 226.528 432.434 241.874 440.402C243.998 441.503 244.521 442.979 244.509 445.147C244.428 487.326 244.393 529.506 244.335 571.685C244.335 573.479 244.103 575.272 243.987 577.054C237.637 576.407 232.007 573.422 226.006 571.651C213.434 567.951 200.955 563.944 188.441 560.073Z" fill="#C3DDEB"/>
<path d="M247.009 578.017C246.904 576.553 246.707 575.089 246.707 573.636C246.695 531.933 246.695 490.23 246.695 448.528C246.695 443.136 246.8 442.977 251.501 445.395C265.849 452.75 280.104 460.253 294.44 467.62C296.32 468.585 296.994 469.708 296.994 471.819C296.889 511.229 296.878 550.639 296.854 590.049C296.854 592.331 296.889 594.612 296.912 596.905C280.197 590.81 263.307 585.157 247.009 578.017Z" fill="#C3DDEB"/>
<path d="M601.332 586.235C602.899 577.824 601.692 569.334 601.982 560.889C602.179 555.032 602.005 555.1 608.076 556.121C620.079 558.131 632.082 560.219 644.143 561.865C647.614 562.342 648.043 563.749 647.927 566.587C647.672 572.784 647.695 578.982 647.614 585.191C632.221 587.245 616.759 586.371 601.332 586.235Z" fill="#C3DDEB"/>
<path d="M649.535 585.125C650.568 579.131 649.907 573.093 649.941 567.077C649.965 563.751 650.835 563.013 654.26 563.57C681.249 567.985 708.284 572.162 735.285 576.532C738.199 577.009 741.345 576.68 744.026 578.337C731.791 580.38 719.382 580.357 707.054 581.299C687.9 582.764 668.712 583.865 649.535 585.125Z" fill="#C3DDEB"/>
<path d="M1391.02 599.337C1391.23 599.349 1391.44 599.362 1391.65 599.374C1391.66 598.162 1391.68 596.95 1391.68 595.733C1391.67 574.804 1391.66 553.874 1391.62 532.945C1391.62 531.824 1391.89 531.227 1392.65 530.715C1398.39 526.803 1404.11 522.818 1409.86 518.912C1411.74 517.634 1411.79 517.713 1411.79 520.576C1411.79 542.723 1411.79 564.87 1411.78 587.016C1411.78 587.794 1411.7 588.571 1411.66 589.343C1412.06 589.174 1412.47 588.999 1412.87 588.831C1412.82 587.878 1412.74 586.926 1412.74 585.979C1412.71 563.58 1412.7 541.18 1412.67 518.78C1412.67 517.628 1412.87 516.851 1413.72 516.26C1419.87 512.028 1425.98 507.7 1432.14 503.493C1434.72 501.733 1435.12 502.118 1435.12 505.838C1435.13 530.498 1435.14 555.152 1435.14 579.813C1437.65 580.024 1440.15 580.241 1442.65 580.452C1442.63 553.531 1442.66 526.616 1442.53 499.695C1442.51 496.639 1443.25 494.945 1445.19 493.426C1455.84 485.065 1466.44 476.566 1477.07 468.145C1477.54 467.771 1478.04 466.915 1478.66 467.457C1479.15 467.885 1478.87 468.747 1478.87 469.411C1478.88 482.781 1478.89 496.151 1478.87 509.521C1478.85 532.704 1478.81 555.888 1478.8 579.077C1478.8 580.892 1478.97 582.706 1479.06 584.515C1483.82 584.352 1488.59 584.195 1493.35 584.032C1493.36 565.798 1493.43 547.569 1493.36 529.335C1493.33 521.155 1492.51 520.082 1486.33 519.184C1484.93 518.979 1483.98 518.279 1483.26 516.73C1481.25 512.444 1480.54 507.67 1480.47 502.818C1480.29 491.533 1480.41 480.243 1480.27 468.958C1480.24 466.493 1480.73 464.932 1482.4 463.666C1488.4 459.085 1494.36 454.419 1500.27 449.663C1503.26 447.252 1506.49 445.311 1509.16 442.267C1505.91 442.532 1502.99 444.376 1499.95 445.618C1489.38 449.952 1478.87 454.576 1468.29 458.922C1445.05 468.47 1421.82 478.043 1398.82 488.513C1393.59 490.894 1388.3 493.1 1383.04 495.385C1381.78 496.181 1380.5 496.922 1379.08 497.133C1372.73 500.063 1366.41 503.083 1360.03 505.91C1341.53 514.108 1323 522.204 1304.49 530.383C1298.49 533.036 1292.53 535.833 1286.55 538.557C1286.31 539.003 1286.06 539.401 1285.58 539.341C1260.72 555.834 1235.85 572.326 1210.99 588.819C1211.05 589.084 1211.11 589.343 1211.17 589.608C1211.58 589.578 1212 589.548 1212.41 589.518C1213.49 588.638 1214.74 588.813 1215.92 588.559C1226.74 586.233 1237.58 584.014 1248.4 581.675C1249.77 581.38 1250.12 581.766 1250.13 583.538C1250.15 586.733 1249.88 589.94 1250.29 593.123C1250.55 593.135 1250.81 593.141 1251.06 593.153C1251.03 589.861 1251.04 586.564 1250.94 583.273C1250.89 581.766 1251.06 581.018 1252.46 580.765C1257.29 579.891 1262.1 578.782 1266.91 577.715C1269.35 577.179 1269.28 577.136 1269.36 580.247C1269.47 584.732 1268.99 589.241 1269.62 593.707C1269.75 593.707 1269.89 593.707 1270.03 593.707C1270.52 589.138 1270.26 584.545 1270.19 579.976C1270.16 577.534 1270.78 576.696 1272.6 576.359C1286.31 573.803 1300.01 571.133 1313.71 568.492C1322.31 566.835 1330.92 565.165 1339.53 563.489C1340.44 563.308 1341.23 563.025 1341.21 564.924C1341.13 570.65 1341.17 576.377 1341.16 582.103C1341.16 583.086 1341.08 584.111 1340.09 584.231C1338.9 584.376 1338.72 585.449 1338.73 586.637C1338.75 589.409 1338.81 592.182 1338.85 594.955C1341.6 595.142 1344.36 595.323 1347.11 595.51C1347.14 590.904 1347.1 586.299 1347.24 581.7C1347.32 579.108 1346.7 577.534 1344.61 577.106C1343.34 576.847 1342.64 576.003 1342.71 574.086C1342.84 570.879 1342.81 567.654 1342.73 564.442C1342.7 563.025 1343.04 562.302 1344.05 561.669C1358.89 552.343 1373.7 542.958 1388.52 533.59C1390.88 532.101 1390.93 532.15 1390.93 535.718C1390.94 553.362 1390.93 571.006 1390.94 588.65C1390.94 592.212 1390.99 595.775 1391.02 599.337Z" fill="#FAFAFA"/>
<path d="M1479.05 584.514C1478.97 582.7 1478.8 580.886 1478.8 579.077C1478.81 555.894 1478.85 532.71 1478.87 509.52C1478.89 496.15 1478.87 482.78 1478.86 469.41C1478.86 468.747 1479.15 467.885 1478.66 467.457C1478.04 466.915 1477.54 467.765 1477.07 468.144C1466.44 476.572 1455.84 485.065 1445.19 493.426C1443.25 494.945 1442.51 496.639 1442.53 499.695C1442.66 526.61 1442.63 553.531 1442.65 580.452C1447.64 581.097 1452.63 581.82 1457.63 582.369C1464.77 583.158 1471.92 583.809 1479.05 584.514Z" fill="#C3DDEB"/>
<path d="M1391.02 599.337C1390.99 595.775 1390.94 592.218 1390.94 588.656C1390.93 571.012 1390.94 553.368 1390.93 535.724C1390.93 532.162 1390.87 532.107 1388.51 533.596C1373.69 542.958 1358.88 552.349 1344.04 561.674C1343.04 562.307 1342.69 563.031 1342.73 564.447C1342.81 567.66 1342.83 570.885 1342.71 574.092C1342.63 576.009 1343.34 576.853 1344.61 577.112C1346.69 577.534 1347.31 579.107 1347.24 581.705C1347.1 586.305 1347.13 590.916 1347.1 595.515C1350.13 596.426 1353.24 596.209 1356.31 596.492C1367.88 597.565 1379.45 598.409 1391.02 599.337Z" fill="#C3DDEB"/>
<path d="M1338.85 594.955C1338.81 592.182 1338.75 589.409 1338.73 586.636C1338.73 585.449 1338.91 584.376 1340.09 584.231C1341.08 584.11 1341.16 583.086 1341.16 582.103C1341.18 576.377 1341.14 570.65 1341.21 564.923C1341.23 563.025 1340.45 563.308 1339.53 563.489C1330.93 565.165 1322.32 566.834 1313.71 568.492C1300.01 571.132 1286.31 573.803 1272.6 576.359C1270.79 576.696 1270.17 577.534 1270.2 579.975C1270.26 584.551 1270.52 589.144 1270.03 593.707C1271.44 593.755 1272.85 593.84 1274.25 593.84C1291.9 593.9 1309.55 593.888 1327.2 594.039C1331.09 594.075 1334.97 594.635 1338.85 594.955Z" fill="#C3DDEB"/>
<path d="M1435.13 579.819C1435.13 555.158 1435.12 530.504 1435.11 505.844C1435.11 502.124 1434.71 501.738 1432.13 503.499C1425.97 507.706 1419.86 512.034 1413.71 516.266C1412.86 516.851 1412.65 517.634 1412.66 518.786C1412.69 541.186 1412.7 563.585 1412.73 585.985C1412.73 586.938 1412.82 587.89 1412.87 588.837C1415.41 588.493 1417.67 586.908 1420.07 585.967C1425.11 584.002 1430.12 581.874 1435.13 579.819Z" fill="#C3DDEB"/>
<path d="M1509.99 570.702C1509.99 529.692 1509.97 488.691 1509.97 447.681C1509.97 441.496 1509.42 440.854 1505.97 443.781C1497.7 450.778 1489.51 457.976 1481.26 465.013C1480.12 465.986 1479.84 467.289 1479.85 469.204C1479.89 506.455 1479.91 543.706 1479.94 580.958C1479.94 582.542 1480.06 584.125 1480.13 585.699C1483.54 585.128 1486.57 582.491 1489.8 580.928C1496.55 577.66 1503.26 574.121 1509.99 570.702Z" fill="#C3DDEB"/>
<path d="M1411.66 589.349C1411.7 588.571 1411.78 587.794 1411.78 587.022C1411.79 564.875 1411.79 542.729 1411.79 520.582C1411.79 517.719 1411.74 517.634 1409.86 518.918C1404.11 522.824 1398.39 526.809 1392.65 530.721C1391.89 531.233 1391.62 531.83 1391.62 532.951C1391.66 553.88 1391.67 574.81 1391.68 595.739C1391.68 596.95 1391.66 598.162 1391.65 599.38C1398.36 596.143 1405.13 593.141 1411.66 589.349Z" fill="#C3DDEB"/>
<path d="M1269.62 593.714C1269 589.247 1269.48 584.738 1269.36 580.253C1269.29 577.143 1269.36 577.179 1266.92 577.722C1262.11 578.789 1257.3 579.898 1252.46 580.772C1251.07 581.025 1250.9 581.772 1250.95 583.279C1251.05 586.571 1251.04 589.862 1251.07 593.159C1257.24 594.25 1263.44 593.786 1269.62 593.714Z" fill="#C3DDEB"/>
<path d="M1250.3 593.122C1249.89 589.94 1250.15 586.733 1250.14 583.538C1250.13 581.772 1249.78 581.38 1248.41 581.675C1237.59 584.02 1226.75 586.238 1215.93 588.559C1214.76 588.812 1213.5 588.638 1212.42 589.518C1217.33 590.603 1222.3 590.591 1227.24 591.091C1234.92 591.869 1242.61 592.453 1250.3 593.122Z" fill="#C3DDEB"/>
<path d="M1573.11 599.336C1573 599.349 1572.89 599.361 1572.77 599.373C1572.76 598.161 1572.76 596.949 1572.76 595.732C1572.76 574.803 1572.76 553.874 1572.79 532.944C1572.79 531.823 1572.64 531.226 1572.23 530.714C1569.12 526.802 1566.02 522.817 1562.91 518.911C1561.89 517.633 1561.87 517.712 1561.87 520.575C1561.87 542.722 1561.86 564.869 1561.87 587.015C1561.87 587.793 1561.91 588.571 1561.93 589.342C1561.71 589.173 1561.5 588.998 1561.28 588.83C1561.3 587.877 1561.35 586.925 1561.35 585.978C1561.36 563.579 1561.37 541.179 1561.39 518.779C1561.39 517.627 1561.28 516.85 1560.82 516.259C1557.49 512.027 1554.18 507.699 1550.84 503.492C1549.44 501.732 1549.23 502.117 1549.23 505.837C1549.22 530.497 1549.22 555.151 1549.22 579.812C1547.86 580.023 1546.5 580.24 1545.15 580.451C1545.16 553.53 1545.14 526.615 1545.22 499.694C1545.22 496.638 1544.82 494.944 1543.77 493.425C1538 485.064 1532.26 476.565 1526.51 468.144C1526.25 467.77 1525.98 466.914 1525.64 467.457C1525.38 467.885 1525.53 468.747 1525.53 469.41C1525.52 482.78 1525.52 496.15 1525.53 509.52C1525.54 532.703 1525.56 555.887 1525.57 579.076C1525.57 580.891 1525.48 582.705 1525.43 584.514C1522.85 584.351 1520.27 584.194 1517.69 584.031C1517.68 565.797 1517.65 547.568 1517.68 529.334C1517.7 521.154 1518.14 520.081 1521.49 519.183C1522.25 518.978 1522.76 518.278 1523.15 516.729C1524.24 512.443 1524.62 507.669 1524.67 502.817C1524.76 491.532 1524.69 480.242 1524.77 468.957C1524.79 466.492 1524.52 464.931 1523.62 463.665C1520.37 459.084 1517.14 454.418 1513.94 449.662C1512.32 447.251 1510.57 445.31 1509.12 442.266C1510.88 442.531 1512.47 444.375 1514.11 445.617C1519.84 449.951 1525.53 454.575 1531.26 458.921C1543.85 468.469 1556.43 478.042 1568.89 488.512C1571.72 490.893 1574.58 493.1 1577.44 495.384C1578.12 496.18 1578.81 496.921 1579.58 497.132C1583.02 500.062 1586.44 503.082 1589.9 505.909C1599.92 514.107 1609.95 522.203 1619.98 530.383C1623.23 533.035 1626.46 535.832 1629.7 538.556C1629.83 539.003 1629.97 539.4 1630.23 539.34C1643.69 555.833 1657.16 572.325 1670.62 588.818C1670.59 589.083 1670.56 589.342 1670.53 589.607C1670.3 589.577 1670.08 589.547 1669.86 589.517C1669.27 588.637 1668.59 588.812 1667.96 588.558C1662.09 586.232 1656.22 584.013 1650.36 581.675C1649.62 581.379 1649.43 581.765 1649.43 583.537C1649.42 586.732 1649.56 589.939 1649.34 593.122C1649.2 593.134 1649.06 593.14 1648.92 593.152C1648.94 589.86 1648.93 586.563 1648.99 583.272C1649.01 581.765 1648.92 581.017 1648.17 580.764C1645.55 579.89 1642.94 578.781 1640.33 577.714C1639.02 577.178 1639.05 577.135 1639.01 580.246C1638.95 584.731 1639.21 589.24 1638.87 593.706C1638.8 593.706 1638.72 593.706 1638.65 593.706C1638.38 589.137 1638.53 584.544 1638.56 579.975C1638.58 577.533 1638.24 576.695 1637.26 576.358C1629.83 573.802 1622.41 571.132 1614.99 568.491C1610.33 566.834 1605.66 565.164 1601 563.488C1600.51 563.307 1600.08 563.024 1600.09 564.923C1600.13 570.649 1600.11 576.376 1600.12 582.102C1600.12 583.085 1600.16 584.11 1600.7 584.23C1601.34 584.375 1601.44 585.448 1601.44 586.636C1601.43 589.408 1601.4 592.181 1601.37 594.954C1599.88 595.141 1598.39 595.322 1596.9 595.509C1596.88 590.903 1596.9 586.298 1596.83 581.699C1596.78 579.107 1597.12 577.533 1598.25 577.105C1598.94 576.846 1599.32 576.002 1599.28 574.085C1599.21 570.878 1599.23 567.653 1599.27 564.441C1599.29 563.024 1599.1 562.301 1598.55 561.668C1590.52 552.342 1582.5 542.957 1574.47 533.589C1573.19 532.1 1573.16 532.149 1573.16 535.717C1573.16 553.361 1573.16 571.005 1573.16 588.649C1573.16 592.211 1573.13 595.774 1573.11 599.336Z" fill="#FAFAFA"/>
<path d="M1525.42 584.514C1525.47 582.7 1525.56 580.886 1525.56 579.077C1525.55 555.894 1525.53 532.71 1525.52 509.52C1525.51 496.15 1525.52 482.78 1525.53 469.41C1525.53 468.747 1525.37 467.885 1525.64 467.457C1525.97 466.915 1526.24 467.765 1526.5 468.144C1532.26 476.572 1537.99 485.065 1543.77 493.426C1544.81 494.945 1545.22 496.639 1545.21 499.695C1545.13 526.61 1545.15 553.531 1545.14 580.452C1542.44 581.097 1539.73 581.82 1537.02 582.369C1533.16 583.158 1529.29 583.809 1525.42 584.514Z" fill="#C3DDEB"/>
<path d="M1573.11 599.337C1573.12 595.775 1573.15 592.218 1573.15 588.656C1573.16 571.012 1573.15 553.368 1573.16 535.724C1573.16 532.162 1573.19 532.107 1574.46 533.596C1582.49 542.958 1590.51 552.349 1598.55 561.674C1599.09 562.307 1599.28 563.031 1599.26 564.447C1599.22 567.66 1599.21 570.885 1599.27 574.092C1599.31 576.009 1598.93 576.853 1598.25 577.112C1597.12 577.534 1596.78 579.107 1596.82 581.705C1596.9 586.305 1596.88 590.916 1596.89 595.515C1595.25 596.426 1593.57 596.209 1591.9 596.492C1585.64 597.565 1579.37 598.409 1573.11 599.337Z" fill="#C3DDEB"/>
<path d="M1601.37 594.955C1601.39 592.182 1601.43 589.409 1601.43 586.636C1601.44 585.449 1601.34 584.376 1600.7 584.231C1600.16 584.11 1600.12 583.086 1600.12 582.103C1600.11 576.377 1600.13 570.65 1600.09 564.923C1600.08 563.025 1600.51 563.308 1601 563.489C1605.66 565.165 1610.32 566.834 1614.99 568.492C1622.41 571.132 1629.83 573.803 1637.26 576.359C1638.24 576.696 1638.57 577.534 1638.56 579.975C1638.52 584.551 1638.38 589.144 1638.65 593.707C1637.89 593.755 1637.12 593.84 1636.36 593.84C1626.8 593.9 1617.24 593.888 1607.68 594.039C1605.58 594.075 1603.48 594.635 1601.37 594.955Z" fill="#C3DDEB"/>
<path d="M1549.21 579.821C1549.21 555.16 1549.22 530.506 1549.22 505.845C1549.22 502.126 1549.44 501.74 1550.84 503.501C1554.17 507.708 1557.48 512.036 1560.81 516.268C1561.27 516.853 1561.39 517.636 1561.39 518.788C1561.37 541.187 1561.36 563.587 1561.35 585.987C1561.35 586.94 1561.3 587.892 1561.27 588.839C1559.89 588.495 1558.67 586.91 1557.37 585.969C1554.64 584.004 1551.93 581.876 1549.21 579.821Z" fill="#C3DDEB"/>
<path d="M1508.67 570.702C1508.68 529.692 1508.68 488.691 1508.69 447.681C1508.69 441.496 1508.98 440.854 1510.85 443.781C1515.33 450.778 1519.76 457.976 1524.23 465.013C1524.85 465.986 1525 467.289 1525 469.204C1524.98 506.455 1524.97 543.706 1524.95 580.958C1524.95 582.542 1524.88 584.125 1524.85 585.699C1523 585.128 1521.36 582.491 1519.61 580.928C1515.95 577.66 1512.32 574.121 1508.67 570.702Z" fill="#C3DDEB"/>
<path d="M1561.94 589.351C1561.91 588.573 1561.87 587.796 1561.87 587.024C1561.87 564.877 1561.87 542.731 1561.87 520.584C1561.87 517.721 1561.89 517.636 1562.91 518.92C1566.03 522.826 1569.12 526.811 1572.23 530.723C1572.64 531.235 1572.79 531.832 1572.79 532.953C1572.77 553.882 1572.76 574.812 1572.76 595.741C1572.76 596.952 1572.77 598.164 1572.77 599.382C1569.14 596.144 1565.47 593.143 1561.94 589.351Z" fill="#C3DDEB"/>
<path d="M1638.85 593.716C1639.19 589.249 1638.93 584.74 1638.99 580.255C1639.04 577.145 1639 577.181 1640.32 577.724C1642.92 578.791 1645.53 579.9 1648.15 580.774C1648.9 581.027 1648.99 581.774 1648.97 583.281C1648.91 586.573 1648.92 589.864 1648.9 593.161C1645.56 594.252 1642.2 593.788 1638.85 593.716Z" fill="#C3DDEB"/>
<path d="M1649.33 593.124C1649.56 589.942 1649.41 586.735 1649.42 583.54C1649.43 581.774 1649.61 581.382 1650.36 581.677C1656.22 584.022 1662.09 586.24 1667.95 588.561C1668.58 588.814 1669.27 588.639 1669.85 589.52C1667.19 590.605 1664.5 590.593 1661.82 591.093C1657.66 591.87 1653.5 592.455 1649.33 593.124Z" fill="#C3DDEB"/>
<path d="M1628.01 651.653C1628.43 651.67 1628.83 651.688 1629.25 651.706C1629.27 649.928 1629.29 648.149 1629.29 646.362C1629.28 615.646 1629.27 584.929 1629.19 554.212C1629.19 552.567 1629.71 551.691 1631.18 550.939C1642.35 545.197 1653.47 539.35 1664.64 533.617C1668.31 531.741 1668.39 531.856 1668.39 536.059C1668.39 568.562 1668.4 601.066 1668.38 633.57C1668.38 634.711 1668.23 635.852 1668.14 636.984C1668.93 636.737 1669.72 636.48 1670.51 636.232C1670.41 634.835 1670.23 633.437 1670.23 632.048C1670.19 599.173 1670.16 566.297 1670.1 533.422C1670.1 531.732 1670.5 530.591 1672.15 529.724C1684.11 523.514 1695.98 517.161 1707.96 510.986C1712.98 508.403 1713.76 508.969 1713.76 514.428C1713.77 550.621 1713.79 586.805 1713.8 622.997C1718.67 623.307 1723.53 623.626 1728.39 623.935C1728.36 584.425 1728.42 544.923 1728.16 505.413C1728.13 500.927 1729.57 498.441 1733.33 496.212C1754.05 483.941 1774.65 471.467 1795.32 459.108C1796.24 458.559 1797.2 457.303 1798.41 458.099C1799.36 458.727 1798.81 459.993 1798.81 460.966C1798.84 480.588 1798.86 500.211 1798.83 519.833C1798.78 553.859 1798.7 587.884 1798.68 621.918C1798.68 624.581 1799.01 627.244 1799.18 629.898C1808.45 629.659 1817.73 620.158 1826.99 619.919C1827.01 593.157 1827.12 575.675 1826.99 548.913C1826.94 536.908 1825.34 535.333 1813.33 534.015C1810.6 533.714 1808.76 532.688 1807.35 530.414C1803.44 524.124 1802.07 517.117 1801.92 509.995C1801.59 493.434 1801.82 476.864 1801.54 460.302C1801.48 456.684 1802.44 454.392 1805.68 452.535C1817.34 445.811 1828.93 438.963 1840.43 431.983C1846.25 428.444 1852.52 425.596 1857.72 421.128C1851.39 421.517 1845.71 424.224 1839.81 426.047C1819.25 432.408 1798.81 439.193 1778.25 445.572C1733.07 459.586 1687.9 473.635 1643.18 489.002C1633 492.496 1622.73 495.734 1612.5 499.087C1610.04 500.255 1607.56 501.343 1604.8 501.653C1592.46 505.952 1580.17 510.385 1567.77 514.534C1531.8 526.566 1495.77 538.447 1459.78 550.453C1448.12 554.345 1436.52 558.45 1424.89 562.449C1424.44 563.104 1423.94 563.688 1423.01 563.599C1374.67 587.804 1326.33 612.01 1277.99 636.215C1278.11 636.604 1278.22 636.984 1278.34 637.374C1279.14 637.329 1279.95 637.285 1280.75 637.241C1282.84 635.949 1285.29 636.206 1287.57 635.834C1308.61 632.419 1329.68 629.164 1350.72 625.731C1353.39 625.298 1354.07 625.864 1354.08 628.465C1354.12 633.154 1353.6 637.86 1354.4 642.531C1354.9 642.549 1355.41 642.558 1355.9 642.576C1355.83 637.745 1355.86 632.906 1355.66 628.076C1355.57 625.864 1355.89 624.767 1358.61 624.395C1368.01 623.112 1377.36 621.485 1386.72 619.919C1391.45 619.131 1391.32 619.069 1391.47 623.634C1391.69 630.217 1390.75 636.834 1391.98 643.39C1392.24 643.39 1392.5 643.39 1392.77 643.39C1393.72 636.684 1393.22 629.942 1393.1 623.236C1393.03 619.653 1394.24 618.424 1397.77 617.928C1424.42 614.177 1451.06 610.258 1477.7 606.383C1494.43 603.95 1511.17 601.499 1527.9 599.04C1529.68 598.775 1531.21 598.359 1531.16 601.145C1531.02 609.55 1531.1 617.955 1531.07 626.359C1531.06 627.801 1530.92 629.305 1528.99 629.482C1526.69 629.695 1526.33 631.269 1526.35 633.012C1526.38 637.082 1526.5 641.151 1526.58 645.221C1531.93 645.495 1537.29 645.761 1542.64 646.035C1542.71 639.276 1542.63 632.517 1542.9 625.767C1543.05 621.962 1541.84 619.653 1537.79 619.025C1535.32 618.645 1533.96 617.406 1534.1 614.593C1534.33 609.886 1534.29 605.153 1534.13 600.438C1534.07 598.359 1534.74 597.297 1536.69 596.368C1565.54 582.682 1594.33 568.907 1623.15 555.159C1627.74 552.974 1627.85 553.045 1627.85 558.282C1627.86 584.177 1627.85 610.072 1627.86 635.967C1627.86 641.196 1627.96 646.424 1628.01 651.653Z" fill="#FAFAFA"/>
<path d="M1799.2 629.897C1799.03 627.234 1798.71 624.571 1798.71 621.917C1798.73 587.892 1798.81 553.866 1798.85 519.832C1798.88 500.21 1798.85 480.587 1798.83 460.965C1798.83 459.991 1799.38 458.726 1798.43 458.098C1797.22 457.302 1796.26 458.549 1795.34 459.107C1774.68 471.475 1754.07 483.94 1733.35 496.211C1729.59 498.44 1728.15 500.926 1728.18 505.412C1728.44 544.913 1728.38 584.424 1728.41 623.934C1738.13 624.881 1747.83 625.942 1757.56 626.747C1771.43 627.906 1785.32 628.862 1799.2 629.897Z" fill="#79C5ED"/>
<path d="M1628.02 651.65C1627.97 646.422 1627.87 641.202 1627.86 635.974C1627.84 610.079 1627.86 584.184 1627.84 558.289C1627.84 553.06 1627.73 552.981 1623.14 555.166C1594.33 568.905 1565.53 582.689 1536.68 596.375C1534.73 597.304 1534.06 598.365 1534.12 600.444C1534.28 605.16 1534.32 609.893 1534.09 614.599C1533.94 617.413 1535.31 618.651 1537.78 619.032C1541.83 619.651 1543.04 621.96 1542.89 625.773C1542.62 632.523 1542.69 639.291 1542.63 646.041C1548.53 647.377 1554.57 647.059 1560.54 647.475C1583.03 649.049 1605.53 650.288 1628.02 651.65Z" fill="#79C5ED"/>
<path d="M1526.57 645.219C1526.49 641.149 1526.37 637.08 1526.35 633.01C1526.34 631.267 1526.68 629.693 1528.99 629.48C1530.91 629.303 1531.07 627.799 1531.07 626.357C1531.1 617.953 1531.02 609.548 1531.16 601.144C1531.2 598.357 1529.68 598.773 1527.89 599.038C1511.16 601.498 1494.44 603.948 1477.7 606.381C1451.06 610.256 1424.42 614.175 1397.76 617.926C1394.23 618.422 1393.03 619.651 1393.09 623.234C1393.22 629.949 1393.73 636.691 1392.77 643.388C1395.5 643.459 1398.24 643.582 1400.97 643.582C1435.29 643.671 1469.6 643.653 1503.92 643.874C1511.48 643.927 1519.02 644.75 1526.57 645.219Z" fill="#79C5ED"/>
<path d="M1713.8 623.006C1713.8 586.813 1713.78 550.629 1713.77 514.436C1713.77 508.977 1712.98 508.411 1707.97 510.995C1695.99 517.17 1684.12 523.522 1672.16 529.732C1670.5 530.59 1670.1 531.741 1670.1 533.43C1670.17 566.306 1670.2 599.181 1670.24 632.056C1670.24 633.454 1670.42 634.852 1670.51 636.241C1675.46 635.736 1679.85 633.41 1684.53 632.03C1694.33 629.145 1704.05 626.022 1713.8 623.006Z" fill="#79C5ED"/>
<path d="M1859.33 609.626C1859.32 549.436 1859.29 489.262 1859.28 429.073C1859.28 419.995 1858.22 419.054 1851.5 423.35C1835.43 433.619 1819.51 444.183 1803.47 454.511C1801.25 455.938 1800.7 457.851 1800.72 460.661C1800.8 515.333 1800.84 570.005 1800.9 624.676C1800.9 627.001 1801.14 629.326 1801.26 631.635C1807.9 630.797 1813.79 626.927 1820.06 624.632C1833.2 619.836 1846.25 614.642 1859.33 609.626Z" fill="#79C5ED"/>
<path d="M1668.15 636.994C1668.23 635.853 1668.39 634.712 1668.39 633.579C1668.39 601.076 1668.39 568.572 1668.39 536.068C1668.39 531.866 1668.31 531.742 1664.65 533.627C1653.47 539.359 1642.36 545.207 1631.18 550.949C1629.72 551.701 1629.19 552.577 1629.19 554.222C1629.27 584.939 1629.28 615.655 1629.3 646.372C1629.3 648.15 1629.27 649.928 1629.25 651.715C1642.28 646.965 1655.45 642.559 1668.15 636.994Z" fill="#79C5ED"/>
<path d="M1391.98 643.399C1390.76 636.843 1391.7 630.226 1391.48 623.644C1391.32 619.079 1391.46 619.132 1386.73 619.928C1377.37 621.494 1368.02 623.122 1358.62 624.404C1355.91 624.776 1355.58 625.873 1355.67 628.085C1355.87 632.915 1355.85 637.746 1355.91 642.585C1367.91 644.186 1379.96 643.505 1391.98 643.399Z" fill="#79C5ED"/>
<path d="M1354.42 642.532C1353.62 637.861 1354.13 633.154 1354.11 628.465C1354.09 625.873 1353.41 625.298 1350.74 625.732C1329.7 629.173 1308.63 632.429 1287.59 635.835C1285.32 636.206 1282.86 635.95 1280.77 637.242C1290.31 638.834 1299.98 638.816 1309.59 639.551C1324.52 640.692 1339.48 641.55 1354.42 642.532Z" fill="#79C5ED"/>
</g>
<rect width="1920" height="786" fill="url(#paint3_linear)"/>
<defs>
<linearGradient id="paint0_linear" x1="912.484" y1="354.594" x2="912.484" y2="-15.9193" gradientUnits="userSpaceOnUse">
<stop stop-color="#C3DDEB"/>
<stop offset="0.93864" stop-color="#45A7CE"/>
</linearGradient>
<linearGradient id="paint1_linear" x1="913.609" y1="377.131" x2="913.609" y2="380.375" gradientUnits="userSpaceOnUse">
<stop stop-color="#78909C"/>
<stop offset="1" stop-color="#314047"/>
</linearGradient>
<linearGradient id="paint2_linear" x1="806.184" y1="448.797" x2="806.184" y2="453.192" gradientUnits="userSpaceOnUse">
<stop stop-color="#78909C"/>
<stop offset="1" stop-color="#314047"/>
</linearGradient>
<linearGradient id="paint3_linear" x1="960" y1="0" x2="960" y2="535.482" gradientUnits="userSpaceOnUse">
<stop stop-color="white"/>
<stop offset="1" stop-color="white" stop-opacity="0"/>
</linearGradient>
</defs>
</svg>
