<svg width="1920" height="670" viewBox="0 0 1920 670" fill="none" xmlns="http://www.w3.org/2000/svg">
<mask id="mask0" mask-type="alpha" maskUnits="userSpaceOnUse" x="0" y="0" width="1920" height="670">
<rect width="1920" height="670" fill="white"/>
</mask>
<g mask="url(#mask0)">
</g>
<mask id="mask1" mask-type="alpha" maskUnits="userSpaceOnUse" x="-136" y="63" width="2072" height="607">
<path d="M1936 63H-136V670H1936V63Z" fill="white"/>
</mask>
<g mask="url(#mask1)">
<mask id="mask2" mask-type="alpha" maskUnits="userSpaceOnUse" x="-810" y="67" width="3528" height="685">
<path d="M983.193 704.474C1957.14 608.761 2733.7 399.061 2717.69 236.095C2701.67 73.1282 1899.15 18.6078 925.197 114.32C-48.7535 210.032 -825.314 419.732 -809.299 582.699C-793.284 745.665 9.24204 800.186 983.193 704.474Z" fill="#C3DDEB"/>
</mask>
<g mask="url(#mask2)">
<path d="M1934 51H14V503H1934V51Z" fill="#C3DDEB"/>
<path d="M685.3 389.4C572.7 354.6 462.7 312.3 352.7 272.5C368.1 287.4 378.3 307.3 391.1 322.2C304.1 314.7 222.2 294.8 137.8 279.9C155.7 265 178.7 252.5 199.2 242.6C137.1 235.9 72.9 241.3 14 264.2V469.4H935.5C828.8 434.7 722.2 400.6 611.1 396.8C636.7 391.9 659.7 394.3 685.3 389.4Z" fill="#C3DDEB"/>
<path d="M861.9 426.7C664.9 364.5 467.8 314.8 278.5 235.2C258 225.3 229.9 210.3 214.5 210.3C148.4 206.1 75.1 226.2 14 261.9V264.2C72.8 241.3 137 235.9 199.2 242.6C178.7 252.5 155.7 265 137.8 279.9C222.2 294.8 304.1 314.7 391.1 322.2C378.3 307.3 368.1 287.4 352.7 272.5C462.7 312.3 572.8 354.6 685.3 389.4C659.7 394.4 636.7 391.9 611.1 396.9C722.2 400.7 828.8 434.8 935.5 469.5H1014C963.3 457.3 912.8 442.9 861.9 426.7Z" fill="#FAFAFA"/>
<path d="M1501.6 339.6C1519.5 332.1 1529.7 317.2 1542.5 304.8C1468.1 327.9 1392 345.2 1317.7 366.4C1232.3 403.4 1145.7 437.2 1057.5 469.4H1934V189.5C1928.3 187.7 1922.7 185.9 1917 184C1876 178.2 1835.6 169.2 1795.8 155.5C1701.2 220.2 1609.1 292.4 1501.6 339.6Z" fill="#C3DDEB"/>
<path d="M1745.6 140.6C1604.7 230.9 1462.9 303.3 1317.7 366.3C1392 345.2 1468.2 327.9 1542.5 304.7C1529.7 317.1 1519.5 332.1 1501.6 339.5C1609.1 292.2 1701.2 220.1 1795.9 155.4C1835.6 169.1 1876.1 178 1917.1 183.9C1873.8 169.6 1831.1 152.9 1789.2 133.1C1776.3 125.7 1760.9 130.7 1745.6 140.6Z" fill="#FAFAFA"/>
<path d="M1933.1 189.5V185.4C1921.7 183.1 1910.2 180.7 1898.9 178.2C1910.2 182.2 1921.7 185.9 1933.1 189.5Z" fill="url(#paint0_linear)"/>
<path d="M1708.8 133.2C1685.8 123.3 1665.3 103.4 1644.8 83.4996C1639.7 78.4996 1629.5 71.0996 1621.8 71.0996C1599.3 73.4996 1576.8 76.2996 1554.6 79.5996C1510.9 98.2996 1468.5 122 1424.8 140.8C1432.5 130.9 1440.2 120.9 1450.4 113.4C1386.4 135.8 1304.6 128.3 1255.9 178.1C1281.5 175.6 1304.5 165.7 1330.1 163.2C1314.8 210.5 1271.3 260.2 1220.1 267.7C1230.3 252.8 1243.1 240.3 1253.4 225.4C1207.3 230.4 1169 255.2 1125.5 272.7C1122.2 273.3 1119 274.3 1115.9 275.4C1123.3 276.9 1130.7 278.5 1138.3 280.2C1184.4 292.6 1240.6 342.4 1281.6 312.5C1310.9 323.1 1340.4 333.3 1369.9 343.1C1496.6 285.4 1621 220 1744.7 140.6C1745.8 139.9 1746.9 139.2 1748 138.6C1734.8 137.7 1721.3 137.7 1708.8 133.2Z" fill="#EC7FA3"/>
<path d="M1253.4 225.2C1243.2 240.1 1230.4 252.6 1220.1 267.5C1271.3 260 1314.8 210.3 1330.1 163C1304.5 165.5 1281.5 175.4 1255.9 177.9C1304.5 128.2 1386.4 135.6 1450.4 113.2C1440.2 120.7 1432.5 130.6 1424.8 140.6C1468.5 121.9 1510.9 98.1004 1554.6 79.4004C1462.9 92.6004 1373.1 112.6 1286.6 140.6C1245.7 155.5 1230.3 212.7 1194.5 230.1C1149.3 253 1095 264.2 1042.1 260.2C1066.3 265.8 1090.7 270 1115.9 275C1119 273.9 1122.1 273 1125.5 272.3C1168.9 255.1 1207.3 230.2 1253.4 225.2Z" fill="#FD9BBB"/>
<path d="M1258.5 337.1C1263.6 342.1 1261.1 349.5 1263.6 354.5C1227.8 347 1194.5 332.1 1158.7 319.7C1166.4 319.7 1166.4 312.2 1171.5 309.8C1117.8 297.4 1066.6 282.4 1012.9 267.5C982.502 260.7 958.502 285.1 931.102 296.9C936.202 296 941.302 296.5 946.402 294.9C903.002 318.4 866.402 352.8 823.702 375.5C821.202 377 818.702 378.3 815.902 379.5C818.502 378.2 821.102 376.9 823.702 375.5C837.002 367.5 846.002 355.6 856.802 347.2C819.202 355.3 790.102 378.3 757.102 394.6C792.002 405.1 827.002 415.7 861.902 426.8C912.802 443 963.302 457.4 1014 469.5H1056.6C1157.7 432.6 1256.5 393.6 1353.9 350C1322.5 343.8 1290.7 339.1 1258.5 337.1Z" fill="#C3DDEB"/>
<path d="M931.101 296.9C928.501 297.3 925.901 298.2 923.301 299.9C925.901 299 928.501 298 931.101 296.9Z" fill="url(#paint1_linear)"/>
<path d="M823.698 375.4C821.098 376.8 818.498 378.1 815.898 379.4C818.598 378.3 821.198 376.9 823.698 375.4Z" fill="url(#paint2_linear)"/>
<path d="M823.698 375.4C866.298 352.8 902.898 318.3 946.398 294.8C941.298 296.4 936.198 295.9 931.098 296.8C928.498 297.9 925.998 298.9 923.298 299.8C925.898 298.1 928.498 297.3 931.098 296.8C958.498 285 982.498 260.6 1012.9 267.4C1066.6 282.3 1117.8 297.2 1171.5 309.7C1166.4 312.2 1166.4 319.7 1158.7 319.7C1194.5 332.1 1227.8 347.1 1263.6 354.5C1261 349.5 1263.6 342.1 1258.5 337.1C1290.7 339.1 1322.4 343.8 1353.9 349.9C1359.2 347.5 1364.5 345.2 1369.8 342.8C1340.3 333 1310.8 322.8 1281.5 312.2C1240.6 342 1184.3 292.3 1138.2 279.9C1105 272.3 1073.4 267.6 1042.1 260.3C1026.2 259.1 1010.3 256.6 994.898 252.5C904.298 294.8 814.898 339.6 725.898 385.1C736.298 388.2 746.698 391.3 756.998 394.4C790.098 378.1 819.098 355.1 856.698 347C845.998 355.5 836.998 367.4 823.698 375.4Z" fill="#FAFAFA"/>
<path d="M746.702 272.5C716.002 272.5 695.502 312.3 680.202 309.8C618.802 302.3 554.802 275 501.102 235.2C529.202 245.1 554.802 257.6 583.002 270C547.202 240.2 511.402 207.8 475.502 175.5C467.802 168 462.702 155.6 449.902 155.6C462.702 168 465.302 183 465.302 197.9C447.402 163.1 411.602 135.7 403.902 95.9002C322.002 88.4002 240.102 93.4002 158.302 103.4C176.202 108.4 209.502 115.8 201.802 120.8C155.702 158.1 89.2016 168.1 30.4016 185.5C43.2015 170.6 50.9016 150.7 71.3016 140.7C49.2016 140.7 31.1016 149.7 14.1016 160.3V261.9C75.2016 226.3 148.502 206.2 214.602 210.3C230.002 210.3 258.102 225.2 278.602 235.2C424.402 296.5 574.702 340.1 726.102 385.3C762.902 366.5 799.702 347.8 836.602 329.4C804.902 309.5 770.902 293.3 734.102 282.5C736.502 277.4 741.602 275 746.702 272.5Z" fill="#EC7FA3"/>
<path d="M751.9 270C721.2 270 685.4 289.9 654.7 284.9C621.4 277.4 593.3 252.6 565.1 230.2C506.2 187.9 457.6 143.1 411.6 90.9003C278.5 100.8 137.8 41.2003 17.5 135.7C16.3 136.6 15.2 137.6 14 138.5V160.3C31 149.7 49.1 140.7 71.2 140.7C50.7 150.6 43.1 170.5 30.3 185.5C89.1 168 155.7 158 201.7 120.7C209.4 115.7 176.1 108.3 158.2 103.3C240.1 93.4003 322 88.4003 403.8 95.8003C411.5 135.6 447.3 163 465.2 197.8C465.2 182.9 462.6 168 449.8 155.5C462.6 155.5 467.7 167.9 475.4 175.4C511.2 207.7 547 240.1 582.9 269.9C554.8 257.5 529.2 245 501 235.1C554.7 274.9 618.7 302.3 680.1 309.7C695.5 312.2 715.9 272.4 746.6 272.4C741.5 274.9 736.4 277.4 733.8 282.3C770.6 293.1 804.6 309.3 836.3 329.2C846.3 324.2 856.3 319.2 866.3 314.3C828.3 293.7 790.1 274.1 751.9 270Z" fill="#FD9BBB"/>
<path d="M1933.1 485.8V467.8C1842.5 470.3 1752.2 478.1 1661.7 485.8H1933.1Z" fill="#FAFAFA"/>
<path d="M342.4 424.2C232.1 412 124.2 385.5 14 398.5V485.7H933C770.5 471.1 607.6 449.8 442.2 429.1C409 426.7 375.7 426.7 342.4 424.2Z" fill="#FAFAFA"/>
<path d="M723.698 459C714.398 459.4 705.098 460 695.898 460.6C775.198 470 854.198 478.7 932.998 485.7H1661.7C1752.2 478 1842.5 470.2 1933.1 467.7V389C1816.1 392.6 1699 400.7 1580.9 411.8C1294.3 436.6 1010.3 446.6 723.698 459Z" fill="#FAFAFA"/>
<path d="M1596.3 402.3L1588.1 399.4V398.1L1595.7 399.4L1594.8 395.5L1589.1 393.7L1590.2 393.2L1594.5 394L1591.1 379.1L1585.9 378.6L1590.9 378.1L1588.5 367.4L1584 364.1V361.6L1587.6 363.3L1580.9 333.7L1574.2 363.1L1578.2 361.6L1573.9 364.5L1571.2 376.5L1574.8 375.2L1573.8 378.9L1570.2 380.6L1569.9 381.7L1576 379.5V380.2L1569.7 382.6L1567.7 391.3L1574.2 389.8V390.9L1567.1 394.1L1566.5 396.9L1572.9 394.8L1566.1 398.5L1565.2 402.6L1578.8 398.6L1577.7 399.5L1565 403.8L1564.3 406.8H1597.6L1596.3 402.3Z" fill="#1A2747"/>
<path opacity="0.28" d="M1588.1 399.4V398.1L1595.7 399.4L1594.8 395.5L1589.1 393.7L1590.2 393.2L1594.5 394L1591.1 379.1L1585.9 378.6L1590.8 378.1L1588.4 367.4L1584.7 364.7C1579.7 376.6 1575.6 389 1570.9 400.9L1578.7 398.6L1577.6 399.5L1570.6 401.8C1570.1 402.9 1569.7 404.1 1569.3 405.2C1569.1 405.7 1568.9 406.2 1568.7 406.7H1597.6L1596.6 402L1588.1 399.4Z" fill="#1A2747"/>
<path d="M1587.3 392.7L1586.9 391.8L1581.3 394.5V377.9L1584.3 374.7L1583.6 374.1L1581.3 376.5V367.4H1580.3V385.9L1575.8 381.6L1575.1 382.3L1580.3 387.3V410.2H1581.3V395.5L1587.3 392.7Z" fill="#1A2747"/>
<path d="M1755.9 398.9L1747.7 396V394.7L1755.3 396L1754.4 392.1L1748.7 390.3L1749.8 389.8L1754.1 390.6L1750.7 375.7L1745.5 375.2L1750.4 374.7L1748 364L1743.5 360.7V358.2L1747.1 359.9L1740.3 330.3L1733.6 359.7L1737.6 358.2L1733.3 361.1L1730.6 373.1L1734.2 371.8L1733.3 375.5L1729.7 377.2L1729.4 378.3L1735.5 376.1V376.8L1729.1 379.2L1727.1 387.9L1733.6 386.4V387.4L1726.5 390.6L1725.9 393.4L1732.4 391.3L1725.6 395L1724.7 399.1L1738.3 395.1L1737.2 396L1724.4 400.3L1723.7 403.3H1757L1755.9 398.9Z" fill="#1A2747"/>
<path opacity="0.28" d="M1747.7 396.1V394.8L1755.3 396.1L1754.4 392.2L1748.7 390.4L1749.8 389.9L1754.1 390.7L1750.7 375.8L1745.5 375.3L1750.4 374.8L1748 364.1L1744.3 361.4C1739.3 373.3 1735.2 385.7 1730.5 397.6L1738.3 395.3L1737.2 396.2L1730.2 398.5C1729.7 399.6 1729.3 400.8 1728.8 401.9C1728.6 402.4 1728.4 402.9 1728.2 403.4H1757.1L1756 398.7L1747.7 396.1Z" fill="#1A2747"/>
<path d="M1746.8 389.3L1746.4 388.5L1740.8 391.2V374.6L1743.8 371.4L1743.1 370.8L1740.8 373.2V364.1H1739.8V382.6L1735.4 378.3L1734.7 379L1739.8 384V407H1740.8V392.3L1746.8 389.3Z" fill="#1A2747"/>
<path d="M1916 395L1907.8 392.1V390.8L1915.4 392.1L1914.5 388.2L1908.8 386.4L1909.9 385.8L1914.2 386.6L1910.8 371.7L1905.6 371.2L1910.5 370.7L1908.1 360L1903.6 356.7V354.2L1907.2 355.9L1900.5 326.3L1893.8 355.7L1897.8 354.2L1893.5 357.1L1890.8 369.1L1894.4 367.8L1893.5 371.5L1889.9 373.2L1889.6 374.3L1895.7 372.1V372.8L1889.4 375.2L1887.4 383.9L1893.9 382.4V383.4L1886.8 386.6L1886.2 389.4L1892.6 387.3L1885.8 391L1884.8 395.1L1898.4 391.1L1897.3 392L1884.6 396.3L1883.9 399.3H1917.2L1916 395Z" fill="#1A2747"/>
<path opacity="0.28" d="M1907.7 392.2V390.9L1915.3 392.2L1914.4 388.3L1908.7 386.5L1909.8 386L1914.1 386.8L1910.7 371.9L1905.5 371.4L1910.4 370.9L1908 360.2L1904.3 357.5C1899.3 369.4 1895.2 381.8 1890.5 393.7L1898.3 391.4L1897.2 392.3L1890.2 394.6C1889.7 395.7 1889.3 396.9 1888.9 398C1888.7 398.5 1888.5 399 1888.3 399.5H1917.2L1916.1 394.8L1907.7 392.2Z" fill="#1A2747"/>
<path d="M1906.9 385.4L1906.5 384.5L1900.9 387.2V370.6L1903.9 367.4L1903.2 366.8L1900.9 369.2V360.1H1899.9V378.6L1895.4 374.3L1894.7 375L1899.9 380V403H1900.9V388.3L1906.9 385.4Z" fill="#1A2747"/>
<path d="M1813 423.6L1804.8 420.7V419.4L1812.4 420.7L1811.5 416.8L1805.8 415L1806.9 414.5L1811.2 415.3L1807.8 400.4L1802.6 399.9L1807.5 399.4L1805.1 388.7L1800.6 385.4V383L1804.2 384.7L1797.5 355.1L1790.8 384.5L1794.9 383L1790.6 385.9L1787.9 397.9L1791.5 396.6L1790.5 400.3L1786.9 402L1786.7 403.1L1792.8 400.9V401.6L1786.5 404L1784.5 412.7L1791 411.2V412.2L1783.9 415.4L1783.3 418.2L1789.7 416.1L1782.9 419.8L1782 423.9L1795.6 419.9L1794.5 420.8L1781.8 425.1L1781.1 428.1H1814.4L1813 423.6Z" fill="#1A2747"/>
<path opacity="0.28" d="M1804.8 420.7V419.4L1812.4 420.7L1811.5 416.8L1805.8 415L1806.9 414.5L1811.2 415.3L1807.8 400.4L1802.6 399.9L1807.5 399.4L1805.1 388.7L1801.4 386C1796.4 397.9 1792.3 410.3 1787.6 422.2L1795.4 419.9L1794.3 420.8L1787.3 423.1C1786.8 424.2 1786.4 425.4 1785.9 426.5C1785.7 427 1785.5 427.5 1785.3 428H1814.2L1813.2 423.3L1804.8 420.7Z" fill="#1A2747"/>
<path d="M1803.9 413.9L1803.5 413.1L1797.9 415.8V399.2L1800.9 396L1800.2 395.3L1797.9 397.7V388.6H1796.9V407.1L1792.4 402.8L1791.7 403.5L1796.9 408.5V431.5H1797.9V416.8L1803.9 413.9Z" fill="#1A2747"/>
<path d="M337.102 437.2L328.902 434.3V433L336.502 434.3L335.602 430.4L329.902 428.6L331.002 428.1L335.302 428.9L331.902 414L326.702 413.5L331.602 413L329.202 402.3L324.702 399V396.5L328.302 398.2L321.502 368.6L314.802 398L318.802 396.5L314.502 399.4L311.802 411.4L315.402 410.1L314.502 413.8L310.902 415.5L310.602 416.6L316.702 414.4V415.1L310.402 417.5L308.402 426.2L314.902 424.7V425.8L307.802 429L307.202 431.8L313.702 429.7L306.902 433.4L306.002 437.5L319.602 433.5L318.502 434.4L305.802 438.7L305.102 441.7H338.302L337.102 437.2Z" fill="#1A2747"/>
<path opacity="0.28" d="M328.898 434.3V433L336.498 434.3L335.598 430.4L329.898 428.6L330.998 428.1L335.298 428.9L331.898 414L326.698 413.5L331.598 413L329.198 402.3L325.498 399.6C320.498 411.5 316.398 423.9 311.698 435.8L319.498 433.5L318.398 434.4L311.398 436.7C310.898 437.8 310.498 439 309.998 440.1C309.798 440.6 309.598 441.1 309.398 441.6H338.298L337.298 436.9L328.898 434.3Z" fill="#1A2747"/>
<path d="M327.999 427.6L327.499 426.7L321.899 429.4V412.8L324.899 409.6L324.199 409L321.899 411.4V402.3H320.899V420.8L316.399 416.5L315.699 417.2L320.799 422.2V445.1H321.799V430.4L327.999 427.6Z" fill="#1A2747"/>
<path d="M61.7992 419.3L53.5992 416.4V415.1L61.1992 416.4L60.2992 412.5L54.5992 410.7L55.5992 410.2L59.8992 411L56.4992 396.1L51.2992 395.6L56.2992 395.1L53.8992 384.4L49.3992 381.1V378.6L52.9992 380.3L46.2992 350.7L39.5992 380.1L43.5992 378.6L39.2992 381.5L36.5992 393.5L40.1992 392.2L39.2992 395.9L35.6992 397.6L35.3992 398.7L41.4992 396.5V397.2L35.1992 399.6L33.1992 408.3L39.6992 406.8V407.8L32.5992 411L31.9992 413.8L38.3992 411.7L31.5992 415.4L30.6992 419.5L44.2992 415.5L43.1992 416.4L30.3992 420.7L29.6992 423.7H62.9992L61.7992 419.3Z" fill="#1A2747"/>
<path opacity="0.28" d="M53.6016 416.4V415.1L61.2016 416.4L60.3016 412.5L54.6016 410.7L55.7016 410.2L60.0016 411L56.6016 396.1L51.4016 395.6L56.3016 395.1L53.9016 384.4L50.2016 381.7C45.2016 393.6 41.1016 406 36.4016 417.9L44.2016 415.6L43.1016 416.5L36.1016 418.8C35.6016 419.9 35.2016 421.1 34.7016 422.2C34.5016 422.7 34.3016 423.2 34.1016 423.7H63.0016L62.0016 419L53.6016 416.4Z" fill="#1A2747"/>
<path d="M52.8016 409.7L52.4016 408.9L46.8016 411.6V395L49.8016 391.8L49.1016 391.2L46.8016 393.6V384.5H45.8016V403L41.3016 398.7L40.6016 399.4L45.7016 404.4V427.4H46.7016V412.7L52.8016 409.7Z" fill="#1A2747"/>
<path d="M1475.4 415.2L1467.2 412.3V411L1474.8 412.3L1473.9 408.4L1468.2 406.6L1469.3 406.1L1473.6 406.9L1470.2 392L1465 391.5L1469.9 391L1467.5 380.3L1463 377V374.5L1466.6 376.2L1459.9 346.6L1453.2 376L1457.3 374.5L1453 377.4L1450.3 389.4L1453.9 388.1L1452.9 391.8L1449.3 393.5L1449 394.6L1455.1 392.4V393.1L1448.8 395.5L1446.8 404.2L1453.3 402.7V403.8L1446.2 407L1445.6 409.8L1452 407.7L1445.2 411.4L1444.2 415.5L1457.8 411.5L1456.7 412.4L1444 416.7L1443.3 419.7H1476.6L1475.4 415.2Z" fill="#1A2747"/>
<path opacity="0.28" d="M1467.1 412.4V411.1L1474.7 412.4L1473.8 408.5L1468.1 406.7L1469.2 406.2L1473.5 407L1470.1 392.1L1464.9 391.6L1469.8 391.1L1467.4 380.4L1463.7 377.7C1458.7 389.6 1454.6 402 1449.9 413.9L1457.7 411.6L1456.6 412.5L1449.6 414.8C1449.1 415.9 1448.7 417.1 1448.2 418.2C1448 418.7 1447.8 419.2 1447.6 419.7H1476.5L1475.5 415L1467.1 412.4Z" fill="#1A2747"/>
<path d="M1466.3 405.6L1465.9 404.7L1460.3 407.4V390.8L1463.3 387.6L1462.6 387L1460.3 389.4V380.3H1459.3V398.8L1454.8 394.5L1454.1 395.2L1459.3 400.2V423.1H1460.3V408.4L1466.3 405.6Z" fill="#1A2747"/>
<path d="M1324.6 437.2L1316.4 434.3V433L1324 434.3L1323.1 430.4L1317.4 428.6L1318.5 428.1L1322.8 428.9L1319.4 414L1314.2 413.5L1319.1 413L1316.7 402.3L1312.2 399V396.5L1315.8 398.2L1309.1 368.6L1302.4 398L1306.4 396.5L1302.1 399.4L1299.4 411.4L1303 410.1L1302.1 413.8L1298.5 415.5L1298.2 416.6L1304.3 414.4V415.1L1298 417.5L1296 426.2L1302.5 424.7V425.8L1295.4 429L1294.8 431.8L1301.3 429.7L1294.5 433.4L1293.6 437.5L1307.2 433.5L1306.1 434.4L1293.3 438.7L1292.6 441.7H1325.9L1324.6 437.2Z" fill="#1A2747"/>
<path opacity="0.28" d="M1316.3 434.3V433L1323.9 434.3L1323 430.4L1317.3 428.6L1318.4 428.1L1322.7 428.9L1319.3 414L1314.1 413.5L1319 413L1316.6 402.3L1312.9 399.6C1307.9 411.5 1303.8 423.9 1299.1 435.8L1306.9 433.5L1305.8 434.4L1298.8 436.7C1298.3 437.8 1297.9 439 1297.4 440.1C1297.2 440.6 1297 441.1 1296.8 441.6H1325.7L1324.6 436.9L1316.3 434.3Z" fill="#1A2747"/>
<path d="M1315.5 427.6L1315.1 426.7L1309.5 429.4V412.8L1312.5 409.6L1311.8 409L1309.5 411.4V402.3H1308.5V420.8L1304.1 416.5L1303.4 417.2L1308.5 422.2V445.1H1309.5V430.4L1315.5 427.6Z" fill="#1A2747"/>
<path d="M1231.7 460.7L1219 456.2V454.2L1230.7 456.2L1229.3 450.2L1220.5 447.4L1222.1 446.5L1228.7 447.7L1223.5 424.6L1215.5 423.8L1223.1 423.1L1219.4 406.6L1212.4 401.5V397.7L1218 400.4L1207.6 354.6L1197.2 400.1L1203.5 397.7L1196.8 402.1L1192.6 420.7L1198.2 418.7L1196.8 424.5L1191.2 427.1L1190.8 428.9L1200.3 425.6V426.7L1190.5 430.5L1187.5 443.9L1197.6 441.6V443.2L1186.6 448.1L1185.6 452.5L1195.6 449.2L1185.1 454.9L1183.6 461.2L1204.6 455L1202.9 456.4L1183.2 463L1182.2 467.7H1233.6L1231.7 460.7Z" fill="#1A2747"/>
<path opacity="0.28" d="M1219 456.3V454.3L1230.7 456.3L1229.3 450.3L1220.5 447.5L1222.2 446.6L1228.8 447.8L1223.6 424.7L1215.6 423.9L1223.2 423.2L1219.4 406.7L1213.7 402.6C1206 421.1 1199.6 440.2 1192.3 458.7L1204.3 455.2L1202.6 456.6L1191.7 460.2C1191 461.9 1190.3 463.7 1189.6 465.4C1189.3 466.2 1188.9 467 1188.6 467.8H1233.3L1231.7 460.6L1219 456.3Z" fill="#1A2747"/>
<path d="M1217.7 445.9L1217 444.6L1208.4 448.8V423.2L1213.1 418.3L1212 417.3L1208.5 421V407H1207V435.6L1200.1 428.9L1199 429.9L1207 437.6V473H1208.5V450.3L1217.7 445.9Z" fill="#1A2747"/>
<path d="M982.199 445L973.999 442.1V440.8L981.599 442.1L980.699 438.2L974.999 436.4L976.099 435.9L980.399 436.7L976.999 421.8L971.799 421.3L976.699 420.8L974.299 410.1L969.799 406.8V404.3L973.399 406L966.699 376.4L959.999 405.8L963.999 404.3L959.599 407.2L956.899 419.2L960.499 417.9L959.599 421.6L955.999 423.3L955.699 424.4L961.799 422.2V422.9L955.499 425.3L953.499 434L959.999 432.5V433.6L952.899 436.8L952.299 439.6L958.799 437.5L951.999 441.2L951.099 445.3L964.699 441.3L963.599 442.2L950.899 446.5L950.199 449.5H983.499L982.199 445Z" fill="#1A2747"/>
<path opacity="0.28" d="M973.898 442.1V440.8L981.498 442.1L980.598 438.2L974.898 436.4L975.998 435.9L980.298 436.7L976.898 421.8L971.698 421.3L976.598 420.8L974.198 410.1L970.498 407.4C965.498 419.3 961.398 431.7 956.698 443.6L964.498 441.3L963.398 442.2L956.398 444.5C955.898 445.6 955.498 446.8 954.998 447.9C954.798 448.4 954.598 448.9 954.398 449.4H983.298L982.198 444.7L973.898 442.1Z" fill="#1A2747"/>
<path d="M973.1 435.4L972.7 434.5L967.1 437.2V420.6L970.1 417.4L969.4 416.8L967.1 419.2V410.1H966.1V428.6L961.7 424.3L961 425L966.1 430V453H967.1V438.3L973.1 435.4Z" fill="#1A2747"/>
<path d="M711.5 461.9L703.3 459V457.7L710.9 459L710 455.1L704.3 453.3L705.4 452.7L709.7 453.5L706.3 438.6L701.1 438.1L706 437.6L703.6 426.9L699.1 423.6V421.1L702.7 422.8L695.9 393.2L689.2 422.6L693.2 421.1L688.9 424L686.2 436L689.8 434.7L688.9 438.4L685.3 440.1L685 441.2L691.1 439.1V439.8L684.8 442.2L682.8 450.9L689.3 449.4V450.4L682.2 453.6L681.6 456.4L688.1 454.3L681.3 458L680.4 462.1L694 458.1L692.9 459L680.2 463.3L679.5 466.3H712.8L711.5 461.9Z" fill="#1A2747"/>
<path opacity="0.28" d="M703.199 459V457.7L710.799 459L709.899 455.1L704.199 453.3L705.299 452.8L709.599 453.6L706.199 438.7L700.999 438.2L705.899 437.7L703.499 427L699.799 424.3C694.799 436.2 690.699 448.6 685.999 460.5L693.799 458.2L692.699 459.1L685.699 461.4C685.199 462.5 684.799 463.7 684.299 464.8C684.099 465.3 683.899 465.8 683.699 466.3H712.599L711.599 461.6L703.199 459Z" fill="#1A2747"/>
<path d="M702.399 452.2L701.999 451.4L696.399 454.1V437.5L699.399 434.3L698.699 433.7L696.399 436.1V427H695.399V445.5L690.899 441.2L690.199 441.9L695.299 446.9V469.9H696.299V455.2L702.399 452.2Z" fill="#1A2747"/>
<path d="M585.4 458.8L577.2 455.9V454.6L584.8 455.9L583.9 452L578.2 450.2L579.3 449.7L583.6 450.5L580.2 435.6L575 435.1L579.9 434.6L577.5 423.9L573 420.6V418.1L576.6 419.8L569.9 390.2L563.2 419.6L567.2 418.1L562.9 421L560.2 433L563.8 431.7L562.9 435.4L559.3 437.1L559 438.2L565.1 436V436.7L558.8 439.1L556.8 447.8L563.3 446.3V447.3L556.2 450.5L555.6 453.3L562.1 451.2L555.3 454.9L554.4 459L568 455L566.9 455.9L554.2 460.2L553.5 463.2H586.8L585.4 458.8Z" fill="#1A2747"/>
<path opacity="0.28" d="M577.199 456V454.7L584.799 456L583.899 452.1L578.199 450.3L579.299 449.8L583.599 450.6L580.199 435.7L574.999 435.2L579.899 434.7L577.499 424L573.799 421.3C568.799 433.2 564.699 445.6 559.999 457.5L567.799 455.2L566.699 456.1L559.699 458.4C559.199 459.5 558.799 460.7 558.299 461.8C558.099 462.3 557.899 462.8 557.699 463.3H586.599L585.599 458.6L577.199 456Z" fill="#1A2747"/>
<path d="M576.302 449.2L575.902 448.4L570.302 451.1V434.5L573.302 431.3L572.602 430.7L570.302 433.1V424H569.302V442.5L564.802 438.2L564.102 438.9L569.202 443.9V466.9H570.202V452.2L576.302 449.2Z" fill="#1A2747"/>
<path d="M183.5 409.7L175.3 406.8V405.5L182.9 406.8L182 403L176.3 401.2L177.4 400.7L181.7 401.5L178.3 386.6L173.1 386.1L178 385.6L175.6 374.9L171.1 371.6V369.1L174.7 370.8L168 341.2L161.3 370.6L165.3 369.1L160.9 372L158.2 384L161.8 382.7L160.9 386.4L157.3 388.1L157 389.2L163.1 387V387.7L156.7 390.1L154.8 398.8L161.3 397.3V398.4L154.2 401.6L153.6 404.4L160.1 402.3L153.3 406L152.4 410.1L166 406.1L164.9 407L152.2 411.3L151.5 414.3H184.8L183.5 409.7Z" fill="#1A2747"/>
<path opacity="0.28" d="M175.301 406.9V405.6L182.901 406.9L182.001 403L176.301 401.2L177.401 400.7L181.701 401.5L178.301 386.6L173.101 386.1L178.001 385.6L175.601 374.9L171.901 372.2C166.901 384.1 162.801 396.5 158.101 408.4L165.901 406.1L164.801 407L157.801 409.3C157.301 410.4 156.901 411.6 156.401 412.7C156.201 413.2 156.001 413.7 155.801 414.2H184.701L183.701 409.5L175.301 406.9Z" fill="#1A2747"/>
<path d="M174.399 400.1L173.999 399.2L168.399 401.9V385.3L171.399 382.1L170.699 381.5L168.399 383.9V374.8H167.399V393.3L162.899 389L162.199 389.7L167.299 394.7V417.6H168.299V403L174.399 400.1Z" fill="#1A2747"/>
<path d="M408.4 445L400.2 442.1V440.8L407.8 442.1L406.9 438.2L401.2 436.4L402.3 435.9L406.6 436.7L403.2 421.8L398 421.3L402.9 420.8L400.5 410.1L396 406.8V404.3L399.6 406L392.9 376.4L386.2 405.8L390.3 404.3L386 407.2L383.3 419.2L386.9 417.9L386 421.6L382.4 423.3L382.1 424.4L388.2 422.2V422.9L381.9 425.3L379.9 434L386.4 432.5V433.6L379.3 436.8L378.7 439.6L385.1 437.5L378.3 441.2L377.4 445.3L391 441.3L389.9 442.2L377.2 446.5L376.5 449.5H409.8L408.4 445Z" fill="#1A2747"/>
<path opacity="0.28" d="M400.102 442.1V440.8L407.702 442.1L406.802 438.2L401.102 436.4L402.202 435.9L406.502 436.7L403.102 421.8L397.902 421.3L402.802 420.8L400.402 410.1L396.702 407.4C391.702 419.3 387.602 431.7 382.902 443.6L390.702 441.3L389.602 442.2L382.602 444.5C382.102 445.6 381.702 446.8 381.202 447.9C381.002 448.4 380.802 448.9 380.602 449.4H409.502L408.502 444.7L400.102 442.1Z" fill="#1A2747"/>
<path d="M399.302 435.4L398.902 434.5L393.302 437.2V420.6L396.302 417.4L395.602 416.8L393.302 419.2V410.1H392.302V428.6L387.802 424.3L387.102 425L392.202 430V453H393.202V438.3L399.302 435.4Z" fill="#1A2747"/>
<path d="M117.2 450.9L101.2 445.3V442.8L116 445.3L114.3 437.7L103.2 434.2L105.3 433.1L113.7 434.7L107.1 405.6L97 404.6L106.6 403.7L101.9 382.9L93.1 376.5V371.7L100.1 375.1L86.9 317.2L73.8 374.7L81.7 371.7L73.2 377.3L67.9 400.8L75 398.2L73.2 405.5L66.2 408.8L65.7 411L77.6 406.8V408.2L65.2 413L61.4 429.9L74.1 427V429.1L60.2 435.3L58.9 440.8L71.5 436.7L58.2 444L56.4 452L82.9 444.2L80.7 446L55.8 454.3L54.5 460.2H119.4L117.2 450.9Z" fill="#1A2747"/>
<path opacity="0.28" d="M101.2 445.3V442.8L116 445.3L114.3 437.7L103.2 434.2L105.3 433.1L113.7 434.7L107.1 405.6L97 404.6L106.6 403.7L101.9 382.9L94.8 377.7C85.1 401 77 425.1 67.8 448.4L82.9 444L80.7 445.8L67 450.4C66.1 452.6 65.2 454.8 64.3 457C63.9 458 63.5 459 63 460H119.4L117.4 450.9L101.2 445.3Z" fill="#1A2747"/>
<path d="M99.5008 432.1L98.7008 430.4L87.8008 435.6V403.3L93.7008 397.1L92.3008 395.8L87.8008 400.5V382.8H85.9008V419L77.2008 410.6L75.8008 411.9L85.9008 421.6V466.4H87.8008V437.8L99.5008 432.1Z" fill="#1A2747"/>
<path d="M297.3 448.8L265 437.6V432.6L294.7 437.7L291.2 422.3L268.8 415.3L273 413.1L289.9 416.3L276.6 357.8L256.3 355.8L275.7 353.9L266.2 312L248.5 299.1V289.3L262.6 296.1L236.2 180L210 295.5L225.8 289.5L208.8 300.8L198 347.9L212.2 342.8L208.5 357.4L194.4 364L193.4 368.5L217.4 360V362.8L192.5 372.4L184.8 406.4L210.3 400.5V404.7L182.3 417.2L179.8 428.3L205.2 420L178.4 434.6L174.7 450.7L228 435L223.6 438.6L173.6 455.2L171 467H301.5L297.3 448.8Z" fill="#1A2747"/>
<path opacity="0.28" d="M265.1 437.6V432.6L294.8 437.7L291.3 422.3L268.9 415.3L273.1 413.1L289.9 416.2L276.6 357.7L256.3 355.7L275.7 353.8L266.2 311.9L251.8 301.4C232.4 348.3 216.1 396.7 197.5 443.6L227.9 434.7L223.5 438.3L195.9 447.5C194.2 451.9 192.4 456.3 190.5 460.7C189.7 462.7 188.8 464.7 188 466.7H301.3L297.2 448.5L265.1 437.6Z" fill="#1A2747"/>
<path d="M261.702 411.1L260.002 407.7L238.102 418.2V353.3L249.902 340.8L247.102 338.3L238.202 347.7V312.1H234.302V384.7L216.802 367.8L214.102 370.4L234.302 390V480H238.202V422.4L261.702 411.1Z" fill="#1A2747"/>
<path d="M521.302 467.5L505.302 461.9V459.4L520.102 462L518.402 454.4L507.302 450.9L509.402 449.8L517.802 451.4L511.202 422.3L501.102 421.3L510.702 420.4L506.002 399.6L497.202 393.2V388.4L504.202 391.8L491.002 333.9L478.002 391.4L485.902 388.4L477.402 394L472.102 417.5L479.202 414.9L477.402 422.2L470.302 425.5L469.802 427.7L481.702 423.5V424.9L469.302 429.7L465.502 446.6L478.202 443.7V445.8L464.302 452L463.002 457.5L475.602 453.4L462.302 460.7L460.502 468.7L487.002 460.9L484.802 462.7L459.902 471L458.602 476.9H523.502L521.302 467.5Z" fill="#1A2747"/>
<path opacity="0.28" d="M505.302 461.9V459.4L520.102 461.9L518.402 454.3L507.302 450.8L509.402 449.7L517.802 451.3L511.202 422.2L501.102 421.2L510.702 420.3L506.002 399.5L498.902 394.3C489.202 417.6 481.102 441.7 471.902 465L487.002 460.6L484.802 462.4L471.102 467C470.202 469.2 469.302 471.4 468.402 473.6C468.002 474.6 467.602 475.6 467.102 476.6H523.502L521.502 467.5L505.302 461.9Z" fill="#1A2747"/>
<path d="M503.598 448.7L502.798 447L491.898 452.2V420L497.798 413.8L496.398 412.5L491.898 417.2V399.5H489.998V435.6L481.298 427.2L479.898 428.5L489.998 438.2V483H491.898V454.4L503.598 448.7Z" fill="#1A2747"/>
<path d="M821.899 466.1L805.899 460.5V458L820.699 460.5L818.999 452.9L807.899 449.4L809.999 448.3L818.399 449.9L811.799 420.8L801.699 419.8L811.299 418.9L806.599 398.1L797.799 391.7V386.9L804.799 390.3L791.599 332.5L778.599 390L786.499 387L777.999 392.6L772.699 416.1L779.799 413.5L777.999 420.8L770.899 424.1L770.399 426.3L782.299 422.1V423.5L769.899 428.3L766.099 445.2L778.799 442.3V444.3L764.899 450.5L763.599 456L776.199 451.8L762.899 459.1L761.099 467.1L787.599 459.3L785.399 461.1L760.499 469.4L759.199 475.3H823.999L821.899 466.1Z" fill="#1A2747"/>
<path opacity="0.28" d="M805.802 460.5V458L820.602 460.5L818.902 452.9L807.802 449.4L809.902 448.3L818.302 449.9L811.702 420.8L801.602 419.8L811.202 418.9L806.502 398.1L799.402 392.9C789.702 416.2 781.602 440.3 772.402 463.6L787.502 459.2L785.302 461L771.602 465.6C770.702 467.8 769.802 470 768.902 472.2C768.502 473.2 768.102 474.2 767.602 475.2H824.002L822.002 466.1L805.802 460.5Z" fill="#1A2747"/>
<path d="M804.2 447.3L803.4 445.6L792.5 450.8V418.5L798.4 412.3L797 411L792.5 415.7V398H790.6V434.1L781.9 425.7L780.5 427L790.6 436.7V481.5H792.5V452.9L804.2 447.3Z" fill="#1A2747"/>
<path d="M1409.6 466.1L1393.5 460.5V458L1408.3 460.5L1406.6 452.9L1395.5 449.4L1397.6 448.3L1406 449.9L1399.4 420.8L1389.3 419.8L1399 418.9L1394.3 398.1L1385.5 391.7V386.9L1392.5 390.3L1379.4 332.5L1366.3 390L1374.2 387L1365.7 392.6L1360.4 416.1L1367.4 413.5L1365.6 420.8L1358.5 424.1L1358 426.3L1370 422.1V423.5L1357.6 428.3L1353.8 445.2L1366.5 442.3V444.3L1352.6 450.5L1351.4 456L1364 451.8L1350.7 459.1L1348.9 467.1L1375.4 459.3L1373.2 461.1L1348.3 469.4L1347 475.3H1411.9L1409.6 466.1Z" fill="#1A2747"/>
<path opacity="0.28" d="M1393.5 460.5V458L1408.3 460.5L1406.6 452.9L1395.5 449.4L1397.6 448.3L1406 449.9L1399.4 420.8L1389.3 419.8L1398.9 418.9L1394 398L1386.9 392.8C1377.2 416.1 1369.1 440.2 1359.9 463.5L1375 459.1L1372.8 460.9L1359.1 465.5C1358.2 467.7 1357.3 469.9 1356.4 472.1C1356 473.1 1355.6 474.1 1355.2 475.1H1411.6L1409.6 466L1393.5 460.5Z" fill="#1A2747"/>
<path d="M1391.8 447.3L1390.9 445.6L1380 450.8V418.5L1385.9 412.3L1384.5 411L1380 415.7V398H1378.1V434.1L1369.4 425.7L1368 427L1378.1 436.7V481.5H1380V452.9L1391.8 447.3Z" fill="#1A2747"/>
<path d="M1660.9 470.2L1644.9 464.6V462.1L1659.7 464.6L1658 457L1646.9 453.5L1649 452.4L1657.4 454L1650.8 424.9L1640.7 423.9L1650.4 423L1645.7 402.2L1636.9 395.8V391L1643.9 394.4L1630.8 336.6L1617.7 394.1L1625.6 391.1L1617.1 396.7L1611.8 420.2L1618.9 417.6L1617.1 424.9L1610.1 428.2L1609.6 430.4L1621.5 426.2V427.6L1609.1 432.4L1605.2 449.3L1617.9 446.4V448.4L1604 454.6L1602.8 460.1L1615.4 455.9L1602.1 463.2L1600.3 471.2L1626.8 463.4L1624.7 465.2L1599.8 473.5L1598.4 479.4H1663.3L1660.9 470.2Z" fill="#1A2747"/>
<path opacity="0.28" d="M1644.9 464.6V462.1L1659.7 464.6L1658 457L1646.9 453.5L1649 452.4L1657.4 454L1650.8 424.9L1640.7 423.9L1650.3 423L1645.6 402.2L1638.5 397C1628.8 420.3 1620.7 444.4 1611.5 467.7L1626.6 463.3L1624.4 465.1L1610.7 469.7C1609.8 471.9 1608.9 474.1 1608 476.3C1607.6 477.3 1607.2 478.3 1606.8 479.3H1663.2L1661.1 470.2L1644.9 464.6Z" fill="#1A2747"/>
<path d="M1643.2 451.5L1642.4 449.8L1631.5 455V422.7L1637.4 416.5L1636 415.2L1631.5 419.9V402.2H1629.6V438.3L1620.9 429.9L1619.6 431.2L1629.6 440.9V485.7H1631.5V457.1L1643.2 451.5Z" fill="#1A2747"/>
<path d="M1880.5 466.1L1864.4 460.5V458L1879.2 460.5L1877.5 452.9L1866.4 449.4L1868.5 448.3L1876.9 449.9L1870.3 420.8L1860.2 419.8L1869.9 418.9L1865.2 398.1L1856.4 391.7V386.9L1863.4 390.3L1850.3 332.5L1837.2 390L1845.1 387L1836.6 392.6L1831.3 416.1L1838.3 413.5L1836.5 420.8L1829.4 424.1L1828.9 426.3L1840.8 422.1V423.5L1828.4 428.3L1824.6 445.2L1837.3 442.3V444.3L1823.4 450.5L1822.1 456L1834.7 451.8L1821.4 459.1L1819.6 467.1L1846.1 459.3L1843.9 461.1L1819 469.4L1817.7 475.3H1882.6L1880.5 466.1Z" fill="#1A2747"/>
<path opacity="0.28" d="M1864.4 460.5V458L1879.2 460.5L1877.5 452.9L1866.4 449.4L1868.5 448.3L1876.9 449.9L1870.3 420.8L1860.2 419.8L1869.9 418.9L1865 398L1857.9 392.8C1848.2 416.1 1840.1 440.2 1830.9 463.5L1846 459.1L1843.8 460.9L1830.1 465.5C1829.2 467.7 1828.3 469.9 1827.4 472.1C1827 473.1 1826.5 474.1 1826.1 475.1H1882.5L1880.5 466L1864.4 460.5Z" fill="#1A2747"/>
<path d="M1862.8 447.3L1861.9 445.6L1851 450.8V418.5L1856.9 412.3L1855.5 411L1851 415.7V398H1849.1V434.1L1840.4 425.7L1839 427L1849.1 436.7V481.5H1851V452.9L1862.8 447.3Z" fill="#1A2747"/>
<path d="M633.5 130C633.9 128.4 634.1 126.7 633.9 125.2C633.5 121.9 631.3 118.9 628.3 117.5C625.3 116.1 619 113.9 616.3 115.8C614.1 100 599.5 86.8003 583.5 86.0003C567.5 85.2003 550.7 96.1003 546.9 111.6C540.6 103.9 529.5 100.4 519.9 103C510.2 105.6 502.4 115.4 500.8 125.2C495.6 120.7 486.2 122.6 483.3 128.9C483.2 129.2 483.1 129.6 483 130H633.5Z" fill="white"/>
<path d="M940.6 114C941 112.5 941.1 111 941 109.6C940.7 106.6 938.7 103.9 935.9 102.6C933.1 101.4 927.5 99.3001 925 101C923 86.6001 909.8 74.7001 895.2 74.0001C880.6 73.3001 865.4 83.1001 862 97.2001C856.2 90.2001 846.2 87.1001 837.5 89.4001C828.7 91.7001 821.7 100.7 820.2 109.6C815.5 105.5 807 107.3 804.3 112.9C804.2 113.2 804.1 113.5 804 113.9H940.6V114Z" fill="white"/>
<path d="M17.5 488L14 549.4C155.1 554.5 292.9 564 428.9 575.2C735.5 601 1062.6 609.6 1394.8 594.7C1586.4 585.9 1749.8 567 1930.5 555.2L1934 488H17.5Z" fill="#45A7CE"/>
<path d="M1924.6 523.2L1850.9 497V485.3L1918.8 497.2L1910.8 461.4L1859.7 445.1L1869.3 440L1907.7 447.4L1877.3 310.9L1831 306.3L1875.3 301.9L1853.6 204.2L1813.2 174V151.5L1845.4 167.3L1785 -104L1725 165.5L1761.2 151.5L1722.2 177.7L1697.7 287.7L1730.1 275.6L1721.7 309.7L1689.3 325.3L1687 335.7L1742 316V322.6L1685.1 344.9L1667.5 424.2L1725.8 410.5V420.1L1661.9 449.2L1656.1 475L1714 455.6L1652.8 489.7L1644.5 527.1L1766.2 490.7L1756.2 499.1L1642 538.1L1635.9 565.6H1933.9L1924.6 523.2Z" fill="#1A2747"/>
<path opacity="0.28" d="M1850.9 497V485.3L1918.8 497.2L1910.8 461.4L1859.7 445.1L1869.3 440L1907.7 447.4L1877.3 310.9L1831 306.3L1875.3 301.9L1853.6 204.2L1820.8 179.7C1776.4 289.1 1739.3 402 1696.9 511.5L1766.3 490.7L1756.4 499.1L1693.3 520.6C1689.3 530.9 1685.2 541.3 1681.1 551.5C1679.2 556.2 1677.2 560.9 1675.3 565.6H1934L1924.6 523.1L1850.9 497Z" fill="#1A2747"/>
<path d="M1843.3 435.2L1839.4 427.3L1789.5 451.9V300.3L1816.5 271.3L1810 265.4L1789.5 287.4V204.5H1780.7V373.6L1740.8 334.2L1734.6 340.4L1780.7 386V596H1789.5V461.7L1843.3 435.2Z" fill="#1A2747"/>
<path d="M262.4 573.7L164 538.7V523L254.7 538.9L244 491.2L175.7 469.4L188.5 462.6L239.8 472.5L199.2 290.2L137.3 284.1L196.5 278.3L167.5 147.9L113.5 107.6V77.2L156.5 98.3L76 -264L-4.10001 95.9L44.3 77.2L-7.7 112.2L-40.4 259.2L2.8 243.1L-8.4 288.7L-51.6 309.5L-54.7 323.4L18.5 297V305.8L-57.5 335.6L-80.9 441.4L-3 423.2V436L-88.4 475L-96.1 509.5L-18.8 483.6L-100.4 529L-111.5 579L51 530.4L37.7 541.6L-114.8 593.6L-123 630.4H275L262.4 573.7Z" fill="#1A2747"/>
<path opacity="0.28" d="M164 538.6V523L254.7 538.9L244 491.2L175.7 469.4L188.5 462.6L239.8 472.4L199.2 290.1L137.4 284L196.6 278.2L167.6 147.8L123.8 115C64.5 261.1 15 411.9 -41.7 558.1L51 530.4L37.7 541.6L-46.5 570.3C-51.9 584.1 -57.3 597.9 -62.8 611.6C-65.4 617.9 -68 624.1 -70.5 630.4H275L262.4 573.7L164 538.6Z" fill="#1A2747"/>
<path d="M153.8 456.1L148.6 445.6L81.9 478.5V276L118 237.2L109.3 229.3L81.9 258.7V148H70.1V373.9L16.8 321.3L8.5 329.6L70.1 390.5V670.9H81.9V491.6L153.8 456.1Z" fill="#1A2747"/>
<path d="M563.8 550.7C559.6 546.5 555.3 542.4 550.9 538.3C544.9 537.3 538.9 536.5 532.9 535.7C520.4 534.1 507.8 532.9 495.1 532C482.6 537.6 471.3 544.9 461.6 553.3C459.9 551.7 458.2 550.1 456.5 548.5C449.3 547.4 442.1 546.3 434.9 545.4C419.9 543.5 404.7 542 389.6 540.9C348.4 559.4 317.9 592.8 309 630.5C312.6 630.4 315.9 630.3 318.8 630.3C327.2 630.3 333.6 630.7 338.9 631.4C346.4 632.3 351.9 633.7 358.4 634.8C358.4 634.8 358.4 634.7 358.5 634.7C358.5 634.7 358.5 634.8 358.4 634.8C365.3 635.9 373.2 636.7 385.8 636.3C388.7 636.2 391.6 636.1 394.6 636.1C425.7 635.3 462 634.8 491.8 631.6C492.5 631.5 493.3 631.4 494 631.3C503.7 629.9 514.8 625.9 515.9 625.5V625.4V625.5C516 625.5 516 625.4 516 625.4C517 624 517.7 622.5 518.3 620.9C516.3 617.5 514.1 614.1 511.9 610.8C534.7 610.3 559.4 609.6 580.2 607.4C580.8 607.3 581.4 607.2 582 607.2C590.1 606 599.3 602.7 600.2 602.4V602.3V602.4C600.3 602.4 600.3 602.4 600.3 602.4C601.1 601.2 601.7 600 602.2 598.7C592 581.6 578.8 565.7 563.8 550.7Z" fill="#1A2747"/>
<path d="M1619.4 565.8C1616.5 562.9 1613.5 560 1610.4 557.2C1606.3 556.5 1602.1 555.9 1598 555.4C1589.3 554.3 1580.6 553.5 1571.9 552.8C1563.3 556.7 1555.4 561.7 1548.7 567.6C1547.5 566.5 1546.3 565.4 1545.1 564.3C1540.1 563.5 1535.2 562.8 1530.2 562.2C1519.8 560.9 1509.3 559.9 1498.8 559.1C1470.2 571.9 1449.2 595.1 1443 621.1C1445.5 621 1447.8 621 1449.8 621C1455.6 621 1460 621.3 1463.7 621.8C1468.9 622.5 1472.7 623.4 1477.2 624.1C1477.2 624.1 1477.2 624.1 1477.2 624C1477.2 624 1477.2 624 1477.2 624.1C1481.9 624.9 1487.5 625.4 1496.2 625.2C1498.2 625.1 1500.2 625.1 1502.3 625C1523.8 624.5 1549 624.1 1569.6 621.9C1570.1 621.8 1570.6 621.8 1571.1 621.7C1577.8 620.7 1585.5 618 1586.3 617.7C1586.3 617.7 1586.3 617.7 1586.3 617.6C1586.3 617.6 1586.3 617.6 1586.3 617.7H1586.4C1587.1 616.7 1587.6 615.7 1588 614.6C1586.6 612.2 1585.1 609.9 1583.6 607.6C1599.4 607.2 1616.5 606.8 1630.9 605.2C1631.3 605.2 1631.7 605.1 1632.2 605C1637.8 604.2 1644.2 601.9 1644.8 601.7C1644.8 601.7 1644.8 601.7 1644.8 601.6C1644.8 601.6 1644.8 601.6 1644.8 601.7H1644.9C1645.5 600.9 1645.9 600 1646.2 599.1C1638.9 587.2 1629.7 576.2 1619.4 565.8Z" fill="#1A2747"/>
</g>
</g>
<path d="M866.098 510.7C867.598 509.2 869.098 507.8 870.698 506.4C872.798 506.1 874.898 505.8 876.998 505.5C881.398 504.9 885.798 504.5 890.298 504.2C902.398 509.6 911.298 519.4 913.898 530.5C912.798 530.5 911.898 530.5 910.998 530.5C908.498 530.5 906.698 530.6 905.098 530.8C902.898 531.1 901.298 531.5 899.398 531.8C897.398 532.1 895.098 532.4 891.398 532.3C890.598 532.3 889.698 532.3 888.798 532.2C879.698 532 869.098 531.8 860.298 530.9C860.098 530.9 859.898 530.8 859.698 530.8C856.898 530.4 853.598 529.2 853.298 529.1C852.998 528.7 852.798 528.2 852.598 527.8C856.198 521.6 860.798 515.9 866.098 510.7Z" fill="#1A2747"/>
<path d="M837.198 522.1C838.098 521.2 839.098 520.2 840.098 519.3C841.398 519.1 842.798 518.9 844.198 518.7C846.998 518.3 849.898 518.1 852.698 517.9C860.398 521.4 866.198 527.7 867.798 534.7C867.098 534.7 866.498 534.7 865.998 534.7C864.398 534.7 863.198 534.8 862.198 534.9C860.798 535.1 859.798 535.3 858.498 535.5C857.198 535.7 855.698 535.9 853.398 535.8C852.898 535.8 852.298 535.8 851.698 535.8C845.898 535.7 838.998 535.6 833.498 535C833.398 535 833.198 535 833.098 534.9C831.298 534.6 829.198 533.9 828.998 533.8C828.798 533.5 828.698 533.3 828.598 533C830.898 529.1 833.898 525.5 837.198 522.1Z" fill="#1A2747"/>
<path d="M822.798 516C823.498 515.3 824.198 514.6 824.998 513.9C825.998 513.7 826.998 513.6 827.998 513.5C830.098 513.2 832.198 513 834.298 512.9C840.098 515.5 844.298 520.2 845.598 525.4C845.098 525.4 844.598 525.4 844.198 525.4C842.998 525.4 842.098 525.5 841.398 525.6C840.398 525.7 839.598 525.9 838.698 526.1C837.698 526.3 836.598 526.4 834.898 526.3C834.498 526.3 834.098 526.3 833.698 526.3C829.398 526.2 824.298 526.1 820.098 525.7C819.998 525.7 819.898 525.7 819.798 525.7C818.398 525.5 816.898 524.9 816.698 524.9C816.598 524.7 816.498 524.5 816.398 524.3C818.098 521.2 820.298 518.5 822.798 516Z" fill="#1A2747"/>
<path d="M922 365.661C888.002 358.63 884.458 361.104 876.582 395.479C875.27 395.609 874.088 395.87 872.776 396C870.807 381.417 868.969 366.964 867 351.729C880.126 344.047 883.014 321.521 905.723 321C902.967 324.646 900.604 327.641 898.372 330.766C890.234 342.094 894.041 350.297 907.692 354.073C912.286 355.375 915.699 360.453 922 365.661Z" fill="black"/>
<path d="M686 316.527C688.237 306.374 704.947 299.475 694.158 285.417C703.368 278.518 705.079 274.873 702.974 235.432C704.29 234.911 705.474 234.521 706.789 234C710.211 244.023 715.342 253.916 716.79 264.329C719.421 282.943 718.5 283.074 741 280.861C735.079 284.375 731.789 287.89 728.763 287.76C717.579 287.369 711.526 293.227 705.737 301.427C701.132 307.936 694.816 313.273 689.158 319C688.105 318.349 687.053 317.438 686 316.527Z" fill="black"/>
<path d="M1128.3 299.814C1135.27 298.901 1142.37 297.987 1149.47 297.074C1144.48 314.039 1125.28 302.163 1116.73 315.083C1116.73 314.953 1117.26 317.432 1117.78 320.042C1116.47 320.695 1115.29 321.347 1113.97 322C1108.97 313.909 1103.71 305.818 1098.85 297.465C1093.85 288.722 1099.9 288.983 1106.08 289.766C1108.58 290.157 1113.05 291.332 1113.58 290.418C1122.52 275.671 1137.11 282.718 1150 282.457C1145.66 284.284 1141.19 285.85 1136.98 287.808C1132.64 289.896 1128.44 292.376 1124.23 294.725C1125.54 296.421 1126.86 298.118 1128.3 299.814Z" fill="black"/>
<path d="M1485.13 7C1491.7 16.3591 1498.28 22.4227 1500.99 29.9364C1504.85 40.4818 1508.21 49.5773 1522 49.4455C1516.59 51.95 1509.75 53.2682 1506.4 57.4864C1502.79 61.9682 1503.31 69.4818 1500.6 75.0182C1497.25 81.7409 1492.48 87.6727 1488.22 94C1487.19 93.3409 1486.03 92.8136 1485 92.1545C1486.8 87.9364 1487.71 82.9273 1490.41 79.5C1499.18 68.6909 1485.52 58.2773 1491.57 45.7545C1495.44 37.1864 1488.22 23.3455 1485.13 7Z" fill="black"/>
<path d="M587.22 237C573.19 235.815 559.03 234.498 545 233.313C562.148 222.781 546.559 209.483 550.716 196.975C554.613 201.978 557.991 206.323 562.278 211.721C563.187 205.796 563.967 200.793 564.616 195.79C565.786 195.527 566.955 195.263 568.124 195C569.553 201.583 573.32 208.824 571.761 214.486C568.514 226.335 572.541 231.075 583.583 232.918C585.142 233.182 586.571 234.367 588 235.157C587.74 235.815 587.35 236.342 587.22 237Z" fill="black"/>
<path d="M1432 129.842C1407.74 125.368 1410.09 157.737 1393 158C1396 147.079 1395.87 133.263 1402.78 125.237C1413.22 113.132 1408.91 101.289 1408.65 89.0526C1409.7 88.6579 1410.87 88.3947 1411.91 88C1414.13 94.9737 1418.17 101.947 1418.3 109.053C1418.57 118.921 1420.26 126.421 1432 129.842Z" fill="black"/>
<path d="M596.826 309C596.826 321.2 596.826 333.269 596.826 347.043C598.652 348.092 602.435 350.06 607 352.553C598.652 354.258 590.957 354.652 584.435 357.406C577.522 360.293 571.522 365.671 565 370C575.826 349.142 586 329.727 596.826 309Z" fill="black"/>
<path d="M942.076 237C940.748 214.083 956.949 199.11 974.61 201.193C960.268 209.136 962.792 217.078 977 225.672C967.174 224.76 960.401 222.417 955.09 224.24C950.044 226.063 946.724 232.182 942.076 237Z" fill="black"/>
<path d="M1298.43 106C1301.85 114.614 1305.38 123.229 1309.55 133.566C1310.95 133.831 1314.36 134.494 1316 134.759C1308.67 143.108 1301.21 151.458 1293 161C1294.64 151.59 1297.04 143.373 1297.3 135.157C1297.68 126.012 1296.16 116.735 1295.53 107.59C1296.41 107.06 1297.42 106.53 1298.43 106Z" fill="black"/>
<path d="M653.182 75C640.195 61.2617 643.182 42.9439 658.507 33C658.896 38.1028 657.597 44.1215 660.065 47.7851C662.143 50.7944 668.507 51.0561 675 53.2804C667.338 55.7664 660.584 56.1589 657.468 59.5608C654.351 63.2243 654.481 69.8972 653.182 75Z" fill="black"/>
<path d="M1055.78 226.579C1052.45 230.962 1049.25 235.475 1045.02 241.148C1050.14 241.535 1053.47 241.792 1060 242.308C1054.24 245.918 1051.17 247.852 1047.46 250.044C1050.02 254.557 1052.19 258.682 1054.5 262.808C1053.86 263.582 1053.22 264.226 1052.58 265C1044.9 258.425 1037.22 251.978 1028 244.242C1036.96 237.151 1045.02 230.575 1053.34 224C1054.11 224.774 1054.88 225.676 1055.78 226.579Z" fill="black"/>
<path d="M467.304 260.567C470.696 264.486 472.913 267.229 476.174 271.147C476.826 266.576 477.217 263.049 477.739 259C479.174 259.653 480.87 259.914 481 260.567C482.304 264.355 484.783 268.665 483.87 271.8C480.739 281.465 484.261 286.69 493 291C483.348 290.086 473.696 289.302 466 288.649C466.522 279.114 466.913 270.755 467.304 260.567Z" fill="black"/>
<path d="M1173 108C1180.99 95.4434 1189.76 81.7217 1198.39 68C1208.83 75.8964 1185.37 92.3366 1202 99.068C1192.46 102.045 1181.76 105.411 1173 108Z" fill="black"/>
<path d="M861.519 197C859.291 191.018 856.539 183.605 853 174.372C861.913 172.161 870.301 170.081 878.82 168C879.214 169.04 879.607 170.211 880 171.251C876.068 173.462 872.136 175.543 867.155 178.274C870.432 180.484 872.791 182.045 873.447 182.565C869.777 187.117 865.976 191.798 861.519 197Z" fill="black"/>
<path d="M482.87 75C477.545 73.0932 469.753 70.2966 463 67.7542C465.857 60.5085 468.455 54.1525 471.312 46.7797C472.61 48.8136 474.299 51.2288 476.247 54.1525C477.675 52.1186 479.364 49.8305 483 45C482.87 56.5678 482.87 65.4661 482.87 75Z" fill="black"/>
<path d="M780.065 76C783.666 80.4541 787.268 85.0393 790 88.4454C787.392 93.4236 783.791 99.8428 780.562 106C770.627 97.2227 770.503 84.3843 780.065 76Z" fill="black"/>
<path d="M1103 81C1103 67.2783 1103 55.2395 1103 41C1107.85 48.8964 1111.81 55.2395 1115 60.4175C1111.3 66.6311 1107.34 73.3625 1103 81Z" fill="black"/>
<defs>
<linearGradient id="paint0_linear" x1="1915.98" y1="180.253" x2="1915.98" y2="187.723" gradientUnits="userSpaceOnUse">
<stop stop-color="#B5C84B"/>
<stop offset="1" stop-color="#9EB83D"/>
</linearGradient>
<linearGradient id="paint1_linear" x1="927.176" y1="295.776" x2="927.176" y2="299.313" gradientUnits="userSpaceOnUse">
<stop stop-color="#78909C"/>
<stop offset="1" stop-color="#314047"/>
</linearGradient>
<linearGradient id="paint2_linear" x1="819.742" y1="373.926" x2="819.742" y2="378.719" gradientUnits="userSpaceOnUse">
<stop stop-color="#78909C"/>
<stop offset="1" stop-color="#314047"/>
</linearGradient>
</defs>
</svg>
