<?xml version="1.0" encoding="utf-8"?>
<!-- Generator: Adobe Illustrator 25.2.3, SVG Export Plug-In . SVG Version: 6.00 Build 0)  -->
<svg version="1.1" xmlns="http://www.w3.org/2000/svg" xmlns:xlink="http://www.w3.org/1999/xlink" x="0px" y="0px"
	 viewBox="0 0 360 333" style="enable-background:new 0 0 360 333;" xml:space="preserve">
<style type="text/css">
	.st0{fill:#FFFFFF;filter:url(#Adobe_OpacityMaskFilter);}
	.st1{mask:url(#mask0_1_);}
	.st2{fill:#C4C4C4;filter:url(#Adobe_OpacityMaskFilter_1_);}
	.st3{mask:url(#mask1_1_);}
	.st4{clip-path:url(#SVGID_2_);}
	.st5{fill:#C3DDEB;}
	.st6{fill:#45A7CE;}
	.st7{fill:#FFFFFF;}
	.st8{fill:#FAFAFA;}
	.st9{fill:#EC7FA3;}
	.st10{fill:#FD9BBB;}
	.st11{fill:url(#SVGID_3_);}
	.st12{fill:url(#SVGID_4_);}
	.st13{fill:#1A2747;}
	.st14{opacity:0.28;fill:#1A2747;enable-background:new    ;}
	.st15{clip-path:url(#SVGID_6_);}
</style>
<g id="Capa_1">
	<defs>
		<filter id="Adobe_OpacityMaskFilter" filterUnits="userSpaceOnUse" x="-112" y="5" width="582" height="435">
			<feColorMatrix  type="matrix" values="1 0 0 0 0  0 1 0 0 0  0 0 1 0 0  0 0 0 1 0"/>
		</filter>
	</defs>
	<mask maskUnits="userSpaceOnUse" x="-112" y="5" width="582" height="435" id="mask0_1_">
		<rect class="st0" width="360" height="333"/>
	</mask>
	<g class="st1">
		<defs>
			<filter id="Adobe_OpacityMaskFilter_1_" filterUnits="userSpaceOnUse" x="-112" y="41" width="582" height="399">
				<feColorMatrix  type="matrix" values="1 0 0 0 0  0 1 0 0 0  0 0 1 0 0  0 0 0 1 0"/>
			</filter>
		</defs>
		<mask maskUnits="userSpaceOnUse" x="-112" y="41" width="582" height="399" id="mask1_1_">
			
				<ellipse transform="matrix(0.9884 -0.1517 0.1517 0.9884 -37.8738 33.4891)" class="st2" cx="200.6" cy="265" rx="396.7" ry="181.1"/>
		</mask>
		<g class="st3">
			<g>
				<defs>
					<rect id="SVGID_1_" x="-112" y="41" width="582" height="399"/>
				</defs>
				<clipPath id="SVGID_2_">
					<use xlink:href="#SVGID_1_"  style="overflow:visible;"/>
				</clipPath>
				<g class="st4">
					<path class="st5" d="M403,41H-64.8v202.2H403V41z"/>
					<path class="st6" d="M-42,219v56.5c31.3,4.4,61.9,12.6,92,22.3c68,22.3,140.5,29.8,214.2,16.9c42.5-7.6,78.7-23.9,118.8-34.1
						V219H-42z"/>
					<path class="st7" d="M359.8,121.2c0.1-0.5,0.2-0.9,0.1-1.4c-0.1-0.9-0.7-1.8-1.6-2.2c-0.9-0.4-2.6-1-3.4-0.5
						c-0.6-4.5-4.7-8.2-9.2-8.4c-4.5-0.2-9.2,2.8-10.3,7.2c-1.8-2.2-4.9-3.2-7.6-2.4c-2.7,0.7-4.9,3.5-5.4,6.3
						c-1.5-1.3-4.1-0.7-4.9,1c0,0.1-0.1,0.2-0.1,0.3L359.8,121.2L359.8,121.2z"/>
					<path class="st7" d="M141.3,161.1c0.2-0.7,0.2-1.4,0.2-2.1c-0.2-1.4-1.1-2.8-2.4-3.4c-1.3-0.6-4-1.6-5.2-0.8
						c-1-6.9-7.3-12.7-14.3-13.1c-7-0.3-14.3,4.4-15.9,11.2c-2.8-3.4-7.6-4.9-11.8-3.8c-4.2,1.1-7.6,5.5-8.3,9.8
						c-2.3-2-6.4-1.1-7.6,1.6c-0.1,0.1-0.1,0.3-0.1,0.5H141.3z"/>
					<path class="st7" d="M216.2,177.5c0.1-0.5,0.2-1,0.1-1.4c-0.1-1-0.7-1.8-1.6-2.2c-0.9-0.4-2.7-1.1-3.4-0.5
						c-0.6-4.6-4.8-8.4-9.4-8.6c-4.6-0.2-9.4,2.9-10.5,7.4c-1.8-2.2-5-3.2-7.7-2.5c-2.8,0.7-5,3.6-5.5,6.4c-1.5-1.3-4.2-0.7-5,1.1
						c0,0.1-0.1,0.2-0.1,0.3H216.2z"/>
					<path class="st7" d="M91.1,99.9c0.1-0.5,0.2-1,0.1-1.4c-0.1-1-0.7-1.8-1.6-2.2c-0.9-0.4-2.7-1.1-3.4-0.5
						c-0.6-4.6-4.8-8.4-9.4-8.6c-4.6-0.2-9.4,2.9-10.5,7.4c-1.8-2.2-5-3.2-7.7-2.5c-2.8,0.7-5,3.6-5.5,6.4c-1.5-1.3-4.2-0.7-5,1.1
						c0,0.1-0.1,0.2-0.1,0.3H91.1z"/>
					<path class="st5" d="M106.4,227.1c-24.9-9.3-49.3-20.7-73.6-31.3c3.4,4,5.7,9.3,8.5,13.3c-19.3-2-37.4-7.3-56.1-11.3
						c4-4,9.1-7.3,13.6-10c-13.8-1.8-28-0.3-41,5.8v55h204c-23.6-9.3-47.2-18.4-71.8-19.4C95.7,227.8,100.8,228.4,106.4,227.1z"/>
					<path class="st8" d="M145.5,237.1c-43.6-16.7-87.2-30-129.1-51.3c-4.5-2.7-10.8-6.7-14.2-6.7c-14.6-1.1-30.9,4.3-44.4,13.8v0.6
						c13-6.1,27.2-7.6,41-5.8c-4.5,2.7-9.6,6-13.6,10c18.7,4,36.8,9.3,56.1,11.3c-2.8-4-5.1-9.3-8.5-13.3
						c24.4,10.7,48.7,22,73.6,31.3c-5.7,1.3-10.8,0.7-16.4,2c24.6,1,48.2,10.1,71.8,19.4h17.4C168,245.3,156.8,241.4,145.5,237.1z"
						/>
					<path class="st5" d="M287.1,213.8c4-2,6.2-6,9.1-9.3c-16.5,6.2-33.3,10.8-49.8,16.5c-18.9,9.9-38.1,19-57.6,27.6h194v-75
						c-1.3-0.5-2.5-1-3.8-1.5c-9.1-1.6-18-4-26.8-7.6C331.3,181.8,310.9,201.1,287.1,213.8z"/>
					<path class="st8" d="M341.1,160.5c-31.2,24.2-62.6,43.6-94.7,60.5c16.5-5.7,33.3-10.3,49.8-16.5c-2.8,3.3-5.1,7.3-9.1,9.3
						c23.8-12.7,44.2-32,65.1-49.3c8.8,3.7,17.8,6.1,26.8,7.6c-9.6-3.8-19-8.3-28.3-13.6C347.9,156.5,344.5,157.8,341.1,160.5z"/>
					<path class="st9" d="M333,158.5c-5.1-2.7-9.6-8-14.2-13.3c-1.1-1.3-3.4-3.3-5.1-3.3c-5,0.7-10,1.4-14.9,2.3
						c-9.7,5-19.1,11.4-28.7,16.4c1.7-2.7,3.4-5.3,5.7-7.3c-14.2,6-32.3,4-43,17.3c5.7-0.7,10.8-3.3,16.4-4c-3.4,12.7-13,26-24.4,28
						c2.3-4,5.1-7.3,7.4-11.3c-10.2,1.3-18.7,8-28.3,12.7c-0.7,0.2-1.4,0.4-2.1,0.7c1.6,0.4,3.3,0.8,4.9,1.3
						c10.2,3.3,22.7,16.7,31.7,8.7c6.5,2.8,13,5.6,19.5,8.2c28.1-15.4,55.6-32.9,83-54.2c0.2-0.2,0.5-0.4,0.7-0.5
						C338.7,159.7,335.7,159.7,333,158.5z"/>
					<path class="st10" d="M232.2,183.1c-2.3,4-5.1,7.3-7.4,11.3c11.3-2,21-15.3,24.4-28c-5.7,0.7-10.8,3.3-16.4,4
						c10.8-13.3,28.9-11.3,43-17.3c-2.3,2-4,4.7-5.7,7.3c9.7-5,19.1-11.4,28.7-16.4c-20.3,3.5-40.2,8.9-59.3,16.4
						c-9.1,4-12.5,19.3-20.4,24c-10,6.1-22,9.1-33.7,8.1c5.4,1.5,10.8,2.6,16.3,4c0.7-0.3,1.4-0.5,2.1-0.7
						C213.5,191.1,222,184.5,232.2,183.1z"/>
					<path class="st5" d="M233.3,213.1c1.1,1.3,0.6,3.3,1.1,4.7c-7.9-2-15.3-6-23.2-9.3c1.7,0,1.7-2,2.8-2.7
						c-11.9-3.3-23.2-7.3-35.1-11.3c-6.7-1.8-12,4.7-18.1,7.9c1.1-0.2,2.3-0.1,3.4-0.5c-9.6,6.3-17.7,15.5-27.2,21.6
						c-0.5,0.4-1.1,0.8-1.7,1.1c0.6-0.3,1.2-0.7,1.7-1.1c2.9-2.1,4.9-5.3,7.3-7.6c-8.3,2.2-14.8,8.3-22.1,12.7
						c7.7,2.8,15.5,5.7,23.2,8.6c11.3,4.3,22.4,8.2,33.7,11.4h9.4c22.4-9.9,44.2-20.3,65.8-32C247.5,214.9,240.4,213.6,233.3,213.1z
						"/>
					
						<linearGradient id="SVGID_3_" gradientUnits="userSpaceOnUse" x1="159.96" y1="131.977" x2="159.96" y2="131.029" gradientTransform="matrix(1 0 0 -1 0 334)">
						<stop  offset="0" style="stop-color:#78909C"/>
						<stop  offset="1" style="stop-color:#314047"/>
					</linearGradient>
					<path class="st11" d="M160.8,202.3c-0.6,0.1-1.1,0.3-1.7,0.8C159.7,202.9,160.3,202.6,160.8,202.3z"/>
					
						<linearGradient id="SVGID_4_" gradientUnits="userSpaceOnUse" x1="136.181" y1="111.045" x2="136.181" y2="109.762" gradientTransform="matrix(1 0 0 -1 0 334)">
						<stop  offset="0" style="stop-color:#78909C"/>
						<stop  offset="1" style="stop-color:#314047"/>
					</linearGradient>
					<path class="st12" d="M137,223.4c-0.6,0.4-1.2,0.7-1.7,1.1C135.9,224.1,136.5,223.8,137,223.4z"/>
					<path class="st8" d="M137,223.4c9.4-6.1,17.5-15.3,27.2-21.6c-1.1,0.4-2.3,0.3-3.4,0.5c-0.6,0.3-1.1,0.6-1.7,0.8
						c0.6-0.4,1.1-0.7,1.7-0.8c6.1-3.2,11.4-9.7,18.1-7.9c11.9,4,23.2,8,35.1,11.3c-1.1,0.7-1.1,2.7-2.8,2.7
						c7.9,3.3,15.3,7.3,23.2,9.3c-0.6-1.3,0-3.3-1.1-4.7c7.1,0.5,14.2,1.8,21.1,3.4c1.2-0.6,2.4-1.3,3.5-1.9
						c-6.5-2.6-13-5.3-19.5-8.2c-9.1,8-21.5-5.3-31.7-8.7c-7.3-2-14.3-3.3-21.3-5.2c-3.5-0.3-7-1-10.4-2.1
						c-20.1,11.3-39.8,23.3-59.5,35.5c2.3,0.8,4.6,1.7,6.9,2.5c7.3-4.4,13.8-10.5,22.1-12.7C142,218,140,221.2,137,223.4z"/>
					<path class="st9" d="M120,195.8c-6.8,0-11.3,10.7-14.7,10c-13.6-2-27.8-9.3-39.6-20c6.2,2.7,11.9,6,18.1,9.3
						c-7.9-8-15.9-16.7-23.8-25.3c-1.7-2-2.8-5.3-5.7-5.3c2.8,3.3,3.4,7.3,3.4,11.3c-4-9.3-11.9-16.7-13.6-27.3
						c-18.1-2-36.2-0.7-54.4,2c4,1.3,11.3,3.3,9.6,4.7c-10.2,10-24.9,12.7-37.9,17.3c2.8-4,4.5-9.3,9.1-12c-4.9,0-8.9,2.4-12.7,5.3
						v27.2c13.5-9.5,29.7-14.9,44.4-13.8c3.4,0,9.6,4,14.2,6.7c32.3,16.4,65.5,28.1,99,40.2c8.1-5,16.3-10,24.5-15
						c-7-5.3-14.5-9.7-22.7-12.6C117.8,197.1,118.9,196.4,120,195.8z"/>
					<path class="st10" d="M121.2,195.1c-6.8,0-14.7,5.3-21.5,4c-7.4-2-13.6-8.7-19.8-14.7c-13-11.3-23.8-23.3-34-37.3
						c-29.5,2.7-60.6-13.3-87.2,12c-0.3,0.3-0.5,0.5-0.8,0.8v5.8c3.8-2.8,7.8-5.3,12.7-5.3c-4.5,2.7-6.2,8-9.1,12
						c13-4.7,27.8-7.3,37.9-17.3c1.7-1.3-5.7-3.3-9.6-4.7c18.1-2.7,36.2-4,54.4-2c1.7,10.7,9.6,18,13.6,27.3c0-4-0.6-8-3.4-11.3
						c2.8,0,4,3.3,5.7,5.3c7.9,8.7,15.9,17.3,23.8,25.3c-6.2-3.3-11.9-6.7-18.1-9.3c11.9,10.7,26.1,18,39.6,20
						c3.4,0.7,7.9-10,14.7-10c-1.1,0.7-2.3,1.3-2.8,2.7c8.2,2.9,15.7,7.2,22.7,12.6c2.2-1.3,4.4-2.7,6.6-4
						C138.1,201.5,129.6,196.2,121.2,195.1z"/>
					<path class="st8" d="M382.6,252.9v-4.8c-20,0.7-40,2.8-60.1,4.8H382.6z"/>
					<path class="st8" d="M30.5,236.4c-24.4-3.3-48.3-10.4-72.7-6.9v23.4h203.4c-36-3.9-72-9.6-108.6-15.1
						C45.3,237.1,37.9,237.1,30.5,236.4z"/>
					<path class="st8" d="M114.9,245.7c-2.1,0.1-4.1,0.3-6.2,0.4c17.6,2.5,35,4.8,52.5,6.7h161.3c20-2.1,40-4.2,60.1-4.8V227
						c-25.9,1-51.8,3.1-78,6.1C241.2,239.8,178.4,242.4,114.9,245.7z"/>
					<path class="st13" d="M308.1,230.5l-1.8-0.8v-0.3l1.7,0.3l-0.2-1l-1.3-0.5l0.2-0.1l1,0.2l-0.8-4l-1.1-0.1l1.1-0.1l-0.5-2.9
						l-1-0.9v-0.7l0.8,0.5l-1.5-7.9l-1.5,7.9l0.9-0.4l-1,0.8l-0.6,3.2l0.8-0.4l-0.2,1l-0.8,0.5l-0.1,0.3l1.4-0.6v0.2l-1.4,0.7
						l-0.4,2.3l1.4-0.4v0.3l-1.6,0.9l-0.1,0.8l1.4-0.6l-1.5,1l-0.2,1.1l3-1.1l-0.2,0.2l-2.8,1.1l-0.2,0.8h7.4L308.1,230.5z"/>
					<path class="st14" d="M306.2,229.8v-0.3l1.7,0.3l-0.2-1l-1.3-0.5l0.2-0.1l1,0.2l-0.7-4l-1.1-0.1l1.1-0.1l-0.5-2.9l-0.8-0.7
						c-1.1,3.2-2,6.5-3.1,9.7l1.7-0.6l-0.2,0.2l-1.6,0.6c-0.1,0.3-0.2,0.6-0.3,0.9c0,0.1-0.1,0.3-0.1,0.4h6.4l-0.2-1.2L306.2,229.8z
						"/>
					<path class="st13" d="M306.1,228l-0.1-0.2l-1.2,0.7V224l0.7-0.8l-0.2-0.2l-0.5,0.6v-2.4h-0.2v4.9l-1-1.2l-0.2,0.2l1.1,1.3v6.1
						h0.2v-3.9L306.1,228z"/>
					<path class="st13" d="M343.4,229.7l-1.8-0.8v-0.3l1.7,0.4l-0.2-1l-1.3-0.5l0.2-0.1l0.9,0.2l-0.7-4l-1.1-0.1l1.1-0.1l-0.5-2.9
						l-1-0.9v-0.7l0.8,0.5l-1.5-7.9l-1.5,7.9l0.9-0.4l-1,0.8l-0.6,3.2l0.8-0.4l-0.2,1l-0.8,0.5l-0.1,0.3l1.4-0.6v0.2l-1.4,0.7
						l-0.4,2.3l1.4-0.4v0.3l-1.6,0.9l-0.1,0.8l1.4-0.6l-1.5,1l-0.2,1.1l3-1.1l-0.2,0.2l-2.8,1.1l-0.2,0.8h7.4L343.4,229.7z"/>
					<path class="st14" d="M341.6,228.9v-0.3l1.7,0.3l-0.2-1l-1.3-0.5l0.2-0.1l1,0.2l-0.7-4l-1.1-0.1l1.1-0.1l-0.5-2.9l-0.8-0.7
						c-1.1,3.2-2,6.5-3.1,9.7l1.7-0.6l-0.2,0.2l-1.6,0.6c-0.1,0.3-0.2,0.6-0.3,0.9c0,0.1-0.1,0.3-0.1,0.4h6.4l-0.2-1.2L341.6,228.9z
						"/>
					<path class="st13" d="M341.4,227.1l-0.1-0.2l-1.2,0.7v-4.4l0.7-0.9l-0.2-0.2l-0.5,0.6v-2.4h-0.2v4.9l-1-1.2l-0.2,0.2l1.1,1.3
						v6.1h0.2v-3.9L341.4,227.1z"/>
					<path class="st13" d="M356,236.3l-1.8-0.8v-0.3l1.7,0.3l-0.2-1l-1.3-0.5l0.2-0.1l1,0.2l-0.7-4l-1.1-0.1l1.1-0.1l-0.5-2.9
						l-1-0.9v-0.7l0.8,0.5l-1.5-7.9l-1.5,7.9l0.9-0.4l-1,0.8l-0.6,3.2l0.8-0.3l-0.2,1l-0.8,0.5l-0.1,0.3l1.4-0.6v0.2l-1.4,0.7
						l-0.4,2.3l1.4-0.4v0.3l-1.6,0.9l-0.1,0.8l1.4-0.6l-1.5,1l-0.2,1.1l3-1.1l-0.2,0.2l-2.8,1.1l-0.2,0.8h7.4L356,236.3z"/>
					<path class="st14" d="M354.2,235.5v-0.3l1.7,0.3l-0.2-1l-1.3-0.5l0.2-0.1l1,0.2l-0.7-4l-1.1-0.1l1.1-0.1l-0.5-2.9l-0.8-0.7
						c-1.1,3.2-2,6.5-3.1,9.7l1.7-0.6l-0.2,0.2l-1.6,0.6c-0.1,0.3-0.2,0.6-0.3,0.9c0,0.1-0.1,0.3-0.1,0.4h6.4l-0.2-1.2L354.2,235.5z
						"/>
					<path class="st13" d="M354,233.7l-0.1-0.2l-1.2,0.7v-4.4l0.7-0.8l-0.2-0.2l-0.5,0.6v-2.4h-0.2v5l-1-1.2l-0.2,0.2l1.1,1.3v6.1
						h0.2v-3.9L354,233.7z"/>
					<path class="st13" d="M29.3,239.9l-1.8-0.8v-0.3l1.7,0.3l-0.2-1l-1.3-0.5l0.2-0.1l1,0.2l-0.8-4l-1.1-0.1l1.1-0.1l-0.5-2.9
						l-1-0.9V229l0.8,0.5l-1.5-7.9l-1.5,7.9l0.9-0.4l-1,0.8l-0.6,3.2l0.8-0.4l-0.2,1l-0.8,0.5l-0.1,0.3l1.4-0.6v0.2l-1.4,0.7L23,237
						l1.4-0.4v0.3l-1.6,0.9l-0.1,0.8l1.4-0.6l-1.5,1l-0.2,1.1l3-1.1l-0.2,0.2l-2.8,1.1l-0.1,0.8h7.4L29.3,239.9z"/>
					<path class="st14" d="M27.5,239.1v-0.3l1.7,0.3l-0.2-1l-1.3-0.5l0.2-0.1l1,0.2l-0.7-4l-1.1-0.1l1.1-0.1l-0.5-2.9l-0.8-0.7
						c-1.1,3.2-2,6.5-3.1,9.7l1.7-0.6l-0.2,0.2l-1.6,0.6c-0.1,0.3-0.2,0.6-0.3,0.9c0,0.1-0.1,0.3-0.1,0.4h6.4l-0.2-1.2L27.5,239.1z"
						/>
					<path class="st13" d="M27.3,237.3l-0.1-0.2l-1.2,0.7v-4.4l0.7-0.8l-0.2-0.2L26,233v-2.4h-0.2v4.9l-1-1.2l-0.2,0.2l1.1,1.3v6.1
						H26v-3.9L27.3,237.3z"/>
					<path class="st13" d="M281.3,234l-1.8-0.8v-0.3l1.7,0.3l-0.2-1l-1.3-0.5l0.2-0.1l1,0.2l-0.7-4l-1.1-0.1l1.1-0.1l-0.5-2.9
						l-1-0.9v-0.7l0.8,0.5l-1.5-7.9l-1.5,7.9l0.9-0.4l-1,0.8l-0.6,3.2l0.8-0.4l-0.2,1l-0.8,0.5l-0.1,0.3l1.4-0.6v0.2l-1.4,0.7
						l-0.4,2.3l1.4-0.4v0.3l-1.6,0.9l-0.1,0.8l1.4-0.6l-1.5,1l-0.2,1.1l3-1.1l-0.2,0.2l-2.8,1.1l-0.2,0.8h7.4L281.3,234z"/>
					<path class="st14" d="M279.5,233.3v-0.3l1.7,0.3l-0.2-1l-1.3-0.5l0.2-0.1l1,0.2l-0.7-4l-1.1-0.1l1.1-0.1l-0.5-2.9l-0.8-0.7
						c-1.1,3.2-2,6.5-3.1,9.7l1.7-0.6l-0.2,0.2l-1.6,0.6c-0.1,0.3-0.2,0.6-0.3,0.9c0,0.1-0.1,0.3-0.1,0.4h6.4l-0.2-1.2L279.5,233.3z
						"/>
					<path class="st13" d="M279.3,231.4l-0.1-0.2l-1.2,0.7v-4.4l0.7-0.8l-0.2-0.2l-0.5,0.6v-2.4h-0.2v4.9l-1-1.2l-0.2,0.2l1.1,1.3
						v6.1h0.2v-3.9L279.3,231.4z"/>
					<path class="st13" d="M247.9,239.9l-1.8-0.8v-0.3l1.7,0.3l-0.2-1l-1.3-0.5l0.2-0.1l0.9,0.2l-0.7-4l-1.1-0.1l1.1-0.1l-0.5-2.9
						l-1-0.9V229l0.8,0.5l-1.5-7.9l-1.5,7.9l0.9-0.4l-1,0.8l-0.6,3.2l0.8-0.4l-0.2,1l-0.8,0.5l-0.1,0.3l1.4-0.6v0.2l-1.4,0.7
						l-0.4,2.3l1.4-0.4v0.3l-1.6,0.9l-0.1,0.8l1.4-0.6l-1.5,1L241,240l3-1.1l-0.2,0.2l-2.8,1.1l-0.2,0.8h7.4L247.9,239.9z"/>
					<path class="st14" d="M246.1,239.1v-0.3l1.7,0.3l-0.2-1l-1.3-0.5l0.2-0.1l1,0.2l-0.7-4l-1.1-0.1l1.1-0.1l-0.5-2.9l-0.8-0.7
						c-1.1,3.2-2,6.5-3.1,9.7l1.7-0.6l-0.2,0.2l-1.6,0.6c-0.1,0.3-0.2,0.6-0.3,0.9c0,0.1-0.1,0.3-0.1,0.4h6.4l-0.2-1.2L246.1,239.1z
						"/>
					<path class="st13" d="M245.9,237.3l-0.1-0.2l-1.2,0.7v-4.4l0.7-0.8l-0.2-0.2l-0.5,0.6v-2.4h-0.2v4.9l-1-1.2l-0.2,0.2l1.1,1.3
						v6.1h0.2v-3.9L245.9,237.3z"/>
					<path class="st13" d="M227.4,246.2l-2.8-1.2v-0.5l2.6,0.5l-0.3-1.6l-2-0.7l0.4-0.2l1.5,0.3l-1.2-6.2l-1.8-0.2l1.7-0.2l-0.8-4.4
						l-1.5-1.4v-1l1.2,0.7l-2.3-12.3l-2.3,12.2l1.4-0.6l-1.5,1.2l-0.9,5l1.2-0.5l-0.3,1.5l-1.2,0.7l-0.1,0.5l2.1-0.9v0.3l-2.2,1
						l-0.7,3.6l2.2-0.6v0.4l-2.4,1.3l-0.2,1.2l2.2-0.9l-2.3,1.5l-0.3,1.7l4.6-1.7l-0.4,0.4l-4.4,1.8l-0.2,1.2h11.4L227.4,246.2z"/>
					<path class="st14" d="M224.5,245v-0.5l2.6,0.5l-0.3-1.6l-2-0.7l0.4-0.2l1.5,0.3l-1.2-6.2l-1.8-0.2l1.7-0.2l-0.8-4.4l-1.3-1.1
						c-1.7,4.9-3.1,10.1-4.7,15l2.6-0.9l-0.4,0.4l-2.4,1c-0.2,0.5-0.3,0.9-0.5,1.4c-0.1,0.2-0.1,0.4-0.2,0.6h9.9l-0.4-1.9L224.5,245
						z"/>
					<path class="st13" d="M224.3,242.2l-0.2-0.4l-1.9,1.1v-6.9l1-1.3l-0.2-0.3l-0.8,1v-3.8h-0.3v7.7l-1.5-1.8l-0.2,0.3l1.8,2.1v9.5
						h0.3v-6.1L224.3,242.2z"/>
					<path class="st13" d="M172.1,242l-1.8-0.8v-0.3l1.7,0.3l-0.2-1l-1.3-0.5l0.2-0.1l0.9,0.2l-0.7-4l-1.1-0.1l1.1-0.1l-0.5-2.9
						l-1-0.9v-0.7l0.8,0.5l-1.5-7.9l-1.5,7.9l0.9-0.4l-1,0.8l-0.6,3.2l0.8-0.4l-0.2,1l-0.8,0.5l-0.1,0.3l1.4-0.6v0.2l-1.4,0.7
						l-0.4,2.3l1.4-0.4v0.3l-1.6,0.9l-0.1,0.8l1.4-0.6l-1.5,1l-0.2,1.1l3-1.1l-0.2,0.2l-2.8,1.1l-0.2,0.8h7.4L172.1,242z"/>
					<path class="st14" d="M170.3,241.2v-0.3l1.7,0.3l-0.2-1l-1.3-0.5l0.2-0.1l1,0.2l-0.7-4l-1.1-0.1l1.1-0.1l-0.5-2.9l-0.8-0.7
						c-1.1,3.2-2,6.5-3.1,9.7l1.7-0.6l-0.2,0.2l-1.6,0.6c-0.1,0.3-0.2,0.6-0.3,0.9c0,0.1-0.1,0.3-0.1,0.4h6.4l-0.2-1.2L170.3,241.2z
						"/>
					<path class="st13" d="M170.1,239.4l-0.1-0.2l-1.2,0.7v-4.4l0.7-0.8l-0.2-0.2l-0.5,0.6v-2.4h-0.2v4.9l-1-1.2l-0.2,0.2l1.1,1.3
						v6.1h0.2v-3.9L170.1,239.4z"/>
					<path class="st13" d="M112.2,246.5l-1.8-0.8v-0.3l1.7,0.4l-0.2-1l-1.3-0.5l0.2-0.2l0.9,0.2l-0.7-4l-1.1-0.1l1.1-0.1l-0.5-2.9
						l-1-0.9v-0.7l0.8,0.5l-1.5-7.9l-1.5,7.9l0.9-0.4l-1,0.8l-0.6,3.2l0.8-0.4l-0.2,1l-0.8,0.5l-0.1,0.3l1.4-0.6v0.2l-1.4,0.7
						l-0.4,2.3l1.4-0.4v0.3l-1.6,0.9l-0.1,0.8l1.4-0.6l-1.5,1l-0.2,1.1l3-1.1l-0.2,0.2l-2.8,1.1l-0.2,0.8h7.4L112.2,246.5z"/>
					<path class="st14" d="M110.4,245.7v-0.3l1.7,0.3l-0.2-1l-1.3-0.5l0.2-0.1l1,0.2l-0.7-4l-1.1-0.1l1.1-0.1l-0.5-2.9l-0.8-0.7
						c-1.1,3.2-2,6.5-3.1,9.7l1.7-0.6l-0.2,0.2l-1.6,0.6c-0.1,0.3-0.2,0.6-0.3,0.9c0,0.1-0.1,0.3-0.1,0.4h6.4l-0.2-1.2L110.4,245.7z
						"/>
					<path class="st13" d="M110.2,243.9l-0.1-0.2l-1.2,0.7V240l0.7-0.9l-0.2-0.2l-0.5,0.6v-2.4h-0.2v4.9l-1-1.2l-0.2,0.2l1.1,1.3
						v6.1h0.2v-3.9L110.2,243.9z"/>
					<path class="st13" d="M84.3,245.7l-1.8-0.8v-0.3l1.7,0.4l-0.2-1l-1.3-0.5l0.2-0.1l0.9,0.2l-0.7-4l-1.1-0.1l1.1-0.1l-0.5-2.9
						l-1-0.9v-0.7l0.8,0.5l-1.5-7.9l-1.5,7.9l0.9-0.4l-1,0.8l-0.6,3.2l0.8-0.4l-0.2,1l-0.8,0.5l-0.1,0.3l1.4-0.6v0.2l-1.4,0.7
						l-0.4,2.3l1.4-0.4v0.3l-1.6,0.9l-0.1,0.8l1.4-0.6l-1.5,1l-0.2,1.1l3-1.1l-0.2,0.2l-2.8,1.1l-0.2,0.8h7.4L84.3,245.7z"/>
					<path class="st14" d="M82.5,244.9v-0.3l1.7,0.3l-0.2-1l-1.3-0.5l0.2-0.1l1,0.2l-0.7-4l-1.1-0.1l1.1-0.1l-0.5-2.9l-0.8-0.7
						c-1.1,3.2-2,6.5-3.1,9.7l1.7-0.6l-0.2,0.2l-1.6,0.6c-0.1,0.3-0.2,0.6-0.3,0.9c0,0.1-0.1,0.3-0.1,0.4h6.4l-0.2-1.2L82.5,244.9z"
						/>
					<path class="st13" d="M82.3,243.1l-0.1-0.2l-1.2,0.7v-4.4l0.7-0.9l-0.2-0.2l-0.5,0.6v-2.4h-0.2v4.9l-1-1.2l-0.2,0.2l1.1,1.3
						v6.1H81v-3.9L82.3,243.1z"/>
					<path class="st13" d="M45.1,242l-1.8-0.8v-0.3l1.7,0.3l-0.2-1l-1.3-0.5l0.2-0.1l0.9,0.2l-0.7-4l-1.1-0.1l1.1-0.1l-0.5-2.9
						l-1-0.9v-0.7l0.8,0.5l-1.5-7.9l-1.5,7.9l0.9-0.4l-1,0.8l-0.6,3.2l0.8-0.4l-0.2,1l-0.8,0.5l-0.1,0.3l1.4-0.6v0.2l-1.4,0.7
						l-0.4,2.3l1.4-0.4v0.3l-1.6,0.9l-0.1,0.8l1.4-0.6l-1.5,1l-0.2,1.1l3-1.1l-0.2,0.2l-2.8,1.1l-0.2,0.8h7.4L45.1,242z"/>
					<path class="st14" d="M43.3,241.2v-0.3l1.7,0.3l-0.2-1l-1.3-0.5l0.2-0.1l1,0.2l-0.7-4l-1.1-0.1l1.1-0.1l-0.5-2.9l-0.8-0.7
						c-1.1,3.2-2,6.5-3.1,9.7l1.7-0.6l-0.2,0.2l-1.6,0.6c-0.1,0.3-0.2,0.6-0.3,0.9c0,0.1-0.1,0.3-0.1,0.4h6.4l-0.2-1.2L43.3,241.2z"
						/>
					<path class="st13" d="M43.1,239.4l-0.1-0.2l-1.2,0.7v-4.4l0.7-0.8l-0.2-0.2l-0.5,0.6v-2.4h-0.2v4.9l-1-1.2l-0.2,0.2l1.1,1.3
						v6.1h0.2v-3.9L43.1,239.4z"/>
					<path class="st13" d="M16.6,247.2l-3.6-1.5v-0.7l3.3,0.7l-0.4-2l-2.5-0.9l0.5-0.3l1.9,0.4l-1.5-7.8l-2.2-0.3l2.1-0.2l-1-5.6
						l-1.9-1.7V226l1.6,0.9l-2.9-15.5L7,226.8l1.7-0.8l-1.9,1.5l-1.2,6.3l1.6-0.7l-0.4,2l-1.6,0.9l-0.1,0.6l2.6-1.1v0.4L5,237
						l-0.8,4.5l2.8-0.8v0.6L3.9,243l-0.3,1.5l2.8-1.1l-3,1.9l-0.4,2.1l5.9-2.1l-0.5,0.5L3,248.1l-0.3,1.6H17L16.6,247.2z"/>
					<path class="st14" d="M13,245.7v-0.7l3.3,0.7l-0.4-2l-2.5-0.9l0.5-0.3l1.9,0.4l-1.5-7.8l-2.2-0.3l2.1-0.3l-1-5.6l-1.6-1.4
						c-2.1,6.2-3.9,12.7-6,18.9l3.3-1.2l-0.5,0.5l-3,1.2c-0.2,0.6-0.4,1.2-0.6,1.8c-0.1,0.3-0.2,0.5-0.3,0.8H17l-0.5-2.4L13,245.7z"
						/>
					<path class="st13" d="M12.7,242.2l-0.2-0.4l-2.4,1.4v-8.7l1.3-1.7l-0.3-0.3l-1,1.3V229H9.7v9.7l-1.9-2.3l-0.3,0.4l2.2,2.6v12
						h0.4v-7.7L12.7,242.2z"/>
					<path class="st13" d="M70.1,248l-3.6-1.5v-0.7l3.3,0.7l-0.4-2l-2.5-0.9l0.5-0.3l1.9,0.4l-1.5-7.8l-2.2-0.3l2.1-0.2l-1-5.6
						l-1.9-1.7v-1.3l1.6,0.9l-2.9-15.5l-2.9,15.4l1.7-0.8l-1.9,1.5l-1.2,6.3l1.6-0.7l-0.4,2l-1.6,0.9l-0.1,0.6l2.6-1.1v0.4l-2.7,1.3
						l-0.8,4.5l2.8-0.8v0.6l-3.1,1.7l-0.3,1.5l2.8-1.1l-2.9,1.9l-0.4,2.1l5.9-2.1l-0.5,0.5l-5.5,2.2l-0.3,1.6h14.4L70.1,248z"/>
					<path class="st14" d="M66.6,246.5v-0.7l3.3,0.7l-0.4-2l-2.5-0.9l0.5-0.3l1.9,0.4l-1.5-7.8l-2.2-0.3l2.1-0.3l-1-5.6l-1.6-1.4
						c-2.1,6.2-3.9,12.7-6,18.9l3.3-1.2l-0.5,0.5l-3,1.2c-0.2,0.6-0.4,1.2-0.6,1.8c-0.1,0.3-0.2,0.5-0.3,0.8h12.5l-0.5-2.4
						L66.6,246.5z"/>
					<path class="st13" d="M66.2,243l-0.2-0.5l-2.4,1.4v-8.7l1.3-1.7l-0.3-0.3l-1,1.3v-4.7h-0.4v9.7l-1.9-2.2l-0.3,0.4l2.2,2.6v12
						h0.4v-7.7L66.2,243z"/>
					<path class="st13" d="M136.7,247.6l-3.6-1.5v-0.7l3.3,0.7l-0.4-2l-2.5-0.9l0.5-0.3l1.9,0.4l-1.5-7.8l-2.2-0.3l2.1-0.3l-1-5.6
						l-1.9-1.7v-1.3l1.6,0.9l-2.9-15.5l-2.9,15.4l1.7-0.8l-1.9,1.5l-1.2,6.3l1.6-0.7l-0.4,2l-1.6,0.9l-0.1,0.6l2.6-1.1v0.4l-2.7,1.3
						l-0.8,4.5l2.8-0.8v0.5l-3.1,1.7l-0.3,1.5l2.8-1.1l-2.9,1.9l-0.4,2.1l5.9-2.1l-0.5,0.5l-5.5,2.2l-0.3,1.6h14.4L136.7,247.6z"/>
					<path class="st14" d="M133.1,246.1v-0.7l3.3,0.7l-0.4-2l-2.5-0.9l0.5-0.3l1.9,0.4l-1.5-7.8l-2.2-0.3l2.1-0.3l-1-5.6l-1.6-1.4
						c-2.1,6.2-3.9,12.7-6,18.9l3.3-1.2l-0.5,0.5l-3,1.2c-0.2,0.6-0.4,1.2-0.6,1.8c-0.1,0.3-0.2,0.5-0.3,0.8h12.5l-0.5-2.4
						L133.1,246.1z"/>
					<path class="st13" d="M132.7,242.6l-0.2-0.4l-2.4,1.4v-8.7l1.3-1.7l-0.3-0.3l-1,1.3v-4.7h-0.4v9.7l-1.9-2.3l-0.3,0.4l2.2,2.6
						v12h0.4v-7.7L132.7,242.6z"/>
					<path class="st13" d="M266.7,247.6l-3.6-1.5v-0.7l3.3,0.7l-0.4-2l-2.5-0.9l0.5-0.3l1.9,0.4l-1.5-7.8l-2.2-0.3l2.1-0.3l-1-5.6
						l-2-1.7v-1.3l1.6,0.9l-2.9-15.5l-2.9,15.4l1.8-0.8l-1.9,1.5l-1.2,6.3l1.6-0.7l-0.4,2l-1.6,0.9l-0.1,0.6l2.6-1.1v0.4l-2.7,1.3
						l-0.8,4.5l2.8-0.8v0.5l-3.1,1.7l-0.3,1.5l2.8-1.1l-2.9,1.9l-0.4,2.1l5.9-2.1l-0.5,0.5l-5.5,2.2l-0.3,1.6h14.4L266.7,247.6z"/>
					<path class="st14" d="M263.2,246.1v-0.7l3.3,0.7l-0.4-2l-2.5-0.9l0.5-0.3l1.9,0.4l-1.5-7.8l-2.2-0.3l2.1-0.3l-1-5.6l-1.6-1.4
						c-2.1,6.2-3.9,12.7-6,18.9l3.3-1.2l-0.5,0.5l-3,1.2c-0.2,0.6-0.4,1.2-0.6,1.8c-0.1,0.3-0.2,0.5-0.3,0.8h12.5l-0.5-2.4
						L263.2,246.1z"/>
					<path class="st13" d="M262.8,242.6l-0.2-0.4l-2.4,1.4v-8.7l1.3-1.7l-0.3-0.3l-1,1.3v-4.7h-0.4v9.7l-1.9-2.3l-0.3,0.4l2.2,2.6
						v12h0.4v-7.7L262.8,242.6z"/>
					<path class="st13" d="M322.4,248.8l-3.6-1.5v-0.7l3.3,0.7l-0.4-2l-2.5-0.9l0.5-0.3l1.9,0.4l-1.5-7.8l-2.2-0.3l2.1-0.2l-1-5.6
						l-1.9-1.7v-1.3l1.6,0.9l-2.9-15.5l-2.9,15.4l1.7-0.8l-1.9,1.5l-1.2,6.3l1.6-0.7l-0.4,2l-1.6,0.9l-0.1,0.6l2.6-1.1v0.4l-2.7,1.3
						l-0.9,4.5l2.8-0.8v0.5l-3.1,1.7l-0.3,1.5l2.8-1.1l-2.9,1.9l-0.4,2.1l5.9-2.1l-0.5,0.5l-5.5,2.2l-0.3,1.6h14.4L322.4,248.8z"/>
					<path class="st14" d="M318.8,247.3v-0.7l3.3,0.7l-0.4-2l-2.5-0.9l0.5-0.3l1.9,0.4l-1.5-7.8l-2.2-0.3l2.1-0.3l-1-5.6l-1.6-1.4
						c-2.1,6.2-3.9,12.7-6,18.9l3.3-1.2l-0.5,0.5l-3,1.2c-0.2,0.6-0.4,1.2-0.6,1.8c-0.1,0.3-0.2,0.5-0.3,0.8h12.5l-0.5-2.4
						L318.8,247.3z"/>
					<path class="st13" d="M318.5,243.7l-0.2-0.4l-2.4,1.4V236l1.3-1.7l-0.3-0.3l-1,1.3v-4.7h-0.4v9.7l-1.9-2.3l-0.3,0.4l2.2,2.6v12
						h0.4v-7.7L318.5,243.7z"/>
					<path class="st13" d="M371,247.6l-3.6-1.5v-0.7l3.3,0.7l-0.4-2l-2.5-0.9l0.5-0.3l1.9,0.4l-1.5-7.8l-2.2-0.3l2.1-0.3l-1-5.6
						l-2-1.7v-1.3l1.6,0.9l-2.9-15.5l-2.9,15.4l1.8-0.8l-1.9,1.5l-1.2,6.3l1.6-0.7l-0.4,2l-1.6,0.9l-0.1,0.6l2.6-1.1v0.4l-2.7,1.3
						l-0.8,4.5l2.8-0.8v0.5l-3.1,1.7l-0.3,1.5l2.8-1.1l-3,1.9l-0.4,2.1l5.9-2.1l-0.5,0.5l-5.5,2.2l-0.3,1.6h14.4L371,247.6z"/>
					<path class="st14" d="M367.4,246.1v-0.7l3.3,0.7l-0.4-2l-2.5-0.9l0.5-0.3l1.9,0.4l-1.5-7.8l-2.2-0.3l2.1-0.3l-1-5.6L366,228
						c-2.1,6.2-3.9,12.7-6,18.9l3.3-1.2l-0.5,0.5l-3,1.2c-0.2,0.6-0.4,1.2-0.6,1.8c-0.1,0.3-0.2,0.5-0.3,0.8h12.5l-0.5-2.4
						L367.4,246.1z"/>
					<path class="st13" d="M-42.2,257.6V270h160.4L-42.2,257.6z"/>
					<path class="st13" d="M93.8,261.7l-7.5-2.7v-1.2l6.9,1.2l-0.8-3.7l-5.2-1.7l1-0.5l3.9,0.8l-3.1-14l-4.7-0.5l4.5-0.5l-2.2-10
						l-4.1-3.1v-2.3l3.3,1.6l-6.2-27.9l-6.1,27.7l3.7-1.4l-4,2.7l-2.5,11.3l3.3-1.2l-0.8,3.5l-3.3,1.6l-0.2,1.1l5.6-2v0.7l-5.8,2.3
						l-1.8,8.1l5.9-1.4v1l-6.5,3l-0.6,2.7l5.9-2l-6.2,3.5l-0.8,3.8l12.4-3.7l-1,0.9l-11.7,4l-0.6,2.8h30.4L93.8,261.7z"/>
					<path class="st14" d="M86.3,259v-1.2l6.9,1.2l-0.8-3.7l-5.2-1.7l1-0.5l3.9,0.8l-3.1-14l-4.7-0.5l4.5-0.4l-2.2-10l-3.3-2.5
						c-4.5,11.2-8.3,22.8-12.6,34.1l7.1-2.1l-1,0.9l-6.4,2.2c-0.4,1.1-0.8,2.1-1.2,3.2c-0.2,0.5-0.4,1-0.6,1.4h26.4l-1-4.4L86.3,259
						z"/>
					<path class="st13" d="M85.6,252.6l-0.4-0.8l-5.1,2.5v-15.6l2.8-3l-0.7-0.6l-2.1,2.3v-8.5h-0.9v17.4l-4.1-4.1l-0.6,0.6l4.7,4.7
						v21.6h0.9v-13.8L85.6,252.6z"/>
					<path class="st13" d="M36.8,260.1l-7.5-2.7v-1.2l6.9,1.2l-0.8-3.7l-5.2-1.7l1-0.5l3.9,0.8l-3.1-14l-4.7-0.5l4.5-0.4l-2.2-10
						l-4.1-3.1v-2.3l3.3,1.6l-6.2-27.9l-6.1,27.7l3.7-1.4l-4,2.7l-2.5,11.3l3.3-1.2l-0.9,3.5l-3.3,1.6l-0.2,1.1l5.6-2v0.7l-5.8,2.3
						l-1.8,8.1l5.9-1.4v1l-6.5,3l-0.6,2.7l5.9-2l-6.2,3.5l-0.8,3.8l12.4-3.7l-1,0.9l-11.6,4l-0.6,2.8h30.4L36.8,260.1z"/>
					<path class="st14" d="M29.3,257.4v-1.2l6.9,1.2l-0.8-3.7l-5.2-1.7l1-0.5l3.9,0.8l-3.1-14l-4.7-0.5l4.5-0.4l-2.2-10l-3.3-2.5
						c-4.5,11.2-8.3,22.8-12.6,34.1l7.1-2.1l-1,0.9l-6.4,2.2c-0.4,1.1-0.8,2.1-1.2,3.2c-0.2,0.5-0.4,1-0.6,1.4h26.4l-1-4.4
						L29.3,257.4z"/>
					<path class="st13" d="M28.5,251.1l-0.4-0.8l-5.1,2.5v-15.6l2.8-3l-0.7-0.6l-2.1,2.3v-8.5h-0.9v17.4l-4.1-4l-0.6,0.6l4.7,4.7
						v21.6h0.9v-13.8L28.5,251.1z"/>
					<path class="st13" d="M13.6,264.1c9.2,2.2,13.8,7.6,17.4,13.8c3.2-0.5,6.8-1.8,7.1-1.9c-6.4-12.6-19.2-20.6-37.2-16.8
						c-9.6,1.9-16.4,10.3-20.4,18.7c2.4,0.3,4.2,0.8,6.4,1.1c3.4-4.8,7.5-9.5,13.7-12.2C4.3,264.3,9,263.2,13.6,264.1z"/>
					<path class="st13" d="M13.6,264.1c-4.7-0.9-9.3,0.3-13,2.7c-6.2,2.6-10.3,7.3-13.7,12.2c2.2,0.4,4.8,0.6,8.9,0.5
						c0.9,0,1.9-0.1,2.9-0.1c10.1-0.3,21.9-0.4,31.6-1.5c0.2,0,0.5-0.1,0.7-0.1C27.5,271.7,22.9,266.2,13.6,264.1z M1.5,266.4
						c0.3-0.1,0.7-0.3,1.1-0.4C2.2,266.2,1.9,266.3,1.5,266.4z"/>
					<path class="st13" d="M23.9,255.5c-1.6-1.7-3.3-3.3-5.1-4.9c-2.3-0.4-4.7-0.7-7-1c-4.9-0.6-9.8-1.1-14.7-1.5
						c-13.4,6.1-23.3,17-26.2,29.4c1.2,0,2.2-0.1,3.2-0.1c2.7,0,4.8,0.1,6.5,0.4c4-8.4,10.8-16.8,20.4-18.7
						c18-3.8,30.8,4.2,37.2,16.8c0,0,0,0,0,0c0.3-0.5,0.6-1,0.7-1.5C34.9,267.7,29.7,261.4,23.9,255.5z"/>
					<path class="st13" d="M6.5,271.4l-23.4-8.4v-3.7l21.5,3.8l-2.5-11.4l-16.2-5.2l3-1.6l12.2,2.4l-9.6-43.6l-14.7-1.5l14.1-1.4
						l-6.9-31.2l-12.8-9.6v-7.2l10.2,5L-37.7,71l-19,86.1l11.5-4.5l-12.4,8.4l-7.8,35.2l10.3-3.9l-2.7,10.9l-10.3,5l-0.7,3.3
						l17.4-6.3v2.1l-18,7.1l-5.6,25.3l18.5-4.4v3.1l-20.3,9.3l-1.8,8.2l18.4-6.2l-19.4,10.9l-2.6,12l38.6-11.7l-3.2,2.7l-36.2,12.4
						L-85,285H9.5L6.5,271.4z"/>
					<path class="st14" d="M-16.8,263v-3.7l21.5,3.8l-2.5-11.4l-16.2-5.2l3-1.6l12.2,2.4l-9.6-43.6l-14.7-1.5l14.1-1.4l-6.9-31.2
						l-10.4-7.8c-14.1,34.9-25.9,71-39.3,106l22-6.6l-3.1,2.7l-20,6.9c-1.3,3.3-2.6,6.6-3.9,9.9c-0.6,1.5-1.2,3-1.8,4.5H9.5l-3-13.6
						L-16.8,263z"/>
					<path class="st13" d="M400.4,293.9l-23.4-8.4v-3.7l21.5,3.8l-2.5-11.4l-16.2-5.2l3-1.6l12.2,2.4l-9.6-43.6l-14.7-1.5l14.1-1.4
						l-6.9-31.2l-12.8-9.6v-7.2l10.2,5l-19.1-86.7l-19,86.1l11.5-4.5l-12.4,8.4l-7.8,35.2l10.3-3.9l-2.7,10.9l-10.3,5l-0.7,3.3
						l17.4-6.3v2.1l-18,7.1l-5.6,25.3l18.5-4.4v3.1l-20.3,9.3l-1.8,8.3l18.4-6.2l-19.4,10.9l-2.6,12l38.6-11.6l-3.2,2.7l-36.2,12.4
						l-1.9,8.8h94.5L400.4,293.9z"/>
					<path class="st13" d="M400.4,293.9l-23.4-8.4v-3.7l21.5,3.8l-2.5-11.4l-16.2-5.2l3-1.6l12.2,2.4l-9.6-43.6l-14.7-1.5l14.1-1.4
						l-6.9-31.2l-12.8-9.6v-7.2l10.2,5l-19.1-86.7l-19,86.1l11.5-4.5l-12.4,8.4l-7.8,35.2l10.3-3.9l-2.7,10.9l-10.3,5l-0.7,3.3
						l17.4-6.3v2.1l-18,7.1l-5.6,25.3l18.5-4.4v3.1l-20.3,9.3l-1.8,8.3l18.4-6.2l-19.4,10.9l-2.6,12l38.6-11.6l-3.2,2.7l-36.2,12.4
						l-1.9,8.8h94.5L400.4,293.9z"/>
				</g>
			</g>
		</g>
		<g>
			<defs>
				<rect id="SVGID_5_" x="40" y="5" width="282" height="100.8"/>
			</defs>
			<clipPath id="SVGID_6_">
				<use xlink:href="#SVGID_5_"  style="overflow:visible;"/>
			</clipPath>
			<g class="st15">
				<path d="M162.2,97.6c-9-1.9-9.9-1.2-12,8c-0.3,0.1-0.7,0.1-1,0.1c-0.5-3.9-1-7.8-1.5-11.9c3.5-2.1,4.2-8.1,10.3-8.2
					c-0.7,1-1.4,1.8-1.9,2.6c-2.1,3.1-1.2,5.2,2.5,6.3C159.7,94.9,160.6,96.3,162.2,97.6z"/>
				<path d="M99.4,84.5c0.6-2.7,5-4.6,2.1-8.4c2.4-1.9,2.9-2.8,2.3-13.4c0.3-0.1,0.7-0.2,1-0.4c0.9,2.7,2.3,5.4,2.7,8.2
					c0.7,5,0.5,5.1,6.4,4.4c-1.6,0.9-2.4,1.9-3.2,1.9c-2.9-0.1-4.6,1.5-6.1,3.7c-1.2,1.7-2.9,3.2-4.4,4.7
					C99.9,85,99.7,84.7,99.4,84.5z"/>
				<path d="M217.2,79.8c1.9-0.2,3.7-0.5,5.6-0.7c-1.3,4.6-6.4,1.4-8.7,4.8c0-0.1,0.1,0.6,0.3,1.3c-0.3,0.2-0.7,0.3-1,0.5
					c-1.3-2.2-2.7-4.3-4-6.6c-1.3-2.4,0.3-2.3,1.9-2.1c0.7,0.1,1.8,0.4,2,0.2c2.4-4,6.2-2.1,9.6-2.1c-1.1,0.5-2.3,0.9-3.4,1.4
					c-1.2,0.6-2.3,1.2-3.4,1.9C216.5,78.9,216.9,79.4,217.2,79.8z"/>
				<path d="M312.1,5c1.8,2.5,3.5,4.1,4.3,6.1c1,2.8,1.9,5.2,5.7,5.2c-1.4,0.7-3.3,1-4.2,2.1c-1,1.2-0.8,3.2-1.6,4.6
					c-0.9,1.8-2.2,3.4-3.3,5c-0.3-0.2-0.6-0.3-0.9-0.5c0.5-1.1,0.7-2.4,1.5-3.4c2.3-2.9-1.3-5.6,0.3-9C314.9,13,312.9,9.3,312.1,5z"
					/>
				<path d="M73.1,63c-3.8-0.3-7.5-0.6-11.3-1c4.6-2.8,0.4-6.4,1.5-9.7c1.1,1.3,2,2.5,3.1,3.9c0.2-1.6,0.4-2.9,0.6-4.2
					c0.3-0.1,0.6-0.1,0.9-0.2c0.4,1.7,1.4,3.7,1,5.2c-0.9,3.1,0.2,4.4,3.2,4.9c0.4,0.1,0.8,0.4,1.2,0.6C73.3,62.7,73.2,62.8,73.1,63
					z"/>
				<path d="M298.1,34.3c-6.5-1.2-5.8,7.4-10.4,7.5c0.8-2.9,0.8-6.6,2.6-8.7c2.8-3.2,1.6-6.4,1.6-9.6c0.3-0.1,0.6-0.2,0.9-0.3
					c0.6,1.9,1.7,3.7,1.7,5.6C294.5,31.4,294.9,33.4,298.1,34.3z"/>
				<path d="M75.7,82.5c0,3.2,0,6.5,0,10.1c0.5,0.3,1.5,0.8,2.7,1.5c-2.2,0.4-4.3,0.5-6,1.3c-1.9,0.8-3.4,2.2-5.2,3.3
					C70.1,93.2,72.8,88,75.7,82.5z"/>
				<path d="M167.7,63.2c-0.3-6.2,3.9-10.2,8.5-9.6c-3.7,2.1-3.1,4.3,0.6,6.6c-2.6-0.2-4.4-0.9-5.7-0.4
					C169.8,60.2,168.9,61.9,167.7,63.2z"/>
				<path d="M262.4,28c1,2.3,1.9,4.6,3,7.3c0.4,0.1,1.3,0.2,1.8,0.3c-2,2.2-4.1,4.4-6.3,6.9c0.5-2.5,1.1-4.6,1.2-6.8
					c0.1-2.4-0.3-4.9-0.5-7.3C261.9,28.3,262.2,28.2,262.4,28z"/>
				<path d="M90.6,47.6c-3.5-3.7-2.7-8.6,1.4-11.2c0.1,1.3-0.2,3,0.4,4c0.6,0.8,2.3,0.9,4,1.5c-2.1,0.7-3.9,0.8-4.7,1.7
					C90.9,44.5,90.9,46.2,90.6,47.6z"/>
				<path d="M197.9,60.3c-0.9,1.2-1.8,2.4-2.9,4c1.4,0.1,2.3,0.2,4.1,0.3c-1.6,1-2.4,1.5-3.4,2.1c0.7,1.2,1.3,2.3,1.9,3.5
					c-0.2,0.2-0.3,0.4-0.5,0.6c-2.1-1.8-4.2-3.5-6.7-5.7c2.4-1.9,4.6-3.7,6.9-5.5C197.5,59.8,197.7,60,197.9,60.3z"/>
				<path d="M41.2,69.5c0.9,1.1,1.5,1.8,2.4,2.8c0.2-1.2,0.3-2.2,0.4-3.3c0.4,0.2,0.8,0.2,0.9,0.4c0.3,1,1,2.2,0.7,3
					c-0.8,2.6,0.1,4,2.4,5.2c-2.6-0.2-5.2-0.4-7.2-0.6C41,74.5,41.1,72.2,41.2,69.5z"/>
				<path d="M229.1,28.4c2.1-3.4,4.5-7.1,6.9-10.8c2.8,2.1-3.5,6.6,1,8.4C234.3,26.8,231.4,27.7,229.1,28.4z"/>
				<path d="M146.1,52.4c-0.6-1.6-1.3-3.6-2.3-6.1c2.4-0.6,4.6-1.1,6.9-1.7c0.1,0.3,0.2,0.6,0.3,0.9c-1,0.6-2.1,1.2-3.4,1.9
					c0.9,0.6,1.5,1,1.7,1.1C148.3,49.7,147.3,50.9,146.1,52.4z"/>
				<path d="M45.3,44.2c-1.4-0.5-3.5-1.3-5.3-2c0.8-2,1.4-3.8,2.2-5.8c0.4,0.6,0.8,1.2,1.3,2c0.4-0.5,0.9-1.2,1.8-2.5
					C45.3,39.2,45.3,41.6,45.3,44.2z"/>
				<path d="M124.4,34c1,1.2,2,2.4,2.8,3.3c-0.7,1.3-1.7,3.1-2.7,4.7C121.8,39.6,121.8,36.2,124.4,34z"/>
				<path d="M210.3,21.3c0-3.7,0-7,0-10.8c1.3,2.1,2.4,3.9,3.3,5.2C212.6,17.4,211.5,19.2,210.3,21.3z"/>
			</g>
		</g>
	</g>
</g>
<g id="Capa_2">
	<path class="st13" d="M61.1,293.5c-1.7-1.7-3.4-3.4-5.2-5.1c-2.4-0.4-4.8-0.7-7.2-1.1c-5-0.7-10.1-1.2-15.2-1.5
		c-13.8,6.3-24,17.8-27,30.7c1.2,0,2.3-0.1,3.3-0.1c2.8,0,4.9,0.1,6.7,0.4c0,0,0,0,0,0c2.5,0.3,4.4,0.8,6.5,1.1c0,0,0,0,0,0
		c0,0,0,0,0,0c2.3,0.4,5,0.7,9.2,0.5c1,0,1.9-0.1,2.9-0.1c10.4-0.3,22.5-0.4,32.5-1.5c0.2,0,0.5-0.1,0.7-0.1c0,0,0,0,0,0
		c3.2-0.5,6.9-1.8,7.3-2c0,0,0,0,0,0c0,0,0,0,0,0c0,0,0,0,0,0c0.3-0.5,0.6-1,0.8-1.5C72.4,306.2,67.1,299.7,61.1,293.5z"/>
	<path class="st13" d="M84.1,287.8c-1-1.1-2.1-2.1-3.2-3.1c-1.5-0.2-2.9-0.5-4.4-0.6c-3.1-0.4-6.2-0.7-9.3-0.9
		c-8.4,3.9-14.7,10.9-16.5,18.8c0.7,0,1.4,0,2,0c1.7,0,3,0.1,4.1,0.2c0,0,0,0,0,0c1.5,0.2,2.7,0.5,4,0.7c0,0,0,0,0,0c0,0,0,0,0,0
		c1.4,0.2,3,0.4,5.6,0.3c0.6,0,1.2,0,1.8,0c6.4-0.2,13.8-0.3,19.9-0.9c0.1,0,0.3,0,0.5-0.1c0,0,0,0,0,0c2-0.3,4.3-1.1,4.5-1.2
		c0,0,0,0,0,0c0,0,0,0,0,0c0,0,0,0,0,0c0.2-0.3,0.3-0.6,0.5-0.9C91,295.6,87.8,291.6,84.1,287.8z"/>
	<path class="st13" d="M116.7,267.3c-0.4-0.4-0.7-0.7-1.1-1.1c-0.5-0.1-1-0.2-1.5-0.2c-1.1-0.1-2.1-0.2-3.2-0.3
		c-0.7,0.3-1.3,0.7-1.9,1.1c-0.7-0.9-1.5-1.7-2.3-2.5c-0.7-0.7-1.5-1.5-2.2-2.2c-1-0.2-2-0.3-3.1-0.5c-2.1-0.3-4.3-0.5-6.5-0.7
		c-4.5,2.1-8.2,5.5-10.1,9.4h34.6C118.5,269.3,117.6,268.3,116.7,267.3z"/>
	<path class="st13" d="M134.3,267.3c-0.4-0.4-0.7-0.7-1.1-1.1c-0.5-0.1-1-0.2-1.5-0.2c-1.1-0.1-2.1-0.2-3.2-0.3
		c-2.3,1-4.1,2.8-5.1,4.8h13.5C136.2,269.3,135.3,268.3,134.3,267.3z"/>
	<g>
		<path class="st13" d="M323.1,289.8c-1.7-1.7-3.4-3.4-5.2-5.1c-2.4-0.4-4.8-0.7-7.2-1.1c-5-0.7-10.1-1.2-15.2-1.5
			c-13.8,6.3-24,17.8-27,30.7c1.2,0,2.3-0.1,3.3-0.1c2.8,0,4.9,0.1,6.7,0.4c0,0,0,0,0,0c2.5,0.3,4.4,0.8,6.5,1.1c0,0,0,0,0,0
			c0,0,0,0,0,0c2.3,0.4,5,0.7,9.2,0.5c1,0,1.9-0.1,2.9-0.1c10.4-0.3,22.5-0.4,32.5-1.5c0.2,0,0.5-0.1,0.7-0.1c0,0,0,0,0,0
			c3.2-0.5,6.9-1.8,7.3-2c0,0,0,0,0,0c0,0,0,0,0,0c0,0,0,0,0,0c0.3-0.5,0.6-1,0.8-1.5C334.5,302.5,329.1,295.9,323.1,289.8z"/>
	</g>
	<rect x="353.8" y="303.1" class="st13" width="4.2" height="23.5"/>
	<polygon class="st13" points="360,113 355.8,93.8 336.7,179.9 348.2,175.5 335.9,183.8 328.1,219 338.4,215.1 335.7,226 325.5,231 
		324.7,234.3 342.1,228 342.1,230.1 324.1,237.3 318.5,262.6 337,258.2 337,261.3 316.7,270.6 314.9,278.9 333.2,272.7 313.8,283.6 
		311.2,295.5 349.8,283.9 346.7,286.6 310.4,299 308.5,307.8 360,307.8 	"/>
</g>
</svg>
