<?xml version="1.0" encoding="utf-8"?>
<!-- Generator: Adobe Illustrator 25.3.1, SVG Export Plug-In . SVG Version: 6.00 Build 0)  -->
<svg version="1.1" id="Capa_1" xmlns="http://www.w3.org/2000/svg" xmlns:xlink="http://www.w3.org/1999/xlink" x="0px" y="0px"
	 viewBox="0 0 1920 143.7" style="enable-background:new 0 0 1920 143.7;" xml:space="preserve">
<style type="text/css">
	.st0{fill:#ED80A4;}
	.st1{fill:#F29ABA;}
</style>
<g>
	<path class="st0" d="M1354.8,113l-15.8,4l44.5-66c0,0,0.1,0.2,0.4,0.7c2.3-3,5-5.3,8.5-6.1c-2.8,3.4-3.5,8.2-4.4,12.8
		c0.5,0.9,1.1,1.9,1.7,2.9c10.9-8.1,23.2-15.1,29.8-29.3c1.3-2.2-6.6-3.1-11-3.9c17.3-7.7,35-13.6,53.6-15.2
		c4.9,13.5,15,21.3,21.9,32.5c-1.2-5.2-3-10.3-6.8-14c2.9-0.7,5,3.4,7.3,5.6c10.5,9.4,21.1,18.9,31.4,27.6c-7.2-2.9-13.9-5.9-20.9-8
		c15,11.3,31.4,17.5,45.6,17c3.6,0.1,4.8-14.9,11.6-16.5c-0.9,1-1.8,2.2-2,4.2c9.1,1.9,38,14.4,46.5,19.7
		c-6.7,8.4-13.5,18.1-20.1,26.5c-37.1-8.1-69.7,9.9-106.9-4c-5.4-2.5-29.2-6.8-32.6-6l-26,1.7L1397,79.5l-9.3,11.3l6,17.4l-28.8,2.9
		C1361.5,111.6,1358.1,112.2,1354.8,113z"/>
	<path class="st1" d="M1553.2,55.8c-6.8,1.6-13,10.3-20.2,10.2c-8-0.9-16.2-8.2-24.2-14.6c-16.4-11.8-30.8-24.9-45.2-40.9
		c-28.6,10.4-64.5-3.3-83.3,35.9c-0.2,0.5-0.3,0.8-0.6,1.2l-28,50.6c2.9-4.5,35.9-51.8,40.8-52.9c-3.7,4.6-3.8,11.9-5.4,17.8
		c11.5-9.2,25.5-16,32.5-31.4c1.3-2.1-6.7-3-11-3.9c17.2-7.7,34.9-13.6,53.6-15.2c4.9,13.6,15,21.3,21.9,32.5
		c-1.2-5.2-3-10.3-6.8-14c2.8-0.6,5,3.4,7.3,5.6c10.5,9.5,21.1,18.9,31.4,27.6c-7.2-2.9-13.9-6-20.9-8c15.1,11.2,31.5,17.5,45.6,17
		c3.6,0.1,4.8-14.9,11.6-16.5c-0.9,1.2-1.9,2.2-2,4.2c9.1,1.9,17.8,5.8,26.5,11.2c1.8-2.2,3.6-4.6,5.4-6.8
		C1572,60.2,1561.9,55.3,1553.2,55.8z"/>
</g>
<g>
	<path class="st0" d="M1587.7,100.6l-20.3,0.4l72.7-67.7c0,0,0.1,0.3,0.3,0.9c3.6-3,7.5-5,12-5c-4.3,3.3-6.6,9-9,14.4
		c0.4,1.2,0.8,2.6,1.3,4c15.6-6.7,32.5-11.8,44.5-27.2c2.2-2.3-7.2-5.7-12.3-7.9c23.3-4.5,46.4-6.7,69.5-3.4
		c2.2,17.8,12.3,30.2,17.4,45.7c0-6.7-0.8-13.4-4.3-18.9c3.7,0,5.1,5.5,7.3,8.9c10.1,14.4,20.3,29,30.4,42.4
		c-7.9-5.5-15.2-11.1-23.1-15.6c15.1,17.9,33.2,30.2,50.6,33.5c4.3,1.2,10.1-16.8,18.8-16.8c-1.4,1-2.8,2.2-3.6,4.5
		c10.5,4.9,20.1,12.2,29,21.1c-10.5,8.4-21,12.8-31.3,21.1c-42.8-20.3-66.1,13.7-107.3-13.7c-5.9-4.5-33.6-16.5-37.9-16.5l-32.1-5.3
		l-11.8-27.7l-14.5,11.1l2.4,22.9l-35.8-4.6C1596.3,100.8,1592,100.5,1587.7,100.6z"/>
	<path class="st1" d="M1845,87.1c-8.7,0-18.8,8.9-27.5,6.7c-9.5-3.4-17.4-14.6-25.3-24.6c-16.6-18.9-30.4-39-43.5-62.5
		c-37.7,4.5-77.4-22.3-111.4,20.1c-0.4,0.5-0.6,0.8-1,1.3L1588,81.8c4.9-4.7,58.3-52.8,64.6-52.8c-5.8,4.5-7.9,13.4-11.6,20.1
		c16.6-7.9,35.5-12.2,48.4-29c2.2-2.2-7.3-5.5-12.3-7.9c23.1-4.5,46.3-6.7,69.5-3.4c2.2,17.9,12.3,30.2,17.4,45.7
		c0-6.7-0.8-13.4-4.3-18.9c3.6,0,5.1,5.5,7.3,8.9c10.1,14.6,20.3,29,30.4,42.4c-7.9-5.5-15.2-11.2-23.1-15.6
		c15.2,17.9,33.4,30.2,50.6,33.5c4.3,1.2,10.1-16.8,18.8-16.8c-1.4,1.2-2.9,2.2-3.6,4.5c10.5,4.9,20.1,12.1,29,21.1
		c2.8-2.2,5.6-4.5,8.4-6.7C1866.6,97.8,1855.8,89,1845,87.1z"/>
</g>
<g>
	<g>
		<path class="st0" d="M1002.3,43c0.2,0.1,0.5,0.4,0.7,0.7c25.7,29.9,51.5,54.5,77.9,76.1c6.1-3.6,12.2-7.6,18.3-11.5
			c8.4,11.2,20.2-7.6,29.7-12.2c1.5-0.7,3.1-1.3,4.6-1.8c-0.7-0.4-1.3-0.7-2-1c-9-6.6-17-16-26.6-17.8c2.2,5.6,4.8,10.2,6.9,15.9
			c-10.7-2.8-19.7-21.5-22.9-39.3c5.3,1,10,4.6,15.4,5.6c-10-18.7-27-15.9-40.3-24.3c2.2,2.8,3.8,6.5,5.3,10.2c-9-7-17.8-16-26.9-23
			c-4.6-1.3-9.3-2.2-14-3.2c-1.6,0-3.8,2.8-4.8,4.6c-4.3,7.4-8.5,14.9-13.3,18.7C1007.8,42.3,1005,42.3,1002.3,43z"/>
		<path class="st1" d="M1131.6,93c0.7,0.3,1.3,0.6,2,1c5.2-2,10.2-3.5,15.3-5.6c-11,1.4-22.2-2.8-31.6-11.4
			c-7.4-6.6-10.6-28.1-19.1-33.7c-17.9-10.5-36.6-18.1-55.6-23c9,7,17.8,16,26.9,23c-1.6-3.6-3.2-7.4-5.3-10.2
			c13.2,8.4,30.2,5.6,40.3,24.3c-5.3-1-10-4.6-15.4-5.6c3.2,17.8,12.3,36.5,22.9,39.3c-2.2-5.6-4.8-10.2-6.9-15.9
			C1114.5,77.1,1122.5,86.4,1131.6,93z"/>
	</g>
	<g>
		<path class="st0" d="M1037.1,23.7c-4.7-3.8-8.8-11.4-13.1-19c-1-1.9-3.1-4.7-4.7-4.7c-4.6,1-9.2,2-13.7,3.3
			c-8.9,7.1-17.6,16.2-26.4,23.4c1.6-3.8,3.1-7.6,5.2-10.4c-13.1,8.6-29.7,5.7-39.6,24.7c5.2-1,9.9-4.7,15.1-5.7
			c-3.1,18.1-12,37.1-22.5,39.9c2.1-5.7,4.7-10.4,6.8-16.1c-9.4,1.9-17.2,11.4-26,18.1c-0.6,0.3-1.3,0.6-1.9,1
			c1.5,0.6,3,1.1,4.5,1.9c9.4,4.7,20.9,23.8,29.2,12.4c6,4,12,8,17.9,11.7c25.9-22,51.2-46.9,76.4-77.3c0.2-0.3,0.5-0.6,0.6-0.7
			C1042.3,25.4,1039.6,25.4,1037.1,23.7z"/>
		<path class="st1" d="M944.3,58.7c-2.1,5.7-4.7,10.4-6.8,16.1C947.9,72,956.8,53,960,34.9c-5.2,1-9.9,4.7-15.1,5.7
			c9.9-19,26.6-16.1,39.6-24.7c-2.1,2.9-3.7,6.7-5.2,10.4c8.9-7.1,17.6-16.2,26.4-23.4c-18.7,5-37,12.7-54.6,23.4
			c-8.4,5.7-11.5,27.5-18.8,34.2c-9.2,8.7-20.2,13-31,11.5c5,2.1,9.9,3.7,15,5.7c0.6-0.4,1.3-0.7,1.9-1
			C927.1,70.1,934.9,60.7,944.3,58.7z"/>
	</g>
	<g>
		<path class="st0" d="M644.8,93.6c-4.1-7.8-5.2-19.7-6.5-31.8c-0.3-2.9-1.5-7.8-3.6-8.8c-6.8-1.7-13.6-3.4-20.4-4.7
			C598,51.3,581,57,564.9,60.2c4.4-3.8,8.7-7.3,13.2-9.5c-22.7,2.2-43.5-12-67.9,5.1c7.7,2.1,16.2,0.6,23.7,2.6
			C519,78.7,496,96.5,480.2,93.3c6.2-5.7,12.4-9.8,18.6-15.5c-13.8-3.7-29.9,3-45.8,5.7c-1-0.1-2.1-0.1-3.2,0c1.7,1.6,3.4,3.4,5,5.2
			c9.9,11.8,14.3,42.8,32.1,34c5.7,8.8,11.5-0.5,17.4,7.9c47.8-10.5,96.6-7.1,148.5-28.4c0.4-0.2,1-0.4,1.3-0.5
			C650.9,99.1,647.2,97.3,644.8,93.6z"/>
		<path class="st1" d="M499,77.4c-6.2,5.7-12.4,9.8-18.6,15.5c15.7,3.1,38.9-14.5,53.7-34.9c-7.7-2.1-16.2-0.6-23.7-2.6
			c24.5-17,45.4-2.8,67.9-5.1c-4.5,2.2-8.9,5.9-13.2,9.5c16.2-3.1,33.3-8.8,49.4-11.9C586.3,42,557,39.8,527,41.7
			c-14.7,1.7-31.7,26.6-45.4,30.2c-17.5,4.8-35,3-48.7-5.6c5.5,5.8,11.2,11,16.9,16.7c1.1-0.1,2.2-0.1,3.2,0
			C469,80.4,485.1,73.8,499,77.4z"/>
	</g>
	<g>
		<path class="st0" d="M589.9,96.2c-8.2,2.5-15.7,6.3-22.7,10.8c8.2,4.3,16.4,8.6,24.5,12.9c33.5-10.4,66.7-20.4,99-34.4
			c4.6-2.3,10.8-5.7,14.2-5.7c14.7-0.9,30.9,3.7,44.4,11.8V68.1c-3.8-2.5-7.8-4.5-12.7-4.5c4.6,2.3,6.3,6.9,9.1,10.3
			c-13-3.9-27.7-6.3-37.9-14.8c-1.7-1.2,5.6-2.9,9.6-4c-18.2-2.3-36.3-3.4-54.4-1.7c-1.7,9.1-9.6,15.4-13.6,23.4
			c0-3.4,0.6-6.9,3.4-9.7c-2.9,0-4,2.8-5.7,4.5c-7.9,7.4-15.9,14.8-23.8,21.7c6.2-2.8,11.9-5.7,18.1-8c-11.8,9.2-26,15.4-39.6,17.1
			c-3.4,0.6-7.9-8.6-14.7-8.6C588.2,94.4,589.3,95,589.9,96.2z"/>
		<path class="st1" d="M560.5,103.4c2.2,1.1,4.4,2.3,6.6,3.4c7-4.6,14.5-8.3,22.7-10.8c-0.5-1.2-1.7-1.7-2.8-2.3
			c6.8,0,11.3,9.2,14.7,8.6c13.5-1.7,27.7-8,39.6-17.1c-6.2,2.2-11.9,5.1-18.1,8c7.9-6.9,15.9-14.2,23.8-21.7
			c1.7-1.7,2.9-4.5,5.7-4.5c-2.8,2.8-3.4,6.3-3.4,9.7c4-8,11.9-14.2,13.6-23.4c18.2-1.7,36.3-0.6,54.4,1.7c-3.9,1.2-11.3,2.9-9.6,4
			c10.1,8.6,24.9,10.8,37.9,14.8c-2.9-3.4-4.6-8-9.1-10.3c4.9,0,8.9,2.1,12.7,4.5v-5c-0.3-0.3-0.5-0.4-0.8-0.7
			c-26.6-21.7-57.7-8-87.2-10.3c-10.2,12-21,22.3-34,32c-6.2,5.1-12.4,10.9-19.8,12.6c-6.8,1.1-14.7-3.4-21.5-3.4
			C577.5,94.2,569,98.7,560.5,103.4z"/>
	</g>
	<g>
		<path class="st0" d="M330.4,51.3c0.3,0.1,0.6,0.3,0.9,0.5c34.5,23,69.1,41.8,104.5,58.5c8.2-2.8,16.4-5.8,24.5-8.8
			c11.3,8.6,27.1-5.8,39.9-9.4c2-0.5,4.2-1,6.2-1.4c-0.9-0.3-1.8-0.5-2.6-0.8c-12.1-5.1-22.8-12.3-35.6-13.7
			c2.9,4.3,6.4,7.9,9.3,12.2c-14.4-2.2-26.4-16.5-30.7-30.2c7,0.8,13.5,3.6,20.6,4.3c-13.5-14.3-36.3-12.2-54.1-18.7
			c2.9,2.2,5,5,7.2,7.9c-12.1-5.4-23.9-12.3-36.1-17.7c-6.2-1-12.5-1.7-18.8-2.5c-2.1,0-5,2.2-6.4,3.6c-5.8,5.7-11.5,11.4-17.9,14.3
			C337.8,50.8,334.1,50.8,330.4,51.3z"/>
		<path class="st1" d="M503.9,89.7c0.9,0.2,1.8,0.4,2.6,0.8c6.9-1.5,13.7-2.7,20.5-4.3c-14.7,1.1-29.8-2.2-42.4-8.7
			c-9.9-5.1-14.2-21.6-25.7-25.9c-24-8.1-49.1-13.9-74.7-17.7c12.1,5.4,23.9,12.3,36.1,17.7c-2.1-2.8-4.3-5.7-7.2-7.9
			c17.7,6.5,40.5,4.3,54.1,18.7c-7-0.8-13.5-3.6-20.6-4.3c4.3,13.7,16.5,28,30.7,30.2c-2.9-4.3-6.4-7.9-9.3-12.2
			C481,77.5,491.7,84.6,503.9,89.7z"/>
	</g>
	<path class="st0" d="M162.2,86.9c-6.8,0-11.3,10.7-14.7,10c-13.6-2-27.8-9.3-39.6-20c6.2,2.7,11.9,6,18.1,9.3
		c-7.9-8-15.9-16.7-23.8-25.3c-1.7-2-2.8-5.3-5.7-5.3c2.8,3.3,3.4,7.3,3.4,11.3c-4-9.3-11.9-16.7-13.6-27.3c-18.1-2-36.2-0.7-54.4,2
		c4,1.3,11.3,3.3,9.6,4.7C31.3,56.3,16.6,59,3.6,63.6c2.8-4,4.5-9.3,9.1-12C7.8,51.6,3.8,54,0,56.9v27.2
		c13.5-9.5,29.7-14.9,44.4-13.8c3.4,0,9.6,4,14.2,6.7c32.3,16.4,65.5,28.1,99,40.2c8.1-5,16.3-10,24.5-15c-7-5.3-14.5-9.7-22.7-12.6
		C160,88.2,161.1,87.5,162.2,86.9z"/>
	<path class="st1" d="M163.4,86.2c-6.8,0-14.7,5.3-21.5,4c-7.4-2-13.6-8.7-19.8-14.7c-13-11.3-23.8-23.3-34-37.3
		c-29.5,2.7-60.6-13.3-87.2,12c-0.3,0.3-0.5,0.5-0.8,0.8v5.8c3.8-2.8,7.8-5.3,12.7-5.3c-4.5,2.7-6.2,8-9.1,12
		c13-4.7,27.8-7.3,37.9-17.3c1.7-1.3-5.7-3.3-9.6-4.7c18.1-2.7,36.2-4,54.4-2c1.7,10.7,9.6,18,13.6,27.3c0-4-0.6-8-3.4-11.3
		c2.8,0,4,3.3,5.7,5.3c7.9,8.7,15.9,17.3,23.8,25.3c-6.2-3.3-11.9-6.7-18.1-9.3c11.9,10.7,26.1,18,39.6,20c3.4,0.7,7.9-10,14.7-10
		c-1.1,0.7-2.3,1.3-2.8,2.7c8.2,2.9,15.7,7.2,22.7,12.6c2.2-1.3,4.4-2.7,6.6-4C180.3,92.6,171.8,87.3,163.4,86.2z"/>
	<g>
		<path class="st0" d="M373.7,50.9c-5.1-2.7-9.6-8-14.2-13.3c-1.1-1.3-3.4-3.3-5.1-3.3c-5,0.7-10,1.4-14.9,2.3
			c-9.7,5-19.1,11.4-28.7,16.4c1.7-2.7,3.4-5.3,5.7-7.3c-14.2,6-32.3,4-43,17.3c5.7-0.7,10.8-3.3,16.4-4c-3.4,12.7-13,26-24.4,28
			c2.3-4,5.1-7.3,7.4-11.3c-10.2,1.3-18.7,8-28.3,12.7c-0.7,0.2-1.4,0.4-2.1,0.7c1.6,0.4,3.3,0.8,4.9,1.3
			c10.2,3.3,22.7,16.7,31.7,8.7c6.5,2.8,13,5.6,19.5,8.2c28.1-15.4,55.6-32.9,83-54.2c0.2-0.2,0.5-0.4,0.7-0.5
			C379.4,52.1,376.4,52.1,373.7,50.9z"/>
		<path class="st1" d="M272.9,75.5c-2.3,4-5.1,7.3-7.4,11.3c11.3-2,21-15.3,24.4-28c-5.7,0.7-10.8,3.3-16.4,4
			c10.8-13.3,28.9-11.3,43-17.3c-2.3,2-4,4.7-5.7,7.3c9.7-5,19.1-11.4,28.7-16.4c-20.3,3.5-40.2,8.9-59.3,16.4
			c-9.1,4-12.5,19.3-20.4,24c-10,6.1-22,9.1-33.7,8.1c5.4,1.5,10.8,2.6,16.3,4c0.7-0.3,1.4-0.5,2.1-0.7
			C254.2,83.5,262.7,76.9,272.9,75.5z"/>
	</g>
	<g>
		<path class="st0" d="M1198.1,68.1c-2.1-7.3-2.7-18.6-3.3-29.9c-0.1-2.8-0.7-7.4-1.8-8.3c-3.4-1.6-6.9-3.2-10.4-4.5
			c-8.2,2.9-16.9,8.3-25,11.2c2.2-3.5,4.4-6.9,6.7-8.9c-11.5,2.1-22.1-11.3-34.4,4.8c3.9,2,8.2,0.5,12,2.5
			c-7.5,19.1-19.2,35.8-27.2,32.8c3.1-5.3,6.3-9.3,9.5-14.6c-7-3.5-15.2,2.9-23.2,5.3c-0.5-0.1-1.1-0.1-1.6,0
			c0.8,1.6,1.7,3.2,2.5,4.9c5,11.1,7.2,40.2,16.3,32c2.9,8.2,5.8,16.5,8.8,24.4c24.2-9.9,49-23.6,75.3-43.7c0.2-0.2,0.5-0.4,0.7-0.4
			C1201.2,73.3,1199.3,71.6,1198.1,68.1z"/>
		<path class="st1" d="M1124.1,52.9c-3.1,5.3-6.3,9.3-9.5,14.6c8,3,19.7-13.7,27.2-32.8c-3.9-2-8.2-0.5-12-2.5
			c12.4-16,23-2.7,34.4-4.8c-2.3,2-4.5,5.6-6.7,8.9c8.2-2.9,16.9-8.3,25-11.2c-14.3-5.5-29.1-7.6-44.3-5.8c-7.4,1.6-16.1,25-23,28.4
			c-8.9,4.5-17.7,2.9-24.7-5.3c2.8,5.5,5.7,10.3,8.6,15.7c0.6-0.1,1.1-0.1,1.6,0C1109,55.8,1117.1,49.6,1124.1,52.9z"/>
	</g>
	<g>
		<path class="st0" d="M1155.1,80c-5.7,3.2-11,8.1-15.8,14c5.7,5.5,11.4,11.1,17.1,16.6c23.4-13.4,46.5-26.4,69.1-44.6
			c3.2-3,7.5-7.4,9.9-7.4c10.3-1.2,21.6,4.8,31,15.3V43.7c-2.7-3.2-5.4-5.9-8.9-5.9c3.2,3,4.4,8.9,6.3,13.3
			c-9.1-5.1-19.3-8.1-26.4-19.2c-1.2-1.6,3.9-3.8,6.7-5.2c-12.7-3-25.3-4.4-38-2.2c-1.2,11.8-6.7,20-9.5,30.3
			c0-4.4,0.4-8.9,2.4-12.5c-2,0-2.8,3.7-4,5.9c-5.5,9.5-11.1,19.2-16.6,28c4.3-3.7,8.3-7.3,12.6-10.3c-8.2,11.9-18.1,20-27.6,22.2
			c-2.4,0.8-5.5-11.1-10.3-11.1C1153.9,77.7,1154.7,78.4,1155.1,80z"/>
		<path class="st1" d="M1134.6,89.4c1.5,1.4,3.1,3,4.6,4.4c4.9-6,10.1-10.8,15.8-14c-0.3-1.6-1.2-2.2-2-3c4.7,0,7.9,11.9,10.3,11.1
			c9.4-2.2,19.3-10.3,27.6-22.2c-4.3,2.9-8.3,6.7-12.6,10.3c5.5-8.9,11.1-18.4,16.6-28c1.2-2.2,2-5.9,4-5.9c-2,3.7-2.4,8.1-2.4,12.5
			c2.8-10.3,8.3-18.4,9.5-30.3c12.7-2.2,25.3-0.8,38,2.2c-2.7,1.6-7.9,3.8-6.7,5.2c7,11.1,17.4,14,26.4,19.2
			c-2-4.4-3.2-10.3-6.3-13.3c3.4,0,6.2,2.8,8.9,5.9v-6.4c-0.2-0.3-0.3-0.6-0.6-0.9c-18.6-28-40.3-10.3-60.8-13.3
			c-7.1,15.5-14.7,28.8-23.7,41.3c-4.3,6.7-8.7,14.1-13.8,16.3c-4.7,1.4-10.3-4.4-15-4.4C1146.5,77.4,1140.5,83.3,1134.6,89.4z"/>
	</g>
	<g>
		<path class="st0" d="M772.5,82.1l2.4,22.9l-35.8-4.6c-4.2-0.5-8.5-0.8-12.8-0.7l-20.3,0.4l72.7-67.7c0,0,0.1,0.3,0.3,0.9
			c3.6-3,7.5-5,12-5c-4.3,3.3-6.6,9-9,14.4c0.4,1.2,0.8,2.6,1.3,4c15.6-6.7,32.5-11.8,44.5-27.2c2.2-2.3-7.2-5.7-12.3-7.9
			c23.3-4.5,46.4-6.7,69.5-3.4c2.2,17.8,12.3,30.2,17.4,45.7c0-6.7-0.8-13.4-4.3-18.9c3.7,0,5.1,5.5,7.3,8.9
			c10.1,14.4,20.3,29,30.4,42.4c-7.9-5.5-15.2-11.1-23.1-15.6c15.1,17.9,33.2,30.2,50.6,33.5c4.3,1.2,10.1-16.8,18.8-16.8
			c-1.4,1-2.8,2.2-3.6,4.5c10.5,4.9,20.1,12.2,29,21.1c-10.5,8.4-21,16.8-31.3,25.1c-42.8-20.3-66.1,9.7-107.3-17.7
			c-5.9-4.5-33.6-16.5-37.9-16.5l-32.1-5.3L772.5,82.1z"/>
		<path class="st1" d="M983.6,86.3c-8.7,0-18.8,8.9-27.5,6.7c-9.5-3.4-17.4-14.6-25.3-24.6c-16.6-18.9-30.4-39-43.5-62.5
			c-37.7,4.5-77.4-22.3-111.4,20.1c-0.4,0.5-0.6,0.8-1,1.3L726.5,81c4.9-4.7,58.3-52.8,64.6-52.8c-5.8,4.5-7.9,13.4-11.6,20.1
			c16.6-7.9,35.5-12.2,48.4-29c2.2-2.2-7.3-5.5-12.3-7.9c23.1-4.5,46.3-6.7,69.5-3.4c2.2,17.9,12.3,30.2,17.4,45.7
			c0-6.7-0.8-13.4-4.3-18.9c3.6,0,5.1,5.5,7.3,8.9c10.1,14.6,20.3,29,30.4,42.4c-7.9-5.5-15.2-11.2-23.1-15.6
			c15.2,17.9,33.4,30.2,50.6,33.5c4.3,1.2,10.1-16.8,18.8-16.8c-1.4,1.2-2.9,2.2-3.6,4.5c10.5,4.9,20.1,12.1,29,21.1
			c2.8-2.2,5.6-4.5,8.4-6.7C1005.2,97,994.3,88.2,983.6,86.3z"/>
	</g>
	<g>
		<path class="st0" d="M1261.7,90c0.2,0,0.6,0.2,0.9,0.3c37.7,15.5,73.2,26.1,107.9,33.8c4.3-6.1,8.5-12.5,12.6-18.9
			c13,6.4,16.1-16.1,23.3-24.7c1.1-1.3,2.4-2.6,3.6-3.8c-0.8-0.1-1.6,0-2.3,0c-11.5-1.9-23.3-6.8-33.3-4.1c4.5,4.1,9,7.2,13.6,11.3
			c-11.5,2.3-28.3-10.6-39.1-25.4c5.5-1.5,11.7-0.4,17.2-1.9c-17.7-12.4-32.9-2.1-49.4-3.7c3.3,1.6,6.4,4.2,9.6,6.9
			c-11.7-2.3-24.1-6.4-35.9-8.7c-5,1-9.9,2.2-14.9,3.4c-1.5,0.7-2.4,4.3-2.6,6.4c-0.9,8.8-1.8,17.5-4.7,23.1
			C1266.8,86.9,1264.1,88.1,1261.7,90z"/>
		<path class="st1" d="M1407.9,76.5c0.8,0,1.5-0.1,2.3,0c4.1-4.2,8.3-7.9,12.3-12.1c-10,6.3-22.6,7.6-35.4,4.1
			c-10-2.6-22.4-20.7-33-22c-21.8-1.4-43.1,0.2-63.5,4.5c11.7,2.3,24.1,6.4,35.9,8.7c-3.1-2.6-6.3-5.3-9.6-6.9
			c16.4,1.6,31.5-8.7,49.4,3.7c-5.5,1.5-11.7,0.4-17.2,1.9c10.8,14.8,27.6,27.7,39.1,25.4c-4.5-4.1-9-7.2-13.6-11.3
			C1384.5,69.8,1396.2,74.6,1407.9,76.5z"/>
	</g>
	<path class="st0" d="M1760.6,86.7c-8.2,2.9-15.7,7.3-22.7,12.6c8.2,5,16.4,10,24.5,15c33.5-12.1,66.7-23.8,99-40.2
		c4.6-2.7,10.8-6.7,14.2-6.7c14.7-1.1,30.9,4.3,44.4,13.8V54c-3.8-2.9-7.8-5.3-12.7-5.3c4.6,2.7,6.3,8,9.1,12
		c-13-4.6-27.7-7.3-37.9-17.3c-1.7-1.4,5.6-3.4,9.6-4.7c-18.2-2.7-36.3-4-54.4-2c-1.7,10.6-9.6,18-13.6,27.3c0-4,0.6-8,3.4-11.3
		c-2.9,0-4,3.3-5.7,5.3c-7.9,8.6-15.9,17.3-23.8,25.3c6.2-3.3,11.9-6.6,18.1-9.3c-11.8,10.7-26,18-39.6,20c-3.4,0.7-7.9-10-14.7-10
		C1758.9,84.6,1760,85.3,1760.6,86.7z"/>
	<path class="st1" d="M1731.2,95.2c2.2,1.3,4.4,2.7,6.6,4c7-5.4,14.5-9.7,22.7-12.6c-0.5-1.4-1.7-2-2.8-2.7c6.8,0,11.3,10.7,14.7,10
		c13.5-2,27.7-9.3,39.6-20c-6.2,2.6-11.9,6-18.1,9.3c7.9-8,15.9-16.6,23.8-25.3c1.7-2,2.9-5.3,5.7-5.3c-2.8,3.3-3.4,7.3-3.4,11.3
		c4-9.3,11.9-16.6,13.6-27.3c18.2-2,36.3-0.7,54.4,2c-3.9,1.4-11.3,3.4-9.6,4.7c10.1,10,24.9,12.6,37.9,17.3c-2.9-4-4.6-9.3-9.1-12
		c4.9,0,8.9,2.5,12.7,5.3v-5.8c-0.3-0.3-0.5-0.5-0.8-0.8c-26.6-25.3-57.7-9.3-87.2-12c-10.2,14-21,26-34,37.3
		c-6.2,6-12.4,12.7-19.8,14.7c-6.8,1.3-14.7-4-21.5-4C1748.2,84.4,1739.7,89.7,1731.2,95.2z"/>
	<g>
		<path class="st0" d="M1537.7,49.8c0.2,0.1,0.5,0.3,0.7,0.5c27.4,21.3,54.9,38.8,83,54.2c6.5-2.6,13-5.4,19.5-8.2
			c9,8,21.5-5.4,31.7-8.7c1.6-0.5,3.3-0.9,4.9-1.3c-0.7-0.3-1.4-0.5-2.1-0.7c-9.6-4.7-18.1-11.4-28.3-12.7c2.3,4,5.1,7.3,7.4,11.3
			c-11.4-2-21-15.3-24.4-28c5.6,0.7,10.7,3.3,16.4,4c-10.7-13.3-28.8-11.3-43-17.3c2.3,2,4,4.6,5.7,7.3c-9.6-5-19-11.4-28.7-16.4
			c-4.9-0.9-9.9-1.6-14.9-2.3c-1.7,0-4,2-5.1,3.3c-4.6,5.3-9.1,10.6-14.2,13.3C1543.6,49.3,1540.6,49.3,1537.7,49.8z"/>
		<path class="st1" d="M1675.5,85.4c0.7,0.2,1.4,0.4,2.1,0.7c5.5-1.4,10.9-2.5,16.3-4c-11.7,1-23.7-2-33.7-8.1
			c-7.9-4.7-11.3-20-20.4-24c-19.1-7.5-39-12.9-59.3-16.4c9.6,5,19,11.4,28.7,16.4c-1.7-2.6-3.4-5.3-5.7-7.3c14.1,6,32.2,4,43,17.3
			c-5.6-0.7-10.7-3.3-16.4-4c3.4,12.7,13.1,26,24.4,28c-2.3-4-5.1-7.3-7.4-11.3C1657.3,74.1,1665.8,80.7,1675.5,85.4z"/>
	</g>
	<g>
		<path class="st0" d="M1332.9,91c-6.8,0-11.3,9.2-14.7,8.6c-13.6-1.7-27.8-8-39.6-17.1c6.2,2.3,11.9,5.1,18.1,8
			c-7.9-6.9-15.9-14.3-23.8-21.7c-1.7-1.7-2.8-4.5-5.7-4.5c2.8,2.8,3.4,6.3,3.4,9.7c-4-8-11.9-14.3-13.6-23.4
			c-18.1-1.7-36.2-0.6-54.4,1.7c4,1.1,11.3,2.8,9.6,4c-10.2,8.6-24.9,10.9-37.9,14.8c2.8-3.4,4.5-8,9.1-10.3
			c-4.9,0-8.9,2.1-12.7,4.5v23.3c13.5-8.1,29.7-12.8,44.4-11.8c3.4,0,9.6,3.4,14.2,5.7c32.3,14,65.5,24.1,99,34.4
			c8.1-4.3,16.3-8.6,24.5-12.9c-7-4.5-14.5-8.3-22.7-10.8C1330.7,92.1,1331.8,91.5,1332.9,91z"/>
		<path class="st1" d="M1334.1,90.4c-6.8,0-14.7,4.5-21.5,3.4c-7.4-1.7-13.6-7.5-19.8-12.6c-13-9.7-23.8-20-34-32
			c-29.5,2.3-60.6-11.4-87.2,10.3c-0.3,0.3-0.5,0.4-0.8,0.7v5c3.8-2.4,7.8-4.5,12.7-4.5c-4.5,2.3-6.2,6.9-9.1,10.3
			c13-4,27.8-6.3,37.9-14.8c1.7-1.1-5.7-2.8-9.6-4c18.1-2.3,36.2-3.4,54.4-1.7c1.7,9.2,9.6,15.4,13.6,23.4c0-3.4-0.6-6.9-3.4-9.7
			c2.8,0,4,2.8,5.7,4.5c7.9,7.5,15.9,14.8,23.8,21.7c-6.2-2.8-11.9-5.7-18.1-8c11.9,9.2,26.1,15.4,39.6,17.1
			c3.4,0.6,7.9-8.6,14.7-8.6c-1.1,0.6-2.3,1.1-2.8,2.3c8.2,2.5,15.7,6.2,22.7,10.8c2.2-1.1,4.4-2.3,6.6-3.4
			C1351,95.9,1342.5,91.4,1334.1,90.4z"/>
	</g>
	<g>
		<path class="st0" d="M273.8,93.3c-3.5-5.3-5.3-13.9-7.1-22.5c-0.4-2.1-1.7-5.5-3.3-6.1c-5-0.7-10.1-1.4-15.1-1.9
			c-11.5,3.5-23.4,8.9-34.8,12.4c2.9-3,5.7-6,8.8-7.9c-16.2,3.3-32.4-5.4-48.7,8.8c5.7,1,11.7-0.8,17.4,0.1
			c-9.2,15.8-24.5,30.4-36.2,29.3c4-4.6,8.2-8.1,12.3-12.6c-10.2-1.6-21.4,4.5-32.7,7.6c-0.8,0-1.5,0.1-2.3,0.2
			c1.3,1.1,2.7,2.2,4,3.4c8.1,7.8,13.6,29.8,25.8,22.1c4.8,5.9,9.6,11.8,14.5,17.4c33.7-11.3,67.9-25.5,103.8-44.9
			c0.3-0.2,0.7-0.4,0.9-0.4C278.7,96.8,275.8,95.8,273.8,93.3z"/>
		<path class="st1" d="M167.2,92.7c-4,4.6-8.2,8.1-12.3,12.6c11.6,1.1,27-13.5,36.2-29.3c-5.7-1-11.7,0.8-17.4-0.1
			c16.4-14.2,32.6-5.5,48.7-8.8c-3.1,1.9-6,5-8.8,7.9c11.5-3.5,23.4-8.9,34.8-12.4c-20.8-2.1-42.1-1.4-63.6,2.2
			c-10.5,2.3-20.9,21.6-30.5,25.3c-12.3,4.8-25,4.9-35.6-0.4c4.4,3.8,9,7.1,13.5,10.8c0.8-0.2,1.6-0.2,2.3-0.2
			C145.8,97.2,156.9,91.2,167.2,92.7z"/>
	</g>
</g>
</svg>
