<?xml version="1.0" encoding="utf-8"?>
<!-- Generator: Adobe Illustrator 25.3.1, SVG Export Plug-In . SVG Version: 6.00 Build 0)  -->
<svg version="1.1" id="Capa_1" xmlns="http://www.w3.org/2000/svg" xmlns:xlink="http://www.w3.org/1999/xlink" x="0px" y="0px"
	 viewBox="0 0 1922 154" style="enable-background:new 0 0 1922 154;" xml:space="preserve">
<style type="text/css">
	.st0{fill:#C4DDEB;}
	.st1{fill:#FBFBFB;}
	.st2{fill:#FFFFFF;}
</style>
<g>
	<g>
		<path class="st0" d="M621.6,115.1c-24.6,0.9-48.2,8.7-71.8,16.6h204V84.6c-13-5.2-27.2-6.5-41-5c4.5,2.3,9.6,5.1,13.6,8.6
			c-18.7,3.4-36.8,8-56.1,9.7c2.8-3.4,5.1-8,8.5-11.4c-24.3,9.1-48.7,18.8-73.6,26.8C610.8,114.4,615.9,113.9,621.6,115.1z"/>
		<path class="st1" d="M532.4,131.6h17.4c23.6-8,47.2-15.8,71.8-16.6c-5.6-1.1-10.7-0.6-16.4-1.7c24.9-8,49.2-17.6,73.6-26.8
			c-3.4,3.4-5.7,8-8.5,11.4c19.3-1.7,37.4-6.3,56.1-9.7c-4-3.4-9.1-6.3-13.6-8.6c13.8-1.5,28-0.3,41,5V84
			c-13.5-8.1-29.8-12.8-44.4-11.8c-3.4,0-9.7,3.4-14.2,5.7c-41.9,18.2-85.5,29.6-129.1,43.9C554.8,125.6,543.6,128.9,532.4,131.6z"
			/>
	</g>
	<g>
		<path class="st0" d="M361.7,61.4c-8.8,3.1-17.7,5.1-26.8,6.5c-1.3,0.4-2.5,0.9-3.8,1.3v64.3h194c-19.5-7.4-38.7-15.2-57.6-23.6
			c-16.5-4.9-33.3-8.8-49.8-14.1c2.9,2.8,5.1,6.3,9.1,8C403,92.7,382.6,76.2,361.7,61.4z"/>
		<path class="st1" d="M363.2,56.2c-9.3,4.5-18.7,8.4-28.3,11.7c9-1.3,18-3.3,26.8-6.5c20.9,14.8,41.3,31.4,65.1,42.2
			c-4-1.7-6.3-5.1-9.1-8c16.5,5.3,33.3,9.3,49.8,14.1c-32.1-14.5-63.5-31.1-94.7-51.8C369.4,55.6,366,54.5,363.2,56.2z"/>
	</g>
	<g>
		<path class="st0" d="M542,74.2c-24.9-8-51.4-17.6-75.7-26.7c2.8,4.1,2.1,8.4,7.1,10.2c-19.3-1.7-34.9-6-53.6-9.4
			c4-3.4,9.1-6.3,13.6-8.6c-13.8-1.5-28-0.3-41,5l2.6,91.2l250.9-4.3c-9.7-3.3-12.2-22.3-26.6-34.2c-3.3-2.7,4.9,0.2-6.7-4.7
			c-24.1-10.3-72.8-16-85-16.4C533.5,75,536.4,75.3,542,74.2z"/>
		<path class="st1" d="M579,82.9C535.4,68.6,491.8,57.2,449.9,39c-4.5-2.3-10.8-5.7-14.2-5.7c-14.6-0.9-30.9,3.7-44.4,11.8v0.5
			c13-5.2,27.2-6.5,41-5c-4.5,2.3-9.6,5.1-13.6,8.6c18.7,3.4,36.8,8,56.1,9.7c-2.8-3.4-5.1-8-8.5-11.4c24.4,9.2,48.7,18.8,73.6,26.8
			c-5.7,1.1-10.8,0.6-16.4,1.7c24.6,0.9,48.2,8.7,71.8,16.6l21.8,1.9C608.2,89.2,590.3,86.6,579,82.9z"/>
	</g>
	<g>
		<path class="st0" d="M1177.5,106.1c-17.2,1.1-33.6,11.2-50.1,21.5h142.3v-61c-9.1-6.8-19-8.4-28.6-6.4c3.1,3,6.7,6.7,9.5,11.1
			c-13,4.4-25.7,10.3-39.1,12.5c2-4.4,3.6-10.3,5.9-14.7c-17,11.8-34,24.4-51.4,34.7C1169.9,105.2,1173.5,104.5,1177.5,106.1z"/>
		<path class="st1" d="M1115.2,127.3h12.1c16.5-10.3,32.9-20.4,50.1-21.5c-3.9-1.4-7.5-0.8-11.4-2.2c17.4-10.3,34.3-22.8,51.4-34.7
			c-2.4,4.4-4,10.3-5.9,14.7c13.5-2.2,26.1-8.1,39.1-12.5c-2.8-4.4-6.3-8.1-9.5-11.1c9.6-2,19.5-0.3,28.6,6.4v-0.7
			c-9.4-10.5-20.8-16.5-31-15.3c-2.4,0-6.8,4.4-9.9,7.4c-29.2,23.6-59.7,38.4-90.1,56.9C1130.9,119.6,1123,123.9,1115.2,127.3z"/>
	</g>
	<g>
		<path class="st0" d="M1064.8,94.6c15.1,13,30.3,24.5,45.9,35.5h6.6c7.9-3.5,15.6-7.9,23.5-12.6c5.4-3.2,10.8-6.4,16.2-9.5
			c-5.1-4.9-9.6-11.6-15.4-14.1c1.7,2.5,3.1,6.1,5.1,8.4c0.3,0.4,0.8,0.9,1.2,1.2c-0.4-0.3-0.8-0.8-1.2-1.2
			c-6.6-6.8-12.3-17-19-23.9c0.8,0.4,1.6,0.3,2.4,0.6c-4.3-3.5-8-10.8-12.6-8.8c-8.3,4.4-16.2,8.9-24.5,12.5c0.8,0.8,0.8,3,2,3
			c-5.5,3.7-10.7,8.1-16.2,10.3c0.3-1.6,0-3.8,0.8-5.2C1074.5,91.3,1069.5,92.7,1064.8,94.6z"/>
		<path class="st1" d="M1141.4,93.5c5.8,2.4,10.3,9.2,15.4,14.1c1.6-0.9,3.2-1.9,4.8-2.8c-13.7-13.5-27.5-26.8-41.5-39.4
			c-2.4,1.2-4.8,2-7.3,2.3c-4.9,2.1-9.8,3.5-14.9,5.8c-7.1,3.8-15.8,18.5-22.1,9.6c-4.5,3.2-9.1,6.2-13.6,9.1
			c0.8,0.7,1.6,1.4,2.4,2.1c4.8-1.8,9.8-3.2,14.7-3.8c-0.8,1.6-0.3,3.8-0.8,5.2c5.5-2.2,10.7-6.7,16.2-10.3c-1.2,0-1.2-2.2-2-3
			c8.3-3.7,16.2-8.1,24.5-12.5c4.7-2,8.4,5.2,12.6,8.8c0.4,0.1,0.8,0.4,1.2,0.9c-0.4-0.2-0.8-0.6-1.2-0.9c-0.8-0.2-1.6-0.1-2.4-0.6
			c6.8,7,12.4,17.2,19,23.9C1144.6,99.7,1143.2,96.2,1141.4,93.5z"/>
	</g>
	<g>
		<path class="st0" d="M996.1,36.5c-6.1,4-12.4,6.7-18.7,8.4c-0.9,0.6-1.7,1.1-2.7,1.7v83.1h135.4c-13.6-9.5-27-19.6-40.2-30.6
			c-11.5-6.3-23.2-11.4-34.7-18.3c2,3.7,3.6,8.1,6.3,10.3C1024.9,77.1,1010.7,55.7,996.1,36.5z"/>
		<path class="st1" d="M997.2,29.9c-6.5,5.9-13,10.9-19.7,15.1c6.3-1.7,12.6-4.3,18.7-8.4c14.6,19.2,28.8,40.6,45.4,54.6
			c-2.8-2.2-4.4-6.7-6.3-10.3c11.5,6.9,23.2,12,34.7,18.3c-22.4-18.7-44.3-40.2-66.1-67.1C1001.5,29.1,999.1,27.6,997.2,29.9z"/>
	</g>
	<path class="st1" d="M1010.1,18.1c-21.8,31.3-43.7,56.4-66.1,78.3C955.5,89,967.2,83,978.7,75c-2,4.3-3.6,9.4-6.3,12
		c16.6-16.4,30.8-41.4,45.4-63.8c6.1,4.8,12.4,7.9,18.7,9.8c-6.7-4.9-13.3-10.7-19.7-17.6C1014.8,12.9,1012.4,14.6,1010.1,18.1z"/>
	<path class="st1" d="M1530.1,42.3c-9.3,5.3-18.7,9.8-28.3,13.6c9-1.5,18-3.9,26.8-7.6c20.9,17.3,41.3,36.6,65.1,49.3
		c-4-2-6.3-6-9.1-9.3c16.5,6.2,33.3,10.8,49.8,16.5c-32.1-16.9-63.5-36.3-94.7-60.5C1536.3,41.6,1532.9,40.3,1530.1,42.3z"/>
	<path class="st0" d="M423.4,60.2v75H229.3c-0.2,0.1-0.5,0.2-0.7,0.3h-2.8l-6.9-0.1L0.7,133.2v-55c13-6.1,27.2-7.6,41-5.8
		c-4.5,2.7-9.6,6-13.6,10c18.7,4,36.8,9.3,56.1,11.3c-2.8-4-5.1-9.3-8.5-13.3c24.3,10.6,48.7,22,73.6,31.3
		c-5.6,1.3-10.7,0.7-16.4,2.1c11.6,0.5,27.7,3.3,43.9,7c-4.9-1.8-9.7-3.6-14.6-5.4c7.3-4.4,13.7-10.4,22-12.7
		c-2.4,2.4-4.3,5.4-7.2,7.5c0.3-0.2,0.6-0.4,0.8-0.6c-0.3,0.2-0.5,0.5-0.8,0.7c9.5-6.1,17.6-15.3,27.2-21.6c-0.1,0-0.2,0.1-0.3,0.1
		c0.1-0.1,0.2-0.1,0.3-0.2c-1,0.4-2.1,0.3-3.2,0.5c6-3.2,11.2-9.5,17.9-7.8c11.9,4,23.1,8,35,11.3c-1,0.8-1.1,2.6-2.7,2.6
		c0.1,0,0.1,0.1,0.2,0.1c-0.1,0-0.1,0-0.2,0c7.9,3.3,15.3,7.3,23.2,9.3c0,0,0-0.1,0-0.1c0,0,0,0,0,0c0-0.1-0.1-0.2-0.1-0.2
		c0-0.1,0-0.1,0-0.2c-0.2-1-0.1-2.1-0.4-3.1c0,0,0,0,0-0.1c-0.1-0.3-0.2-0.7-0.5-1c7.1,0.5,14.1,1.8,20.9,3.5
		c-4,2.2-8.1,4.3-12.1,6.4c1.7-0.8,3.2-1.6,4.8-2.4c16.5-5.7,33.3-10.3,49.8-16.5c-2.2,2.5-3.9,5.3-6.4,7.5c-0.6,0.5-1.3,1-2,1.4
		c23.5-12.7,43.7-31.8,64.4-48.9c8.8,3.7,17.8,6.1,26.8,7.6C420.9,59.2,422.1,59.7,423.4,60.2z"/>
	<path class="st1" d="M188.4,121.7c-43.6-16.7-87.2-30-129.1-51.3c-4.5-2.7-10.8-6.7-14.2-6.7C30.5,62.6,14.2,68,0.7,77.5v0.6
		c13-6.1,27.2-7.6,41-5.8c-4.5,2.7-9.6,6-13.6,10c18.7,4,36.8,9.3,56.1,11.3c-2.8-4-5.1-9.3-8.5-13.3c24.4,10.7,48.7,22,73.6,31.3
		c-5.7,1.3-10.8,0.7-16.4,2c24.6,1,48.2,10.1,71.8,19.4h17.4C210.9,129.9,199.7,126,188.4,121.7z"/>
	<g>
		<path class="st0" d="M184.3,102.9c0,0,0.1,0,0.1,0c-2.2,2.1-4,4.9-6.5,6.9c-0.3,0.2-0.6,0.4-0.8,0.6
			C180,108.2,181.9,105.2,184.3,102.9z"/>
		<path class="st0" d="M201.1,89.2c1-0.2,2.1-0.1,3.2-0.5c-0.1,0.1-0.2,0.1-0.3,0.2c-1,0.3-2.1,0.2-3.1,0.4
			C201,89.3,201.1,89.2,201.1,89.2z"/>
		<path class="st0" d="M219,135.5l6.9,0.1h-6.6C219.1,135.5,219,135.5,219,135.5z"/>
		<path class="st0" d="M254,92.7C254,92.7,254.1,92.7,254,92.7c-1,0.7-1,2.6-2.5,2.7c-0.1,0-0.1-0.1-0.2-0.1
			C252.9,95.3,253,93.4,254,92.7z"/>
		<path class="st0" d="M273.5,100c0.2,0.3,0.4,0.6,0.5,1C273.8,100.7,273.6,100.3,273.5,100C273.4,100,273.4,100,273.5,100z"/>
		<path class="st0" d="M274.5,104.6C274.5,104.6,274.5,104.6,274.5,104.6c-0.1-0.1-0.1-0.2-0.1-0.2
			C274.4,104.5,274.5,104.5,274.5,104.6z"/>
		<path class="st1" d="M294.5,103.3c-6.9-1.6-14-2.9-21.1-3.4c0,0,0.1,0.1,0.1,0.1c0.2,0.3,0.4,0.6,0.5,1c0,0,0,0,0,0.1
			c0.3,1,0.1,2.2,0.4,3.1c0,0.1,0,0.1,0,0.2c0,0.1,0.1,0.2,0.1,0.2c0,0,0,0,0,0c-7.8-2-15.1-5.9-23-9.2c-0.1,0-0.1-0.1-0.2-0.1
			c1.6,0,1.7-1.9,2.7-2.6c0,0,0.1-0.1,0.1-0.1c-11.9-3.3-23.2-7.3-35.1-11.3c-6.7-1.8-12,4.7-18.1,7.9c-0.6,0.1-1.1,0.4-1.7,0.8
			c0.6-0.2,1.1-0.5,1.7-0.8c0.1,0,0.2,0,0.2,0c1-0.2,2.1-0.1,3.2-0.5c-0.1,0.1-0.2,0.1-0.3,0.2c-9.3,6.1-17.1,14.8-26.1,20.8
			c-0.3,0.2-0.6,0.4-0.8,0.6c2.9-2.1,4.8-5.1,7.2-7.5c0.1-0.1,0.2-0.2,0.3-0.3c-8.3,2.2-14.8,8.3-22.1,12.7
			c-2.3-0.8-4.6-1.7-6.9-2.5c19.7-12.2,39.4-24.2,59.5-35.5c3.4,1.1,6.9,1.8,10.4,2.1c7,1.9,14,3.2,21.3,5.2
			c10.2,3.4,22.6,16.7,31.7,8.7c6.5,2.9,13,5.6,19.5,8.2C296.9,102,295.7,102.7,294.5,103.3z"/>
	</g>
	<g>
		<path class="st0" d="M419.6,58.7c-9-1.5-18-3.9-26.8-7.6C401.6,54.7,410.5,57.1,419.6,58.7z"/>
		<path class="st1" d="M419.6,58.7c-9-1.5-18-3.9-26.8-7.6c-20.7,17.1-40.9,36.2-64.4,48.9c0.7-0.4,1.4-0.9,2-1.4
			c2.5-2.1,4.3-5,6.4-7.5c-16.5,6.2-33.3,10.8-49.8,16.5c32.1-16.9,63.5-36.3,94.7-60.5c3.4-2.7,6.8-4,9.6-2
			C400.6,50.4,410,54.9,419.6,58.7z"/>
	</g>
	<path class="st0" d="M847.9,101.7c-17.4-12-34.4-26.8-51.4-40.5c2.4,5.2,4,12,5.9,17.2c-13.5-2.6-26.1-9.4-39.1-14.6
		c2.8-5.2,6.3-9.4,9.5-12.9c-9.6-2.3-19.5-0.4-28.6,7.5v71.2h142.3c-16.5-12-32.9-23.8-50.1-25.1C840.4,102.6,844,103.4,847.9,101.7
		z"/>
	<path class="st1" d="M875.2,114.7c-30.4-21.6-60.8-38.8-90.1-66.4c-3.1-3.5-7.5-8.7-9.9-8.7c-10.2-1.4-21.6,5.6-31,17.9v0.8
		c9.1-7.9,19-9.8,28.6-7.5c-3.1,3.5-6.7,7.8-9.5,12.9c13,5.2,25.7,12,39.1,14.6c-2-5.2-3.6-12-5.9-17.2c17,13.8,34,28.5,51.4,40.5
		c-4,1.7-7.5,0.9-11.4,2.6c17.2,1.3,33.6,13.1,50.1,25.1h12.1C890.9,125.3,883.1,120.2,875.2,114.7z"/>
	<path class="st0" d="M934.5,86.5c0.8,1.7,0.4,4.3,0.8,6.1c-5.5-2.6-10.7-7.8-16.2-12c1.2,0,1.2-2.6,2-3.5
		c-8.3-4.3-16.2-9.4-24.5-14.6c-4.7-2.3-8.4,6.1-12.6,10.2c0.8-0.3,1.6-0.1,2.4-0.6c-6.7,8.2-12.4,20.1-19,27.9
		c-0.3,0.5-0.8,1-1.2,1.4c0.4-0.4,0.8-0.9,1.2-1.4c2-2.7,3.4-6.9,5.1-9.8c-5.8,2.8-10.3,10.7-15.4,16.4c5.4,3.6,10.8,7.4,16.2,11.1
		c7.9,5.6,15.6,10.6,23.5,14.8h6.6c15.6-12.8,30.8-26.3,45.9-41.4C944.4,88.9,939.4,87.2,934.5,86.5z"/>
	<path class="st1" d="M867.3,99.9c6.6-7.9,12.2-19.8,19-27.9c-0.8,0.5-1.6,0.4-2.4,0.6c-0.4,0.4-0.8,0.8-1.2,1
		c0.4-0.5,0.8-0.9,1.2-1c4.3-4.1,8-12.6,12.6-10.2c8.3,5.2,16.2,10.4,24.5,14.6c-0.8,0.9-0.8,3.5-2,3.5c5.5,4.3,10.7,9.4,16.2,12
		c-0.4-1.7,0-4.3-0.8-6.1c5,0.6,9.9,2.3,14.7,4.4c0.8-0.8,1.7-1.7,2.4-2.5c-4.5-3.4-9.1-6.9-13.6-10.6c-6.3,10.4-15-6.9-22.1-11.3
		c-5.1-2.6-10-4.3-14.9-6.7c-2.4-0.4-4.9-1.3-7.3-2.7c-14,14.6-27.8,30.1-41.5,45.9c1.6,1,3.2,2.2,4.8,3.2
		c5.1-5.7,9.6-13.6,15.4-16.4C870.8,92.9,869.4,97,867.3,99.9z"/>
	<path class="st0" d="M972.4,87c2.8-2.6,4.3-7.8,6.3-12c-11.5,8-23.2,14-34.7,21.3c-13.2,12.8-26.6,24.6-40.2,35.7h135.4V35
		c-0.9-0.6-1.7-1.3-2.7-1.9c-6.3-2.1-12.6-5.2-18.7-9.8C1003.2,45.6,989,70.6,972.4,87z"/>
	<g>
		<path class="st0" d="M1121.9,53.1c-17.4-10.3-35.9-22.8-52.8-34.5c2,5.2,1.5,10.8,5,13.2c-13.5-2.2-24.3-7.8-37.4-12.2
			c2.8-4.4,6.3-8.1,9.5-11.1c-9.6-2-19.5-0.3-28.6,6.4l1.8,118l175.1-5.5c-6.8-4.2-8.5-28.8-18.6-44.2c-2.3-3.6,3.4,0.3-4.6-6.1
			c-16.8-13.4-50.8-20.7-59.3-21.2C1115.9,54.2,1118,54.5,1121.9,53.1z"/>
		<path class="st1" d="M1147.7,64.5c-30.4-18.5-60.8-33.3-90.1-56.9c-3.1-3-7.5-7.4-9.9-7.4c-10.2-1.2-21.6,4.8-31,15.3v0.7
			c9.1-6.8,19-8.4,28.6-6.4c-3.1,3-6.7,6.7-9.5,11.1c13,4.4,25.7,10.3,39.1,12.5c-2-4.4-3.6-10.3-5.9-14.7
			c17,11.9,34,24.4,51.4,34.7c-4,1.4-7.5,0.8-11.4,2.2c17.2,1.1,33.6,11.2,50.1,21.5l15.2,2.5C1168.1,72.6,1155.6,69.2,1147.7,64.5z
			"/>
	</g>
	<g>
		<path class="st0" d="M1316.2,110.5c-24.9-8-49.3-17.7-73.6-26.8c3.4,3.4,5.7,8,8.5,11.4c-19.3-1.7-37.4-6.3-56.1-9.7
			c4-3.4,9.1-6.3,13.6-8.6c-13.8-1.5-28-0.3-41,5v47.1h204c-23.6-8-47.2-15.8-71.8-16.6C1305.5,111.1,1310.6,111.6,1316.2,110.5z"/>
		<path class="st1" d="M1355.3,119.1c-43.6-14.3-87.2-25.7-129.1-43.9c-4.5-2.3-10.8-5.7-14.2-5.7c-14.6-0.9-30.9,3.7-44.4,11.8v0.5
			c13-5.2,27.2-6.5,41-5c-4.5,2.3-9.6,5.1-13.6,8.6c18.7,3.4,36.8,8,56.1,9.7c-2.8-3.4-5.1-8-8.5-11.4c24.4,9.2,48.7,18.8,73.6,26.8
			c-5.7,1.1-10.8,0.6-16.4,1.7c24.6,0.9,48.2,8.7,71.8,16.6h17.4C1377.8,126.1,1366.6,122.7,1355.3,119.1z"/>
	</g>
	<g>
		<path class="st0" d="M1440.3,100.4c1.1,1.1,0.6,2.8,1.1,4c-7.9-1.7-15.3-5.1-23.2-8c1.7,0,1.7-1.7,2.8-2.3
			c-11.9-2.8-23.2-6.3-35.1-9.7c-6.7-1.5-12,4-18.1,6.8c1.1-0.2,2.3-0.1,3.4-0.4c-9.6,5.4-17.7,13.3-27.2,18.5
			c-0.5,0.3-1.1,0.7-1.7,0.9c0.6-0.3,1.2-0.6,1.7-0.9c2.9-1.8,4.9-4.5,7.3-6.5c-8.3,1.9-14.8,7.1-22.1,10.9
			c7.7,2.4,15.5,4.9,23.2,7.4c11.3,3.7,22.4,7,33.7,9.8h9.4c22.4-8.5,44.2-17.4,65.8-27.4C1454.5,102,1447.4,100.9,1440.3,100.4z"/>
		<path class="st1" d="M1344,109.3c9.4-5.2,17.5-13.1,27.2-18.5c-1.1,0.3-2.3,0.3-3.4,0.4c-0.6,0.3-1.1,0.5-1.7,0.7
			c0.6-0.3,1.1-0.6,1.7-0.7c6.1-2.7,11.4-8.3,18.1-6.8c11.9,3.4,23.2,6.9,35.1,9.7c-1.1,0.6-1.1,2.3-2.8,2.3
			c7.9,2.8,15.3,6.3,23.2,8c-0.6-1.1,0-2.8-1.1-4c7.1,0.4,14.2,1.5,21.1,2.9c1.2-0.5,2.4-1.1,3.5-1.6c-6.5-2.2-13-4.5-19.5-7
			c-9.1,6.9-21.5-4.5-31.7-7.5c-7.3-1.7-14.3-2.8-21.3-4.5c-3.5-0.3-7-0.9-10.4-1.8c-20.1,9.7-39.8,20-59.5,30.4
			c2.3,0.7,4.6,1.5,6.9,2.1c7.3-3.8,13.8-9,22.1-10.9C1349,104.6,1347,107.4,1344,109.3z"/>
	</g>
	<g>
		<path class="st0" d="M1494.6,100.8c4-1.7,6.2-5.1,9.1-8c-16.5,5.3-33.3,9.3-49.8,14.1c-18.9,8.5-38.1,16.3-57.6,23.6h194V66.3
			c-1.3-0.4-2.5-0.9-3.8-1.3c-9.1-1.4-18-3.4-26.8-6.5C1538.8,73.4,1518.4,89.9,1494.6,100.8z"/>
		<path class="st1" d="M1548.6,55.1c-31.2,20.7-62.6,37.4-94.7,51.8c16.5-4.9,33.3-8.8,49.8-14.1c-2.8,2.8-5.1,6.3-9.1,8
			c23.8-10.9,44.2-27.4,65.1-42.2c8.8,3.2,17.8,5.2,26.8,6.5c-9.6-3.3-19-7.1-28.3-11.7C1555.4,51.7,1552,52.8,1548.6,55.1z"/>
	</g>
	<g>
		<path class="st0" d="M1788.5,111c-24.6,1-48.2,10.1-71.8,19.4h204v-55c-13-6.1-27.2-7.6-41-5.8c4.5,2.7,9.6,6,13.6,10
			c-18.7,4-36.8,9.3-56.1,11.3c2.8-4,5.1-9.3,8.5-13.3c-24.3,10.6-48.7,22-73.6,31.3C1777.7,110.2,1782.8,109.6,1788.5,111z"/>
		<path class="st1" d="M1699.3,130.2h17.4c23.6-9.3,47.2-18.4,71.8-19.4c-5.6-1.3-10.7-0.7-16.4-2c24.9-9.3,49.2-20.6,73.6-31.3
			c-3.4,4-5.7,9.3-8.5,13.3c19.3-2,37.4-7.3,56.1-11.3c-4-4-9.1-7.3-13.6-10c13.8-1.8,28-0.3,41,5.8v-0.6
			c-13.5-9.5-29.8-14.9-44.4-13.8c-3.4,0-9.7,4-14.2,6.7c-41.9,21.3-85.5,34.6-129.1,51.3C1721.7,123.2,1710.5,127.1,1699.3,130.2z"
			/>
	</g>
	<g>
		<path class="st0" d="M1627.1,100.7c21.6,11.7,43.4,22.1,65.8,32h9.4c11.3-3.2,22.4-7.1,33.7-11.4c7.7-2.9,15.5-5.8,23.2-8.6
			c-7.3-4.4-13.8-10.5-22.1-12.7c2.4,2.3,4.4,5.5,7.3,7.6c0.5,0.4,1.1,0.8,1.7,1.1c-0.6-0.3-1.2-0.7-1.7-1.1
			c-9.5-6.1-17.6-15.3-27.2-21.6c1.1,0.4,2.3,0.3,3.4,0.5c-6.1-3.2-11.4-9.7-18.1-7.9c-11.9,4-23.2,8-35.1,11.3
			c1.1,0.7,1.1,2.7,2.8,2.7c-7.9,3.3-15.3,7.3-23.2,9.3c0.5-1.4,0-3.4,1.1-4.7C1641,97.7,1633.9,99,1627.1,100.7z"/>
		<path class="st1" d="M1736.9,99.7c8.3,2.2,14.8,8.3,22.1,12.7c2.3-0.8,4.6-1.7,6.9-2.5c-19.7-12.2-39.4-24.2-59.5-35.5
			c-3.4,1.1-6.9,1.8-10.4,2.1c-7,1.9-14,3.2-21.3,5.2c-10.2,3.4-22.6,16.7-31.7,8.7c-6.5,2.9-13,5.6-19.5,8.2
			c1.1,0.6,2.3,1.3,3.5,1.9c6.9-1.6,14-2.9,21.1-3.4c-1.1,1.4-0.5,3.4-1.1,4.7c7.9-2,15.3-6,23.2-9.3c-1.7,0-1.7-2-2.8-2.7
			c11.9-3.3,23.2-7.3,35.1-11.3c6.7-1.8,12,4.7,18.1,7.9c0.6,0.1,1.1,0.4,1.7,0.8c-0.6-0.2-1.1-0.5-1.7-0.8
			c-1.1-0.2-2.3-0.1-3.4-0.5c9.7,6.3,17.8,15.5,27.2,21.6C1741.4,105.3,1739.4,102.1,1736.9,99.7z"/>
	</g>
	<path class="st0" d="M1692,132.4c-19.5-8.6-38.7-17.7-57.6-27.6c-16.5-5.7-33.3-10.3-49.8-16.5c2.9,3.3,5.1,7.3,9.1,9.3
		c-23.8-12.7-44.1-31.9-65-49.2l0.2-6.6c-13-5.2-27.2-6.5-41-5c4.5,2.3,9.6,5.1,13.6,8.6c-18.7,3.4-34.3,7.7-53.6,9.4
		c5-1.8,4.3-6.1,7.1-10.2c-24.3,9.1-50.8,18.7-75.7,26.7c5.6,1.1,8.6,0.9,14.3,2.1c-12.2,0.4-60.9,6.1-85,16.4
		c-11.6,5-3.3,2-6.7,4.7c-14.4,11.9-16.9,30.9-26.6,34.2l250.9,4.3l0-0.6H1692z"/>
	<path class="st1" d="M1304.4,91.7l21.8-1.9c23.6-8,47.2-15.8,71.8-16.6c-5.6-1.1-10.7-0.6-16.4-1.7c24.9-8,49.2-17.6,73.6-26.8
		c-3.4,3.4-5.7,8-8.5,11.4c19.3-1.7,37.4-6.3,56.1-9.7c-4-3.4-9.1-6.3-13.6-8.6c13.8-1.5,28-0.3,41,5v-0.5
		c-13.5-8.1-29.8-12.8-44.4-11.8c-3.4,0-9.7,3.4-14.2,5.7c-41.9,18.2-85.5,29.6-129.1,43.9C1331.1,83.8,1313.2,86.4,1304.4,91.7z"/>
</g>
<path class="st1" d="M1922,111.3v23.4l-250.2-0.3c-0.9,0.1-1.9,0.2-2.8,0.2l-200.7,2c-24.8-2.1-50.4,0.5-75.3,0
	c-11.2,0.3-22.4,0.9-33.6,2.1l-163.9-3.9h-183.7c-28.2,0.6-57.1-0.2-85.1,1.9l-226.1,0.1H423.6c-19.5,0.5-39.5,0-58.9,0l-161.3,0.1
	H0v-23.4c24.4-3.5,48.3,3.6,72.7,6.9c7.4,0.7,14.8,0.7,22.1,1.4c19.5,2.9,38.8,5.9,58,8.6c1.9-0.4,3.5-0.7,4.3-0.8
	c63.5-3.3,126.3-5.9,189.7-12.6c26.2-3,52.2-3.6,78.1-4.6l0,0.2c30.9-1.5,61.3,4.6,92.4,7.6c10.4,0.7,20.7,0.7,31,1.4
	c26.9,2.9,53.5,5.8,80,8.5c2.4-0.2,5-0.5,7.3-0.6c89-3.3,177.1-5.9,265.9-12.6c31.3-2.6,62.3-4.5,93.2-5.6v-0.1
	c24.4-3.5,48.3,3.6,72.7,6.9c7.4,0.7,14.8,0.7,22.1,1.4c19.2,2.9,38.2,5.8,57.2,8.5c2.1-0.3,4.1-0.6,5.1-0.6
	c63.5-3.3,126.3-5.9,189.7-12.6c20.4-2.3,40.6-4.1,60.7-5.3c0,0,0.1,0,0.1,0c5.7-0.6,11.4-0.8,17.1-0.8h0.8c23.6,0,47.2,3.9,70.4,6
	c78.9,6.7,157,9.3,236,12.6c1.8,0.1,3.9,0.3,5.9,0.4c23.8-2.6,47.8-5.4,71.6-8.3c9.1-0.7,18.3-0.7,27.5-1.4
	C1861.9,114.9,1891.6,107.8,1922,111.3z"/>
<rect x="-35.6" y="133" class="st2" width="1967.5" height="32.7"/>
</svg>
